G04 #@! TF.FileFunction,Legend,Top*
%FSLAX46Y46*%
G04 Gerber Fmt 4.6, Leading zero omitted, Abs format (unit mm)*
G04 Created by KiCad (PCBNEW 4.0.7-e2-6376~58~ubuntu16.04.1) date Mon Jun  4 14:47:17 2018*
%MOMM*%
%LPD*%
G01*
G04 APERTURE LIST*
%ADD10C,0.100000*%
%ADD11C,0.150000*%
%ADD12C,0.120000*%
%ADD13C,0.500000*%
%ADD14C,0.200000*%
%ADD15C,0.075000*%
G04 APERTURE END LIST*
D10*
X129976191Y-102083333D02*
X130214286Y-102083333D01*
X129928572Y-102226190D02*
X130095239Y-101726190D01*
X130261905Y-102226190D01*
X130428572Y-102226190D02*
X130428572Y-101726190D01*
X130547619Y-101726190D01*
X130619048Y-101750000D01*
X130666667Y-101797619D01*
X130690476Y-101845238D01*
X130714286Y-101940476D01*
X130714286Y-102011905D01*
X130690476Y-102107143D01*
X130666667Y-102154762D01*
X130619048Y-102202381D01*
X130547619Y-102226190D01*
X130428572Y-102226190D01*
X131214286Y-102178571D02*
X131190476Y-102202381D01*
X131119048Y-102226190D01*
X131071429Y-102226190D01*
X131000000Y-102202381D01*
X130952381Y-102154762D01*
X130928572Y-102107143D01*
X130904762Y-102011905D01*
X130904762Y-101940476D01*
X130928572Y-101845238D01*
X130952381Y-101797619D01*
X131000000Y-101750000D01*
X131071429Y-101726190D01*
X131119048Y-101726190D01*
X131190476Y-101750000D01*
X131214286Y-101773810D01*
X132095238Y-102178571D02*
X132071428Y-102202381D01*
X132000000Y-102226190D01*
X131952381Y-102226190D01*
X131880952Y-102202381D01*
X131833333Y-102154762D01*
X131809524Y-102107143D01*
X131785714Y-102011905D01*
X131785714Y-101940476D01*
X131809524Y-101845238D01*
X131833333Y-101797619D01*
X131880952Y-101750000D01*
X131952381Y-101726190D01*
X132000000Y-101726190D01*
X132071428Y-101750000D01*
X132095238Y-101773810D01*
X132309524Y-102226190D02*
X132309524Y-101726190D01*
X132309524Y-101964286D02*
X132595238Y-101964286D01*
X132595238Y-102226190D02*
X132595238Y-101726190D01*
X132809524Y-102202381D02*
X132857143Y-102226190D01*
X132952381Y-102226190D01*
X133000000Y-102202381D01*
X133023810Y-102154762D01*
X133023810Y-102130952D01*
X133000000Y-102083333D01*
X132952381Y-102059524D01*
X132880953Y-102059524D01*
X132833334Y-102035714D01*
X132809524Y-101988095D01*
X132809524Y-101964286D01*
X132833334Y-101916667D01*
X132880953Y-101892857D01*
X132952381Y-101892857D01*
X133000000Y-101916667D01*
X134619047Y-70750000D02*
X134571428Y-70726190D01*
X134500000Y-70726190D01*
X134428571Y-70750000D01*
X134380952Y-70797619D01*
X134357143Y-70845238D01*
X134333333Y-70940476D01*
X134333333Y-71011905D01*
X134357143Y-71107143D01*
X134380952Y-71154762D01*
X134428571Y-71202381D01*
X134500000Y-71226190D01*
X134547619Y-71226190D01*
X134619047Y-71202381D01*
X134642857Y-71178571D01*
X134642857Y-71011905D01*
X134547619Y-71011905D01*
X134857143Y-71226190D02*
X134857143Y-70726190D01*
X135142857Y-71226190D01*
X135142857Y-70726190D01*
X135380953Y-71226190D02*
X135380953Y-70726190D01*
X135500000Y-70726190D01*
X135571429Y-70750000D01*
X135619048Y-70797619D01*
X135642857Y-70845238D01*
X135666667Y-70940476D01*
X135666667Y-71011905D01*
X135642857Y-71107143D01*
X135619048Y-71154762D01*
X135571429Y-71202381D01*
X135500000Y-71226190D01*
X135380953Y-71226190D01*
X131333334Y-70726190D02*
X131500001Y-71226190D01*
X131666667Y-70726190D01*
X132119048Y-71178571D02*
X132095238Y-71202381D01*
X132023810Y-71226190D01*
X131976191Y-71226190D01*
X131904762Y-71202381D01*
X131857143Y-71154762D01*
X131833334Y-71107143D01*
X131809524Y-71011905D01*
X131809524Y-70940476D01*
X131833334Y-70845238D01*
X131857143Y-70797619D01*
X131904762Y-70750000D01*
X131976191Y-70726190D01*
X132023810Y-70726190D01*
X132095238Y-70750000D01*
X132119048Y-70773810D01*
X132619048Y-71178571D02*
X132595238Y-71202381D01*
X132523810Y-71226190D01*
X132476191Y-71226190D01*
X132404762Y-71202381D01*
X132357143Y-71154762D01*
X132333334Y-71107143D01*
X132309524Y-71011905D01*
X132309524Y-70940476D01*
X132333334Y-70845238D01*
X132357143Y-70797619D01*
X132404762Y-70750000D01*
X132476191Y-70726190D01*
X132523810Y-70726190D01*
X132595238Y-70750000D01*
X132619048Y-70773810D01*
X129416667Y-71226190D02*
X129250000Y-70988095D01*
X129130953Y-71226190D02*
X129130953Y-70726190D01*
X129321429Y-70726190D01*
X129369048Y-70750000D01*
X129392857Y-70773810D01*
X129416667Y-70821429D01*
X129416667Y-70892857D01*
X129392857Y-70940476D01*
X129369048Y-70964286D01*
X129321429Y-70988095D01*
X129130953Y-70988095D01*
X129583334Y-70726190D02*
X129916667Y-71226190D01*
X129916667Y-70726190D02*
X129583334Y-71226190D01*
X126619048Y-70726190D02*
X126904762Y-70726190D01*
X126761905Y-71226190D02*
X126761905Y-70726190D01*
X127023810Y-70726190D02*
X127357143Y-71226190D01*
X127357143Y-70726190D02*
X127023810Y-71226190D01*
D11*
X151273809Y-76952381D02*
X151273809Y-75952381D01*
X151654762Y-75952381D01*
X151750000Y-76000000D01*
X151797619Y-76047619D01*
X151845238Y-76142857D01*
X151845238Y-76285714D01*
X151797619Y-76380952D01*
X151750000Y-76428571D01*
X151654762Y-76476190D01*
X151273809Y-76476190D01*
X152273809Y-76952381D02*
X152273809Y-76285714D01*
X152273809Y-76476190D02*
X152321428Y-76380952D01*
X152369047Y-76333333D01*
X152464285Y-76285714D01*
X152559524Y-76285714D01*
X153035714Y-76952381D02*
X152940476Y-76904762D01*
X152892857Y-76857143D01*
X152845238Y-76761905D01*
X152845238Y-76476190D01*
X152892857Y-76380952D01*
X152940476Y-76333333D01*
X153035714Y-76285714D01*
X153178572Y-76285714D01*
X153273810Y-76333333D01*
X153321429Y-76380952D01*
X153369048Y-76476190D01*
X153369048Y-76761905D01*
X153321429Y-76857143D01*
X153273810Y-76904762D01*
X153178572Y-76952381D01*
X153035714Y-76952381D01*
X154226191Y-76285714D02*
X154226191Y-77095238D01*
X154178572Y-77190476D01*
X154130953Y-77238095D01*
X154035714Y-77285714D01*
X153892857Y-77285714D01*
X153797619Y-77238095D01*
X154226191Y-76904762D02*
X154130953Y-76952381D01*
X153940476Y-76952381D01*
X153845238Y-76904762D01*
X153797619Y-76857143D01*
X153750000Y-76761905D01*
X153750000Y-76476190D01*
X153797619Y-76380952D01*
X153845238Y-76333333D01*
X153940476Y-76285714D01*
X154130953Y-76285714D01*
X154226191Y-76333333D01*
X146380953Y-76428571D02*
X146523810Y-76476190D01*
X146571429Y-76523810D01*
X146619048Y-76619048D01*
X146619048Y-76761905D01*
X146571429Y-76857143D01*
X146523810Y-76904762D01*
X146428572Y-76952381D01*
X146047619Y-76952381D01*
X146047619Y-75952381D01*
X146380953Y-75952381D01*
X146476191Y-76000000D01*
X146523810Y-76047619D01*
X146571429Y-76142857D01*
X146571429Y-76238095D01*
X146523810Y-76333333D01*
X146476191Y-76380952D01*
X146380953Y-76428571D01*
X146047619Y-76428571D01*
X147190476Y-76952381D02*
X147095238Y-76904762D01*
X147047619Y-76857143D01*
X147000000Y-76761905D01*
X147000000Y-76476190D01*
X147047619Y-76380952D01*
X147095238Y-76333333D01*
X147190476Y-76285714D01*
X147333334Y-76285714D01*
X147428572Y-76333333D01*
X147476191Y-76380952D01*
X147523810Y-76476190D01*
X147523810Y-76761905D01*
X147476191Y-76857143D01*
X147428572Y-76904762D01*
X147333334Y-76952381D01*
X147190476Y-76952381D01*
X148095238Y-76952381D02*
X148000000Y-76904762D01*
X147952381Y-76857143D01*
X147904762Y-76761905D01*
X147904762Y-76476190D01*
X147952381Y-76380952D01*
X148000000Y-76333333D01*
X148095238Y-76285714D01*
X148238096Y-76285714D01*
X148333334Y-76333333D01*
X148380953Y-76380952D01*
X148428572Y-76476190D01*
X148428572Y-76761905D01*
X148380953Y-76857143D01*
X148333334Y-76904762D01*
X148238096Y-76952381D01*
X148095238Y-76952381D01*
X148714286Y-76285714D02*
X149095238Y-76285714D01*
X148857143Y-75952381D02*
X148857143Y-76809524D01*
X148904762Y-76904762D01*
X149000000Y-76952381D01*
X149095238Y-76952381D01*
X146773810Y-71678571D02*
X146440476Y-71678571D01*
X146440476Y-72202381D02*
X146440476Y-71202381D01*
X146916667Y-71202381D01*
X147154762Y-71202381D02*
X147726191Y-71202381D01*
X147440476Y-72202381D02*
X147440476Y-71202381D01*
X148059524Y-72202381D02*
X148059524Y-71202381D01*
X148297619Y-71202381D01*
X148440477Y-71250000D01*
X148535715Y-71345238D01*
X148583334Y-71440476D01*
X148630953Y-71630952D01*
X148630953Y-71773810D01*
X148583334Y-71964286D01*
X148535715Y-72059524D01*
X148440477Y-72154762D01*
X148297619Y-72202381D01*
X148059524Y-72202381D01*
X149059524Y-72202381D02*
X149059524Y-71202381D01*
X151714286Y-71678571D02*
X151380952Y-71678571D01*
X151380952Y-72202381D02*
X151380952Y-71202381D01*
X151857143Y-71202381D01*
X152238095Y-72202381D02*
X152238095Y-71202381D01*
X152619048Y-71202381D01*
X152714286Y-71250000D01*
X152761905Y-71297619D01*
X152809524Y-71392857D01*
X152809524Y-71535714D01*
X152761905Y-71630952D01*
X152714286Y-71678571D01*
X152619048Y-71726190D01*
X152238095Y-71726190D01*
X153761905Y-71250000D02*
X153666667Y-71202381D01*
X153523810Y-71202381D01*
X153380952Y-71250000D01*
X153285714Y-71345238D01*
X153238095Y-71440476D01*
X153190476Y-71630952D01*
X153190476Y-71773810D01*
X153238095Y-71964286D01*
X153285714Y-72059524D01*
X153380952Y-72154762D01*
X153523810Y-72202381D01*
X153619048Y-72202381D01*
X153761905Y-72154762D01*
X153809524Y-72107143D01*
X153809524Y-71773810D01*
X153619048Y-71773810D01*
X154190476Y-71916667D02*
X154666667Y-71916667D01*
X154095238Y-72202381D02*
X154428571Y-71202381D01*
X154761905Y-72202381D01*
X164583333Y-39452381D02*
X164773810Y-39452381D01*
X164869048Y-39500000D01*
X164964286Y-39595238D01*
X165011905Y-39785714D01*
X165011905Y-40119048D01*
X164964286Y-40309524D01*
X164869048Y-40404762D01*
X164773810Y-40452381D01*
X164583333Y-40452381D01*
X164488095Y-40404762D01*
X164392857Y-40309524D01*
X164345238Y-40119048D01*
X164345238Y-39785714D01*
X164392857Y-39595238D01*
X164488095Y-39500000D01*
X164583333Y-39452381D01*
X165440476Y-39785714D02*
X165440476Y-40452381D01*
X165440476Y-39880952D02*
X165488095Y-39833333D01*
X165583333Y-39785714D01*
X165726191Y-39785714D01*
X165821429Y-39833333D01*
X165869048Y-39928571D01*
X165869048Y-40452381D01*
X167059524Y-39404762D02*
X166202381Y-40690476D01*
X167583333Y-39452381D02*
X167773810Y-39452381D01*
X167869048Y-39500000D01*
X167964286Y-39595238D01*
X168011905Y-39785714D01*
X168011905Y-40119048D01*
X167964286Y-40309524D01*
X167869048Y-40404762D01*
X167773810Y-40452381D01*
X167583333Y-40452381D01*
X167488095Y-40404762D01*
X167392857Y-40309524D01*
X167345238Y-40119048D01*
X167345238Y-39785714D01*
X167392857Y-39595238D01*
X167488095Y-39500000D01*
X167583333Y-39452381D01*
X168297619Y-39785714D02*
X168678571Y-39785714D01*
X168440476Y-40452381D02*
X168440476Y-39595238D01*
X168488095Y-39500000D01*
X168583333Y-39452381D01*
X168678571Y-39452381D01*
X168869048Y-39785714D02*
X169250000Y-39785714D01*
X169011905Y-40452381D02*
X169011905Y-39595238D01*
X169059524Y-39500000D01*
X169154762Y-39452381D01*
X169250000Y-39452381D01*
X196369048Y-37321429D02*
X197130953Y-37321429D01*
X196750001Y-37702381D02*
X196750001Y-36940476D01*
X188726190Y-46702381D02*
X189059523Y-47702381D01*
X189392857Y-46702381D01*
X189869047Y-47702381D02*
X189773809Y-47654762D01*
X189726190Y-47607143D01*
X189678571Y-47511905D01*
X189678571Y-47226190D01*
X189726190Y-47130952D01*
X189773809Y-47083333D01*
X189869047Y-47035714D01*
X190011905Y-47035714D01*
X190107143Y-47083333D01*
X190154762Y-47130952D01*
X190202381Y-47226190D01*
X190202381Y-47511905D01*
X190154762Y-47607143D01*
X190107143Y-47654762D01*
X190011905Y-47702381D01*
X189869047Y-47702381D01*
X191059524Y-47035714D02*
X191059524Y-47702381D01*
X190630952Y-47035714D02*
X190630952Y-47559524D01*
X190678571Y-47654762D01*
X190773809Y-47702381D01*
X190916667Y-47702381D01*
X191011905Y-47654762D01*
X191059524Y-47607143D01*
X191392857Y-47035714D02*
X191773809Y-47035714D01*
X191535714Y-46702381D02*
X191535714Y-47559524D01*
X191583333Y-47654762D01*
X191678571Y-47702381D01*
X191773809Y-47702381D01*
X199119048Y-123821429D02*
X199880953Y-123821429D01*
X199500001Y-124202381D02*
X199500001Y-123440476D01*
X192226191Y-113452381D02*
X192559524Y-114452381D01*
X192892858Y-113452381D01*
X193226191Y-114452381D02*
X193226191Y-113785714D01*
X193226191Y-113452381D02*
X193178572Y-113500000D01*
X193226191Y-113547619D01*
X193273810Y-113500000D01*
X193226191Y-113452381D01*
X193226191Y-113547619D01*
X193702381Y-113785714D02*
X193702381Y-114452381D01*
X193702381Y-113880952D02*
X193750000Y-113833333D01*
X193845238Y-113785714D01*
X193988096Y-113785714D01*
X194083334Y-113833333D01*
X194130953Y-113928571D01*
X194130953Y-114452381D01*
X144273810Y-116607143D02*
X144226191Y-116654762D01*
X144083334Y-116702381D01*
X143988096Y-116702381D01*
X143845238Y-116654762D01*
X143750000Y-116559524D01*
X143702381Y-116464286D01*
X143654762Y-116273810D01*
X143654762Y-116130952D01*
X143702381Y-115940476D01*
X143750000Y-115845238D01*
X143845238Y-115750000D01*
X143988096Y-115702381D01*
X144083334Y-115702381D01*
X144226191Y-115750000D01*
X144273810Y-115797619D01*
X144559524Y-115702381D02*
X145130953Y-115702381D01*
X144845238Y-116702381D02*
X144845238Y-115702381D01*
X146035715Y-116702381D02*
X145702381Y-116226190D01*
X145464286Y-116702381D02*
X145464286Y-115702381D01*
X145845239Y-115702381D01*
X145940477Y-115750000D01*
X145988096Y-115797619D01*
X146035715Y-115892857D01*
X146035715Y-116035714D01*
X145988096Y-116130952D01*
X145940477Y-116178571D01*
X145845239Y-116226190D01*
X145464286Y-116226190D01*
X146940477Y-116702381D02*
X146464286Y-116702381D01*
X146464286Y-115702381D01*
X132952381Y-116702381D02*
X132619047Y-116226190D01*
X132380952Y-116702381D02*
X132380952Y-115702381D01*
X132761905Y-115702381D01*
X132857143Y-115750000D01*
X132904762Y-115797619D01*
X132952381Y-115892857D01*
X132952381Y-116035714D01*
X132904762Y-116130952D01*
X132857143Y-116178571D01*
X132761905Y-116226190D01*
X132380952Y-116226190D01*
X133333333Y-116654762D02*
X133476190Y-116702381D01*
X133714286Y-116702381D01*
X133809524Y-116654762D01*
X133857143Y-116607143D01*
X133904762Y-116511905D01*
X133904762Y-116416667D01*
X133857143Y-116321429D01*
X133809524Y-116273810D01*
X133714286Y-116226190D01*
X133523809Y-116178571D01*
X133428571Y-116130952D01*
X133380952Y-116083333D01*
X133333333Y-115988095D01*
X133333333Y-115892857D01*
X133380952Y-115797619D01*
X133428571Y-115750000D01*
X133523809Y-115702381D01*
X133761905Y-115702381D01*
X133904762Y-115750000D01*
X134190476Y-115702381D02*
X134761905Y-115702381D01*
X134476190Y-116702381D02*
X134476190Y-115702381D01*
D12*
X140245463Y-101077559D02*
X140245463Y-98417559D01*
X130025463Y-101077559D02*
X140245463Y-101077559D01*
X130025463Y-98417559D02*
X140245463Y-98417559D01*
X130025463Y-101077559D02*
X130025463Y-98417559D01*
X128755463Y-101077559D02*
X127425463Y-101077559D01*
X127425463Y-101077559D02*
X127425463Y-99747559D01*
D13*
X123748106Y-96206125D02*
G75*
G03X123748106Y-96206125I-283981J0D01*
G01*
D11*
X123318125Y-77300125D02*
X123318125Y-95300125D01*
X117318125Y-95300125D02*
X142818125Y-95300125D01*
X117318125Y-77300125D02*
X142818125Y-77300125D01*
X142818125Y-77300125D02*
X142818125Y-95300125D01*
X117318125Y-77300125D02*
X117318125Y-95300125D01*
D12*
X189335463Y-51597559D02*
X190335463Y-51597559D01*
X190335463Y-49897559D02*
X189335463Y-49897559D01*
X199335463Y-113397559D02*
X198335463Y-113397559D01*
X198335463Y-115097559D02*
X199335463Y-115097559D01*
X199335463Y-111397559D02*
X198335463Y-111397559D01*
X198335463Y-113097559D02*
X199335463Y-113097559D01*
X199335463Y-109397559D02*
X198335463Y-109397559D01*
X198335463Y-111097559D02*
X199335463Y-111097559D01*
X199335463Y-107397559D02*
X198335463Y-107397559D01*
X198335463Y-109097559D02*
X199335463Y-109097559D01*
X199335463Y-105397559D02*
X198335463Y-105397559D01*
X198335463Y-107097559D02*
X199335463Y-107097559D01*
X199335463Y-103397559D02*
X198335463Y-103397559D01*
X198335463Y-105097559D02*
X199335463Y-105097559D01*
X199335463Y-101397559D02*
X198335463Y-101397559D01*
X198335463Y-103097559D02*
X199335463Y-103097559D01*
X199335463Y-99397559D02*
X198335463Y-99397559D01*
X198335463Y-101097559D02*
X199335463Y-101097559D01*
X199335463Y-97397559D02*
X198335463Y-97397559D01*
X198335463Y-99097559D02*
X199335463Y-99097559D01*
X199335463Y-95397559D02*
X198335463Y-95397559D01*
X198335463Y-97097559D02*
X199335463Y-97097559D01*
X127185463Y-121247559D02*
X127185463Y-120247559D01*
X125485463Y-120247559D02*
X125485463Y-121247559D01*
X182435463Y-108497559D02*
X182435463Y-107497559D01*
X180735463Y-107497559D02*
X180735463Y-108497559D01*
X152935463Y-40747559D02*
X152935463Y-39747559D01*
X151235463Y-39747559D02*
X151235463Y-40747559D01*
X180335463Y-89097559D02*
X181335463Y-89097559D01*
X181335463Y-87397559D02*
X180335463Y-87397559D01*
X175585463Y-102347559D02*
X176585463Y-102347559D01*
X176585463Y-100647559D02*
X175585463Y-100647559D01*
X154785463Y-84647559D02*
X154785463Y-85647559D01*
X156485463Y-85647559D02*
X156485463Y-84647559D01*
X184985463Y-92747559D02*
X184985463Y-93747559D01*
X186685463Y-93747559D02*
X186685463Y-92747559D01*
X182985463Y-92747559D02*
X182985463Y-93747559D01*
X184685463Y-93747559D02*
X184685463Y-92747559D01*
X180985463Y-92747559D02*
X180985463Y-93747559D01*
X182685463Y-93747559D02*
X182685463Y-92747559D01*
X189335463Y-56597559D02*
X190335463Y-56597559D01*
X190335463Y-54897559D02*
X189335463Y-54897559D01*
X189335463Y-54097559D02*
X190335463Y-54097559D01*
X190335463Y-52397559D02*
X189335463Y-52397559D01*
X180156327Y-57979739D02*
G75*
G03X180155463Y-64015041I1179136J-3017820D01*
G01*
X182514599Y-57979739D02*
G75*
G02X182515463Y-64015041I-1179136J-3017820D01*
G01*
X182514599Y-57979739D02*
G75*
G03X180155463Y-57980077I-1179136J-3017820D01*
G01*
X178135463Y-60997559D02*
X184535463Y-60997559D01*
X178135463Y-60957559D02*
X184535463Y-60957559D01*
X178135463Y-60917559D02*
X184535463Y-60917559D01*
X178137463Y-60877559D02*
X184533463Y-60877559D01*
X178138463Y-60837559D02*
X184532463Y-60837559D01*
X178141463Y-60797559D02*
X184529463Y-60797559D01*
X178143463Y-60757559D02*
X184527463Y-60757559D01*
X178147463Y-60717559D02*
X180355463Y-60717559D01*
X182315463Y-60717559D02*
X184523463Y-60717559D01*
X178150463Y-60677559D02*
X180355463Y-60677559D01*
X182315463Y-60677559D02*
X184520463Y-60677559D01*
X178155463Y-60637559D02*
X180355463Y-60637559D01*
X182315463Y-60637559D02*
X184515463Y-60637559D01*
X178159463Y-60597559D02*
X180355463Y-60597559D01*
X182315463Y-60597559D02*
X184511463Y-60597559D01*
X178165463Y-60557559D02*
X180355463Y-60557559D01*
X182315463Y-60557559D02*
X184505463Y-60557559D01*
X178170463Y-60517559D02*
X180355463Y-60517559D01*
X182315463Y-60517559D02*
X184500463Y-60517559D01*
X178177463Y-60477559D02*
X180355463Y-60477559D01*
X182315463Y-60477559D02*
X184493463Y-60477559D01*
X178183463Y-60437559D02*
X180355463Y-60437559D01*
X182315463Y-60437559D02*
X184487463Y-60437559D01*
X178191463Y-60397559D02*
X180355463Y-60397559D01*
X182315463Y-60397559D02*
X184479463Y-60397559D01*
X178198463Y-60357559D02*
X180355463Y-60357559D01*
X182315463Y-60357559D02*
X184472463Y-60357559D01*
X178207463Y-60317559D02*
X180355463Y-60317559D01*
X182315463Y-60317559D02*
X184463463Y-60317559D01*
X178216463Y-60276559D02*
X180355463Y-60276559D01*
X182315463Y-60276559D02*
X184454463Y-60276559D01*
X178225463Y-60236559D02*
X180355463Y-60236559D01*
X182315463Y-60236559D02*
X184445463Y-60236559D01*
X178235463Y-60196559D02*
X180355463Y-60196559D01*
X182315463Y-60196559D02*
X184435463Y-60196559D01*
X178245463Y-60156559D02*
X180355463Y-60156559D01*
X182315463Y-60156559D02*
X184425463Y-60156559D01*
X178256463Y-60116559D02*
X180355463Y-60116559D01*
X182315463Y-60116559D02*
X184414463Y-60116559D01*
X178268463Y-60076559D02*
X180355463Y-60076559D01*
X182315463Y-60076559D02*
X184402463Y-60076559D01*
X178280463Y-60036559D02*
X180355463Y-60036559D01*
X182315463Y-60036559D02*
X184390463Y-60036559D01*
X178293463Y-59996559D02*
X180355463Y-59996559D01*
X182315463Y-59996559D02*
X184377463Y-59996559D01*
X178306463Y-59956559D02*
X180355463Y-59956559D01*
X182315463Y-59956559D02*
X184364463Y-59956559D01*
X178320463Y-59916559D02*
X180355463Y-59916559D01*
X182315463Y-59916559D02*
X184350463Y-59916559D01*
X178334463Y-59876559D02*
X180355463Y-59876559D01*
X182315463Y-59876559D02*
X184336463Y-59876559D01*
X178349463Y-59836559D02*
X180355463Y-59836559D01*
X182315463Y-59836559D02*
X184321463Y-59836559D01*
X178365463Y-59796559D02*
X180355463Y-59796559D01*
X182315463Y-59796559D02*
X184305463Y-59796559D01*
X178381463Y-59756559D02*
X180355463Y-59756559D01*
X182315463Y-59756559D02*
X184289463Y-59756559D01*
X178398463Y-59716559D02*
X180355463Y-59716559D01*
X182315463Y-59716559D02*
X184272463Y-59716559D01*
X178416463Y-59676559D02*
X180355463Y-59676559D01*
X182315463Y-59676559D02*
X184254463Y-59676559D01*
X178434463Y-59636559D02*
X180355463Y-59636559D01*
X182315463Y-59636559D02*
X184236463Y-59636559D01*
X178453463Y-59596559D02*
X180355463Y-59596559D01*
X182315463Y-59596559D02*
X184217463Y-59596559D01*
X178472463Y-59556559D02*
X180355463Y-59556559D01*
X182315463Y-59556559D02*
X184198463Y-59556559D01*
X178492463Y-59516559D02*
X180355463Y-59516559D01*
X182315463Y-59516559D02*
X184178463Y-59516559D01*
X178513463Y-59476559D02*
X180355463Y-59476559D01*
X182315463Y-59476559D02*
X184157463Y-59476559D01*
X178535463Y-59436559D02*
X180355463Y-59436559D01*
X182315463Y-59436559D02*
X184135463Y-59436559D01*
X178557463Y-59396559D02*
X180355463Y-59396559D01*
X182315463Y-59396559D02*
X184113463Y-59396559D01*
X178580463Y-59356559D02*
X180355463Y-59356559D01*
X182315463Y-59356559D02*
X184090463Y-59356559D01*
X178604463Y-59316559D02*
X180355463Y-59316559D01*
X182315463Y-59316559D02*
X184066463Y-59316559D01*
X178629463Y-59276559D02*
X180355463Y-59276559D01*
X182315463Y-59276559D02*
X184041463Y-59276559D01*
X178654463Y-59236559D02*
X180355463Y-59236559D01*
X182315463Y-59236559D02*
X184016463Y-59236559D01*
X178681463Y-59196559D02*
X180355463Y-59196559D01*
X182315463Y-59196559D02*
X183989463Y-59196559D01*
X178708463Y-59156559D02*
X180355463Y-59156559D01*
X182315463Y-59156559D02*
X183962463Y-59156559D01*
X178736463Y-59116559D02*
X180355463Y-59116559D01*
X182315463Y-59116559D02*
X183934463Y-59116559D01*
X178765463Y-59076559D02*
X180355463Y-59076559D01*
X182315463Y-59076559D02*
X183905463Y-59076559D01*
X178795463Y-59036559D02*
X180355463Y-59036559D01*
X182315463Y-59036559D02*
X183875463Y-59036559D01*
X178825463Y-58996559D02*
X180355463Y-58996559D01*
X182315463Y-58996559D02*
X183845463Y-58996559D01*
X178857463Y-58956559D02*
X180355463Y-58956559D01*
X182315463Y-58956559D02*
X183813463Y-58956559D01*
X178890463Y-58916559D02*
X180355463Y-58916559D01*
X182315463Y-58916559D02*
X183780463Y-58916559D01*
X178924463Y-58876559D02*
X180355463Y-58876559D01*
X182315463Y-58876559D02*
X183746463Y-58876559D01*
X178960463Y-58836559D02*
X180355463Y-58836559D01*
X182315463Y-58836559D02*
X183710463Y-58836559D01*
X178996463Y-58796559D02*
X180355463Y-58796559D01*
X182315463Y-58796559D02*
X183674463Y-58796559D01*
X179034463Y-58756559D02*
X183636463Y-58756559D01*
X179073463Y-58716559D02*
X183597463Y-58716559D01*
X179113463Y-58676559D02*
X183557463Y-58676559D01*
X179155463Y-58636559D02*
X183515463Y-58636559D01*
X179198463Y-58596559D02*
X183472463Y-58596559D01*
X179243463Y-58556559D02*
X183427463Y-58556559D01*
X179290463Y-58516559D02*
X183380463Y-58516559D01*
X179338463Y-58476559D02*
X183332463Y-58476559D01*
X179389463Y-58436559D02*
X183281463Y-58436559D01*
X179441463Y-58396559D02*
X183229463Y-58396559D01*
X179496463Y-58356559D02*
X183174463Y-58356559D01*
X179554463Y-58316559D02*
X183116463Y-58316559D01*
X179614463Y-58276559D02*
X183056463Y-58276559D01*
X179677463Y-58236559D02*
X182993463Y-58236559D01*
X179744463Y-58196559D02*
X182926463Y-58196559D01*
X179815463Y-58156559D02*
X182855463Y-58156559D01*
X179890463Y-58116559D02*
X182780463Y-58116559D01*
X179971463Y-58076559D02*
X182699463Y-58076559D01*
X180057463Y-58036559D02*
X182613463Y-58036559D01*
X180151463Y-57996559D02*
X182519463Y-57996559D01*
X180254463Y-57956559D02*
X182416463Y-57956559D01*
X180369463Y-57916559D02*
X182301463Y-57916559D01*
X180501463Y-57876559D02*
X182169463Y-57876559D01*
X180659463Y-57836559D02*
X182011463Y-57836559D01*
X180867463Y-57796559D02*
X181803463Y-57796559D01*
X181335463Y-64447559D02*
X181335463Y-63247559D01*
X180685463Y-63847559D02*
X181985463Y-63847559D01*
X187156327Y-57979739D02*
G75*
G03X187155463Y-64015041I1179136J-3017820D01*
G01*
X189514599Y-57979739D02*
G75*
G02X189515463Y-64015041I-1179136J-3017820D01*
G01*
X189514599Y-57979739D02*
G75*
G03X187155463Y-57980077I-1179136J-3017820D01*
G01*
X185135463Y-60997559D02*
X191535463Y-60997559D01*
X185135463Y-60957559D02*
X191535463Y-60957559D01*
X185135463Y-60917559D02*
X191535463Y-60917559D01*
X185137463Y-60877559D02*
X191533463Y-60877559D01*
X185138463Y-60837559D02*
X191532463Y-60837559D01*
X185141463Y-60797559D02*
X191529463Y-60797559D01*
X185143463Y-60757559D02*
X191527463Y-60757559D01*
X185147463Y-60717559D02*
X187355463Y-60717559D01*
X189315463Y-60717559D02*
X191523463Y-60717559D01*
X185150463Y-60677559D02*
X187355463Y-60677559D01*
X189315463Y-60677559D02*
X191520463Y-60677559D01*
X185155463Y-60637559D02*
X187355463Y-60637559D01*
X189315463Y-60637559D02*
X191515463Y-60637559D01*
X185159463Y-60597559D02*
X187355463Y-60597559D01*
X189315463Y-60597559D02*
X191511463Y-60597559D01*
X185165463Y-60557559D02*
X187355463Y-60557559D01*
X189315463Y-60557559D02*
X191505463Y-60557559D01*
X185170463Y-60517559D02*
X187355463Y-60517559D01*
X189315463Y-60517559D02*
X191500463Y-60517559D01*
X185177463Y-60477559D02*
X187355463Y-60477559D01*
X189315463Y-60477559D02*
X191493463Y-60477559D01*
X185183463Y-60437559D02*
X187355463Y-60437559D01*
X189315463Y-60437559D02*
X191487463Y-60437559D01*
X185191463Y-60397559D02*
X187355463Y-60397559D01*
X189315463Y-60397559D02*
X191479463Y-60397559D01*
X185198463Y-60357559D02*
X187355463Y-60357559D01*
X189315463Y-60357559D02*
X191472463Y-60357559D01*
X185207463Y-60317559D02*
X187355463Y-60317559D01*
X189315463Y-60317559D02*
X191463463Y-60317559D01*
X185216463Y-60276559D02*
X187355463Y-60276559D01*
X189315463Y-60276559D02*
X191454463Y-60276559D01*
X185225463Y-60236559D02*
X187355463Y-60236559D01*
X189315463Y-60236559D02*
X191445463Y-60236559D01*
X185235463Y-60196559D02*
X187355463Y-60196559D01*
X189315463Y-60196559D02*
X191435463Y-60196559D01*
X185245463Y-60156559D02*
X187355463Y-60156559D01*
X189315463Y-60156559D02*
X191425463Y-60156559D01*
X185256463Y-60116559D02*
X187355463Y-60116559D01*
X189315463Y-60116559D02*
X191414463Y-60116559D01*
X185268463Y-60076559D02*
X187355463Y-60076559D01*
X189315463Y-60076559D02*
X191402463Y-60076559D01*
X185280463Y-60036559D02*
X187355463Y-60036559D01*
X189315463Y-60036559D02*
X191390463Y-60036559D01*
X185293463Y-59996559D02*
X187355463Y-59996559D01*
X189315463Y-59996559D02*
X191377463Y-59996559D01*
X185306463Y-59956559D02*
X187355463Y-59956559D01*
X189315463Y-59956559D02*
X191364463Y-59956559D01*
X185320463Y-59916559D02*
X187355463Y-59916559D01*
X189315463Y-59916559D02*
X191350463Y-59916559D01*
X185334463Y-59876559D02*
X187355463Y-59876559D01*
X189315463Y-59876559D02*
X191336463Y-59876559D01*
X185349463Y-59836559D02*
X187355463Y-59836559D01*
X189315463Y-59836559D02*
X191321463Y-59836559D01*
X185365463Y-59796559D02*
X187355463Y-59796559D01*
X189315463Y-59796559D02*
X191305463Y-59796559D01*
X185381463Y-59756559D02*
X187355463Y-59756559D01*
X189315463Y-59756559D02*
X191289463Y-59756559D01*
X185398463Y-59716559D02*
X187355463Y-59716559D01*
X189315463Y-59716559D02*
X191272463Y-59716559D01*
X185416463Y-59676559D02*
X187355463Y-59676559D01*
X189315463Y-59676559D02*
X191254463Y-59676559D01*
X185434463Y-59636559D02*
X187355463Y-59636559D01*
X189315463Y-59636559D02*
X191236463Y-59636559D01*
X185453463Y-59596559D02*
X187355463Y-59596559D01*
X189315463Y-59596559D02*
X191217463Y-59596559D01*
X185472463Y-59556559D02*
X187355463Y-59556559D01*
X189315463Y-59556559D02*
X191198463Y-59556559D01*
X185492463Y-59516559D02*
X187355463Y-59516559D01*
X189315463Y-59516559D02*
X191178463Y-59516559D01*
X185513463Y-59476559D02*
X187355463Y-59476559D01*
X189315463Y-59476559D02*
X191157463Y-59476559D01*
X185535463Y-59436559D02*
X187355463Y-59436559D01*
X189315463Y-59436559D02*
X191135463Y-59436559D01*
X185557463Y-59396559D02*
X187355463Y-59396559D01*
X189315463Y-59396559D02*
X191113463Y-59396559D01*
X185580463Y-59356559D02*
X187355463Y-59356559D01*
X189315463Y-59356559D02*
X191090463Y-59356559D01*
X185604463Y-59316559D02*
X187355463Y-59316559D01*
X189315463Y-59316559D02*
X191066463Y-59316559D01*
X185629463Y-59276559D02*
X187355463Y-59276559D01*
X189315463Y-59276559D02*
X191041463Y-59276559D01*
X185654463Y-59236559D02*
X187355463Y-59236559D01*
X189315463Y-59236559D02*
X191016463Y-59236559D01*
X185681463Y-59196559D02*
X187355463Y-59196559D01*
X189315463Y-59196559D02*
X190989463Y-59196559D01*
X185708463Y-59156559D02*
X187355463Y-59156559D01*
X189315463Y-59156559D02*
X190962463Y-59156559D01*
X185736463Y-59116559D02*
X187355463Y-59116559D01*
X189315463Y-59116559D02*
X190934463Y-59116559D01*
X185765463Y-59076559D02*
X187355463Y-59076559D01*
X189315463Y-59076559D02*
X190905463Y-59076559D01*
X185795463Y-59036559D02*
X187355463Y-59036559D01*
X189315463Y-59036559D02*
X190875463Y-59036559D01*
X185825463Y-58996559D02*
X187355463Y-58996559D01*
X189315463Y-58996559D02*
X190845463Y-58996559D01*
X185857463Y-58956559D02*
X187355463Y-58956559D01*
X189315463Y-58956559D02*
X190813463Y-58956559D01*
X185890463Y-58916559D02*
X187355463Y-58916559D01*
X189315463Y-58916559D02*
X190780463Y-58916559D01*
X185924463Y-58876559D02*
X187355463Y-58876559D01*
X189315463Y-58876559D02*
X190746463Y-58876559D01*
X185960463Y-58836559D02*
X187355463Y-58836559D01*
X189315463Y-58836559D02*
X190710463Y-58836559D01*
X185996463Y-58796559D02*
X187355463Y-58796559D01*
X189315463Y-58796559D02*
X190674463Y-58796559D01*
X186034463Y-58756559D02*
X190636463Y-58756559D01*
X186073463Y-58716559D02*
X190597463Y-58716559D01*
X186113463Y-58676559D02*
X190557463Y-58676559D01*
X186155463Y-58636559D02*
X190515463Y-58636559D01*
X186198463Y-58596559D02*
X190472463Y-58596559D01*
X186243463Y-58556559D02*
X190427463Y-58556559D01*
X186290463Y-58516559D02*
X190380463Y-58516559D01*
X186338463Y-58476559D02*
X190332463Y-58476559D01*
X186389463Y-58436559D02*
X190281463Y-58436559D01*
X186441463Y-58396559D02*
X190229463Y-58396559D01*
X186496463Y-58356559D02*
X190174463Y-58356559D01*
X186554463Y-58316559D02*
X190116463Y-58316559D01*
X186614463Y-58276559D02*
X190056463Y-58276559D01*
X186677463Y-58236559D02*
X189993463Y-58236559D01*
X186744463Y-58196559D02*
X189926463Y-58196559D01*
X186815463Y-58156559D02*
X189855463Y-58156559D01*
X186890463Y-58116559D02*
X189780463Y-58116559D01*
X186971463Y-58076559D02*
X189699463Y-58076559D01*
X187057463Y-58036559D02*
X189613463Y-58036559D01*
X187151463Y-57996559D02*
X189519463Y-57996559D01*
X187254463Y-57956559D02*
X189416463Y-57956559D01*
X187369463Y-57916559D02*
X189301463Y-57916559D01*
X187501463Y-57876559D02*
X189169463Y-57876559D01*
X187659463Y-57836559D02*
X189011463Y-57836559D01*
X187867463Y-57796559D02*
X188803463Y-57796559D01*
X188335463Y-64447559D02*
X188335463Y-63247559D01*
X187685463Y-63847559D02*
X188985463Y-63847559D01*
X154435463Y-121247559D02*
X154435463Y-120247559D01*
X152735463Y-120247559D02*
X152735463Y-121247559D01*
X142135463Y-103947559D02*
X142135463Y-102547559D01*
X142135463Y-102547559D02*
X139335463Y-102547559D01*
X142135463Y-103947559D02*
X139335463Y-103947559D01*
X181835463Y-101497559D02*
X181835463Y-97197559D01*
X181835463Y-97197559D02*
X179835463Y-97197559D01*
X179835463Y-97197559D02*
X179835463Y-101497559D01*
X148235463Y-114157559D02*
X148235463Y-112757559D01*
X148235463Y-112757559D02*
X145435463Y-112757559D01*
X148235463Y-114157559D02*
X145435463Y-114157559D01*
D14*
X160735463Y-80747559D02*
X171935463Y-80747559D01*
X171935463Y-80747559D02*
X171935463Y-102747559D01*
X160735463Y-80747559D02*
X160735463Y-102747559D01*
X160735463Y-102797559D02*
X171935463Y-102797559D01*
X160735463Y-57247559D02*
X171935463Y-57247559D01*
X171935463Y-57247559D02*
X171935463Y-79247559D01*
X160735463Y-57247559D02*
X160735463Y-79247559D01*
X160735463Y-79297559D02*
X171935463Y-79297559D01*
D11*
X193335463Y-124847559D02*
X193335463Y-125347559D01*
X188335463Y-123347559D02*
X198335463Y-123347559D01*
X188335463Y-118447559D02*
X198335463Y-118447559D01*
X188335463Y-124847559D02*
X198335463Y-124847559D01*
X188335463Y-125347559D02*
X198335463Y-125347559D01*
X198335463Y-125347559D02*
X198335463Y-115547559D01*
X198335463Y-115547559D02*
X188335463Y-115547559D01*
X188335463Y-115547559D02*
X188335463Y-125347559D01*
X197835463Y-120847559D02*
G75*
G03X197835463Y-120847559I-2000000J0D01*
G01*
X192835463Y-120847559D02*
G75*
G03X192835463Y-120847559I-2000000J0D01*
G01*
D12*
X125715463Y-71917559D02*
X125715463Y-74577559D01*
X133395463Y-71917559D02*
X125715463Y-71917559D01*
X133395463Y-74577559D02*
X125715463Y-74577559D01*
X133395463Y-71917559D02*
X133395463Y-74577559D01*
X134665463Y-71917559D02*
X135995463Y-71917559D01*
X135995463Y-71917559D02*
X135995463Y-73247559D01*
D11*
X190335463Y-36647559D02*
X190335463Y-36147559D01*
X195335463Y-38147559D02*
X185335463Y-38147559D01*
X195335463Y-43047559D02*
X185335463Y-43047559D01*
X195335463Y-36647559D02*
X185335463Y-36647559D01*
X195335463Y-36147559D02*
X185335463Y-36147559D01*
X185335463Y-36147559D02*
X185335463Y-45947559D01*
X185335463Y-45947559D02*
X195335463Y-45947559D01*
X195335463Y-45947559D02*
X195335463Y-36147559D01*
X189835463Y-40647559D02*
G75*
G03X189835463Y-40647559I-2000000J0D01*
G01*
X194835463Y-40647559D02*
G75*
G03X194835463Y-40647559I-2000000J0D01*
G01*
D12*
X177675463Y-110617559D02*
X177675463Y-105417559D01*
X129355463Y-110617559D02*
X177675463Y-110617559D01*
X126755463Y-105417559D02*
X177675463Y-105417559D01*
X129355463Y-110617559D02*
X129355463Y-108017559D01*
X129355463Y-108017559D02*
X126755463Y-108017559D01*
X126755463Y-108017559D02*
X126755463Y-105417559D01*
X128085463Y-110617559D02*
X126755463Y-110617559D01*
X126755463Y-110617559D02*
X126755463Y-109287559D01*
X177675463Y-56117559D02*
X177675463Y-50917559D01*
X129355463Y-56117559D02*
X177675463Y-56117559D01*
X126755463Y-50917559D02*
X177675463Y-50917559D01*
X129355463Y-56117559D02*
X129355463Y-53517559D01*
X129355463Y-53517559D02*
X126755463Y-53517559D01*
X126755463Y-53517559D02*
X126755463Y-50917559D01*
X128085463Y-56117559D02*
X126755463Y-56117559D01*
X126755463Y-56117559D02*
X126755463Y-54787559D01*
X145755463Y-39447559D02*
X145755463Y-36787559D01*
X132995463Y-39447559D02*
X145755463Y-39447559D01*
X132995463Y-36787559D02*
X145755463Y-36787559D01*
X132995463Y-39447559D02*
X132995463Y-36787559D01*
X131725463Y-39447559D02*
X130395463Y-39447559D01*
X130395463Y-39447559D02*
X130395463Y-38117559D01*
D11*
X190700463Y-95342559D02*
G75*
G03X190700463Y-95342559I-127000J0D01*
G01*
X189938463Y-94707559D02*
X189938463Y-99787559D01*
X193240463Y-94707559D02*
X193240463Y-99787559D01*
X189430463Y-94707559D02*
X189430463Y-99787559D01*
X189430463Y-94707559D02*
X193240463Y-94707559D01*
X189430463Y-99787559D02*
X193240463Y-99787559D01*
X175057463Y-80509559D02*
G75*
G03X175057463Y-80509559I-127000J0D01*
G01*
X174295463Y-81144559D02*
X179375463Y-81144559D01*
X174295463Y-77842559D02*
X179375463Y-77842559D01*
X174295463Y-81652559D02*
X179375463Y-81652559D01*
X174295463Y-81652559D02*
X174295463Y-77842559D01*
X179375463Y-81652559D02*
X179375463Y-77842559D01*
D12*
X127215463Y-114347559D02*
X127215463Y-115547559D01*
X125455463Y-115547559D02*
X125455463Y-114347559D01*
X149935463Y-92127559D02*
X148735463Y-92127559D01*
X148735463Y-90367559D02*
X149935463Y-90367559D01*
X192235463Y-102367559D02*
X193435463Y-102367559D01*
X193435463Y-104127559D02*
X192235463Y-104127559D01*
X142005463Y-72847559D02*
X143205463Y-72847559D01*
X143205463Y-74607559D02*
X142005463Y-74607559D01*
X136435463Y-104127559D02*
X135235463Y-104127559D01*
X135235463Y-102367559D02*
X136435463Y-102367559D01*
X191955463Y-67347559D02*
X191955463Y-66147559D01*
X193715463Y-66147559D02*
X193715463Y-67347559D01*
X150715463Y-39647559D02*
X150715463Y-40847559D01*
X148955463Y-40847559D02*
X148955463Y-39647559D01*
X182455463Y-99847559D02*
X182455463Y-98647559D01*
X184215463Y-98647559D02*
X184215463Y-99847559D01*
X142025463Y-70367559D02*
X143225463Y-70367559D01*
X143225463Y-72127559D02*
X142025463Y-72127559D01*
X140425463Y-112557559D02*
X141625463Y-112557559D01*
X141625463Y-114317559D02*
X140425463Y-114317559D01*
X127955463Y-115597559D02*
X127955463Y-114397559D01*
X129715463Y-114397559D02*
X129715463Y-115597559D01*
D11*
X154145463Y-72977559D02*
X154145463Y-75517559D01*
X154145463Y-75517559D02*
X146525463Y-75517559D01*
X146525463Y-75517559D02*
X146525463Y-72977559D01*
X146525463Y-72977559D02*
X154145463Y-72977559D01*
X151605463Y-75517559D02*
X151605463Y-72977559D01*
D12*
X135835463Y-117747559D02*
X131335463Y-117747559D01*
X137085463Y-121747559D02*
X137085463Y-120247559D01*
X131335463Y-124247559D02*
X135835463Y-124247559D01*
X130085463Y-120247559D02*
X130085463Y-121747559D01*
X161335463Y-36747559D02*
X156835463Y-36747559D01*
X162585463Y-40747559D02*
X162585463Y-39247559D01*
X156835463Y-43247559D02*
X161335463Y-43247559D01*
X155585463Y-39247559D02*
X155585463Y-40747559D01*
D11*
X146485463Y-80017559D02*
X146485463Y-77477559D01*
X146485463Y-77477559D02*
X154105463Y-77477559D01*
X154105463Y-77477559D02*
X154105463Y-80017559D01*
X154105463Y-80017559D02*
X146485463Y-80017559D01*
X149025463Y-77477559D02*
X149025463Y-80017559D01*
D12*
X147835463Y-117747559D02*
X143335463Y-117747559D01*
X149085463Y-121747559D02*
X149085463Y-120247559D01*
X143335463Y-124247559D02*
X147835463Y-124247559D01*
X142085463Y-120247559D02*
X142085463Y-121747559D01*
D11*
X148060463Y-82922559D02*
X148060463Y-82972559D01*
X152210463Y-82922559D02*
X152210463Y-83067559D01*
X152210463Y-88072559D02*
X152210463Y-87927559D01*
X148060463Y-88072559D02*
X148060463Y-87927559D01*
X148060463Y-82922559D02*
X152210463Y-82922559D01*
X148060463Y-88072559D02*
X152210463Y-88072559D01*
X148060463Y-82972559D02*
X146660463Y-82972559D01*
X151160463Y-103222559D02*
X151160463Y-102997559D01*
X146510463Y-103222559D02*
X146510463Y-102897559D01*
X146510463Y-93272559D02*
X146510463Y-93597559D01*
X151160463Y-93272559D02*
X151160463Y-93597559D01*
X151160463Y-103222559D02*
X146510463Y-103222559D01*
X151160463Y-93272559D02*
X146510463Y-93272559D01*
X151160463Y-102997559D02*
X152235463Y-102997559D01*
X126675463Y-62047559D02*
X126675463Y-46807559D01*
X149535463Y-62047559D02*
X126675463Y-62047559D01*
X149535463Y-46807559D02*
X149535463Y-62047559D01*
X126675463Y-46807559D02*
X149535463Y-46807559D01*
X152075463Y-69667559D02*
X152075463Y-41727559D01*
X144455463Y-69667559D02*
X152075463Y-69667559D01*
X144455463Y-68143559D02*
X144455463Y-69667559D01*
X131755463Y-68143559D02*
X144455463Y-68143559D01*
X131755463Y-69667559D02*
X131755463Y-68143559D01*
X124135463Y-69667559D02*
X131755463Y-69667559D01*
X124135463Y-41727559D02*
X124135463Y-69667559D01*
X124135463Y-41727559D02*
X152075463Y-41727559D01*
D15*
X126056416Y-99973749D02*
X126056416Y-99473749D01*
X126246892Y-99473749D01*
X126294511Y-99497559D01*
X126318320Y-99521369D01*
X126342130Y-99568988D01*
X126342130Y-99640416D01*
X126318320Y-99688035D01*
X126294511Y-99711845D01*
X126246892Y-99735654D01*
X126056416Y-99735654D01*
X126794511Y-99473749D02*
X126556416Y-99473749D01*
X126532606Y-99711845D01*
X126556416Y-99688035D01*
X126604035Y-99664226D01*
X126723082Y-99664226D01*
X126770701Y-99688035D01*
X126794511Y-99711845D01*
X126818320Y-99759464D01*
X126818320Y-99878511D01*
X126794511Y-99926130D01*
X126770701Y-99949940D01*
X126723082Y-99973749D01*
X126604035Y-99973749D01*
X126556416Y-99949940D01*
X126532606Y-99926130D01*
X143119048Y-93976190D02*
X143119048Y-94380952D01*
X143142857Y-94428571D01*
X143166667Y-94452381D01*
X143214286Y-94476190D01*
X143309524Y-94476190D01*
X143357143Y-94452381D01*
X143380952Y-94428571D01*
X143404762Y-94380952D01*
X143404762Y-93976190D01*
X143595239Y-93976190D02*
X143904762Y-93976190D01*
X143738096Y-94166667D01*
X143809524Y-94166667D01*
X143857143Y-94190476D01*
X143880953Y-94214286D01*
X143904762Y-94261905D01*
X143904762Y-94380952D01*
X143880953Y-94428571D01*
X143857143Y-94452381D01*
X143809524Y-94476190D01*
X143666667Y-94476190D01*
X143619048Y-94452381D01*
X143595239Y-94428571D01*
X128902130Y-80030892D02*
X129140225Y-80030892D01*
X128854511Y-80173749D02*
X129021178Y-79673749D01*
X129187844Y-80173749D01*
X129354511Y-80173749D02*
X129354511Y-79673749D01*
X129592606Y-79983273D02*
X129973558Y-79983273D01*
X130140225Y-79673749D02*
X130425939Y-79673749D01*
X130283082Y-80173749D02*
X130283082Y-79673749D01*
X130592606Y-80173749D02*
X130592606Y-79673749D01*
X130806891Y-80173749D02*
X130806891Y-79911845D01*
X130783082Y-79864226D01*
X130735463Y-79840416D01*
X130664034Y-79840416D01*
X130616415Y-79864226D01*
X130592606Y-79888035D01*
X131044987Y-80173749D02*
X131044987Y-79840416D01*
X131044987Y-79673749D02*
X131021177Y-79697559D01*
X131044987Y-79721369D01*
X131068796Y-79697559D01*
X131044987Y-79673749D01*
X131044987Y-79721369D01*
X131283082Y-79840416D02*
X131283082Y-80173749D01*
X131283082Y-79888035D02*
X131306891Y-79864226D01*
X131354510Y-79840416D01*
X131425939Y-79840416D01*
X131473558Y-79864226D01*
X131497367Y-79911845D01*
X131497367Y-80173749D01*
X131735463Y-80173749D02*
X131735463Y-79673749D01*
X131783082Y-79983273D02*
X131925939Y-80173749D01*
X131925939Y-79840416D02*
X131735463Y-80030892D01*
X132330701Y-80149940D02*
X132283082Y-80173749D01*
X132187844Y-80173749D01*
X132140225Y-80149940D01*
X132116415Y-80102321D01*
X132116415Y-79911845D01*
X132140225Y-79864226D01*
X132187844Y-79840416D01*
X132283082Y-79840416D01*
X132330701Y-79864226D01*
X132354510Y-79911845D01*
X132354510Y-79959464D01*
X132116415Y-80007083D01*
X132568796Y-80173749D02*
X132568796Y-79840416D01*
X132568796Y-79935654D02*
X132592605Y-79888035D01*
X132616415Y-79864226D01*
X132664034Y-79840416D01*
X132711653Y-79840416D01*
X133235462Y-79649940D02*
X132806891Y-80292797D01*
X133402130Y-79911845D02*
X133568796Y-79911845D01*
X133640225Y-80173749D02*
X133402130Y-80173749D01*
X133402130Y-79673749D01*
X133640225Y-79673749D01*
X133830701Y-80149940D02*
X133878320Y-80173749D01*
X133973558Y-80173749D01*
X134021177Y-80149940D01*
X134044987Y-80102321D01*
X134044987Y-80078511D01*
X134021177Y-80030892D01*
X133973558Y-80007083D01*
X133902130Y-80007083D01*
X133854511Y-79983273D01*
X133830701Y-79935654D01*
X133830701Y-79911845D01*
X133854511Y-79864226D01*
X133902130Y-79840416D01*
X133973558Y-79840416D01*
X134021177Y-79864226D01*
X134259273Y-79840416D02*
X134259273Y-80340416D01*
X134259273Y-79864226D02*
X134306892Y-79840416D01*
X134402130Y-79840416D01*
X134449749Y-79864226D01*
X134473558Y-79888035D01*
X134497368Y-79935654D01*
X134497368Y-80078511D01*
X134473558Y-80126130D01*
X134449749Y-80149940D01*
X134402130Y-80173749D01*
X134306892Y-80173749D01*
X134259273Y-80149940D01*
X134711654Y-80173749D02*
X134711654Y-79840416D01*
X134711654Y-79935654D02*
X134735463Y-79888035D01*
X134759273Y-79864226D01*
X134806892Y-79840416D01*
X134854511Y-79840416D01*
X135211654Y-80149940D02*
X135164035Y-80173749D01*
X135068797Y-80173749D01*
X135021178Y-80149940D01*
X134997368Y-80102321D01*
X134997368Y-79911845D01*
X135021178Y-79864226D01*
X135068797Y-79840416D01*
X135164035Y-79840416D01*
X135211654Y-79864226D01*
X135235463Y-79911845D01*
X135235463Y-79959464D01*
X134997368Y-80007083D01*
X135425939Y-80149940D02*
X135473558Y-80173749D01*
X135568796Y-80173749D01*
X135616415Y-80149940D01*
X135640225Y-80102321D01*
X135640225Y-80078511D01*
X135616415Y-80030892D01*
X135568796Y-80007083D01*
X135497368Y-80007083D01*
X135449749Y-79983273D01*
X135425939Y-79935654D01*
X135425939Y-79911845D01*
X135449749Y-79864226D01*
X135497368Y-79840416D01*
X135568796Y-79840416D01*
X135616415Y-79864226D01*
X135830701Y-80149940D02*
X135878320Y-80173749D01*
X135973558Y-80173749D01*
X136021177Y-80149940D01*
X136044987Y-80102321D01*
X136044987Y-80078511D01*
X136021177Y-80030892D01*
X135973558Y-80007083D01*
X135902130Y-80007083D01*
X135854511Y-79983273D01*
X135830701Y-79935654D01*
X135830701Y-79911845D01*
X135854511Y-79864226D01*
X135902130Y-79840416D01*
X135973558Y-79840416D01*
X136021177Y-79864226D01*
X136259273Y-80173749D02*
X136259273Y-79840416D01*
X136259273Y-79673749D02*
X136235463Y-79697559D01*
X136259273Y-79721369D01*
X136283082Y-79697559D01*
X136259273Y-79673749D01*
X136259273Y-79721369D01*
X136425939Y-79840416D02*
X136616415Y-79840416D01*
X136497368Y-80173749D02*
X136497368Y-79745178D01*
X136521177Y-79697559D01*
X136568796Y-79673749D01*
X136616415Y-79673749D01*
X135516417Y-81411845D02*
X135683083Y-81411845D01*
X135754512Y-81673749D02*
X135516417Y-81673749D01*
X135516417Y-81173749D01*
X135754512Y-81173749D01*
X135944988Y-81649940D02*
X136016417Y-81673749D01*
X136135464Y-81673749D01*
X136183083Y-81649940D01*
X136206893Y-81626130D01*
X136230702Y-81578511D01*
X136230702Y-81530892D01*
X136206893Y-81483273D01*
X136183083Y-81459464D01*
X136135464Y-81435654D01*
X136040226Y-81411845D01*
X135992607Y-81388035D01*
X135968798Y-81364226D01*
X135944988Y-81316607D01*
X135944988Y-81268988D01*
X135968798Y-81221369D01*
X135992607Y-81197559D01*
X136040226Y-81173749D01*
X136159274Y-81173749D01*
X136230702Y-81197559D01*
X136444988Y-81673749D02*
X136444988Y-81173749D01*
X136635464Y-81173749D01*
X136683083Y-81197559D01*
X136706892Y-81221369D01*
X136730702Y-81268988D01*
X136730702Y-81340416D01*
X136706892Y-81388035D01*
X136683083Y-81411845D01*
X136635464Y-81435654D01*
X136444988Y-81435654D01*
X136944988Y-81483273D02*
X137325940Y-81483273D01*
X137516417Y-81173749D02*
X137825940Y-81173749D01*
X137659274Y-81364226D01*
X137730702Y-81364226D01*
X137778321Y-81388035D01*
X137802131Y-81411845D01*
X137825940Y-81459464D01*
X137825940Y-81578511D01*
X137802131Y-81626130D01*
X137778321Y-81649940D01*
X137730702Y-81673749D01*
X137587845Y-81673749D01*
X137540226Y-81649940D01*
X137516417Y-81626130D01*
X138016416Y-81221369D02*
X138040226Y-81197559D01*
X138087845Y-81173749D01*
X138206892Y-81173749D01*
X138254511Y-81197559D01*
X138278321Y-81221369D01*
X138302130Y-81268988D01*
X138302130Y-81316607D01*
X138278321Y-81388035D01*
X137992607Y-81673749D01*
X138302130Y-81673749D01*
X138492606Y-81649940D02*
X138564035Y-81673749D01*
X138683082Y-81673749D01*
X138730701Y-81649940D01*
X138754511Y-81626130D01*
X138778320Y-81578511D01*
X138778320Y-81530892D01*
X138754511Y-81483273D01*
X138730701Y-81459464D01*
X138683082Y-81435654D01*
X138587844Y-81411845D01*
X138540225Y-81388035D01*
X138516416Y-81364226D01*
X138492606Y-81316607D01*
X138492606Y-81268988D01*
X138516416Y-81221369D01*
X138540225Y-81197559D01*
X138587844Y-81173749D01*
X138706892Y-81173749D01*
X138778320Y-81197559D01*
X192178572Y-50928571D02*
X192154762Y-50952381D01*
X192083334Y-50976190D01*
X192035715Y-50976190D01*
X191964286Y-50952381D01*
X191916667Y-50904762D01*
X191892858Y-50857143D01*
X191869048Y-50761905D01*
X191869048Y-50690476D01*
X191892858Y-50595238D01*
X191916667Y-50547619D01*
X191964286Y-50500000D01*
X192035715Y-50476190D01*
X192083334Y-50476190D01*
X192154762Y-50500000D01*
X192178572Y-50523810D01*
X192369048Y-50523810D02*
X192392858Y-50500000D01*
X192440477Y-50476190D01*
X192559524Y-50476190D01*
X192607143Y-50500000D01*
X192630953Y-50523810D01*
X192654762Y-50571429D01*
X192654762Y-50619048D01*
X192630953Y-50690476D01*
X192345239Y-50976190D01*
X192654762Y-50976190D01*
X192940476Y-50690476D02*
X192892857Y-50666667D01*
X192869048Y-50642857D01*
X192845238Y-50595238D01*
X192845238Y-50571429D01*
X192869048Y-50523810D01*
X192892857Y-50500000D01*
X192940476Y-50476190D01*
X193035714Y-50476190D01*
X193083333Y-50500000D01*
X193107143Y-50523810D01*
X193130952Y-50571429D01*
X193130952Y-50595238D01*
X193107143Y-50642857D01*
X193083333Y-50666667D01*
X193035714Y-50690476D01*
X192940476Y-50690476D01*
X192892857Y-50714286D01*
X192869048Y-50738095D01*
X192845238Y-50785714D01*
X192845238Y-50880952D01*
X192869048Y-50928571D01*
X192892857Y-50952381D01*
X192940476Y-50976190D01*
X193035714Y-50976190D01*
X193083333Y-50952381D01*
X193107143Y-50928571D01*
X193130952Y-50880952D01*
X193130952Y-50785714D01*
X193107143Y-50738095D01*
X193083333Y-50714286D01*
X193035714Y-50690476D01*
X196416667Y-114428571D02*
X196392857Y-114452381D01*
X196321429Y-114476190D01*
X196273810Y-114476190D01*
X196202381Y-114452381D01*
X196154762Y-114404762D01*
X196130953Y-114357143D01*
X196107143Y-114261905D01*
X196107143Y-114190476D01*
X196130953Y-114095238D01*
X196154762Y-114047619D01*
X196202381Y-114000000D01*
X196273810Y-113976190D01*
X196321429Y-113976190D01*
X196392857Y-114000000D01*
X196416667Y-114023810D01*
X196892857Y-114476190D02*
X196607143Y-114476190D01*
X196750000Y-114476190D02*
X196750000Y-113976190D01*
X196702381Y-114047619D01*
X196654762Y-114095238D01*
X196607143Y-114119048D01*
X196416667Y-112428571D02*
X196392857Y-112452381D01*
X196321429Y-112476190D01*
X196273810Y-112476190D01*
X196202381Y-112452381D01*
X196154762Y-112404762D01*
X196130953Y-112357143D01*
X196107143Y-112261905D01*
X196107143Y-112190476D01*
X196130953Y-112095238D01*
X196154762Y-112047619D01*
X196202381Y-112000000D01*
X196273810Y-111976190D01*
X196321429Y-111976190D01*
X196392857Y-112000000D01*
X196416667Y-112023810D01*
X196583334Y-111976190D02*
X196892857Y-111976190D01*
X196726191Y-112166667D01*
X196797619Y-112166667D01*
X196845238Y-112190476D01*
X196869048Y-112214286D01*
X196892857Y-112261905D01*
X196892857Y-112380952D01*
X196869048Y-112428571D01*
X196845238Y-112452381D01*
X196797619Y-112476190D01*
X196654762Y-112476190D01*
X196607143Y-112452381D01*
X196583334Y-112428571D01*
X196416667Y-110428571D02*
X196392857Y-110452381D01*
X196321429Y-110476190D01*
X196273810Y-110476190D01*
X196202381Y-110452381D01*
X196154762Y-110404762D01*
X196130953Y-110357143D01*
X196107143Y-110261905D01*
X196107143Y-110190476D01*
X196130953Y-110095238D01*
X196154762Y-110047619D01*
X196202381Y-110000000D01*
X196273810Y-109976190D01*
X196321429Y-109976190D01*
X196392857Y-110000000D01*
X196416667Y-110023810D01*
X196869048Y-109976190D02*
X196630953Y-109976190D01*
X196607143Y-110214286D01*
X196630953Y-110190476D01*
X196678572Y-110166667D01*
X196797619Y-110166667D01*
X196845238Y-110190476D01*
X196869048Y-110214286D01*
X196892857Y-110261905D01*
X196892857Y-110380952D01*
X196869048Y-110428571D01*
X196845238Y-110452381D01*
X196797619Y-110476190D01*
X196678572Y-110476190D01*
X196630953Y-110452381D01*
X196607143Y-110428571D01*
X196416667Y-108428571D02*
X196392857Y-108452381D01*
X196321429Y-108476190D01*
X196273810Y-108476190D01*
X196202381Y-108452381D01*
X196154762Y-108404762D01*
X196130953Y-108357143D01*
X196107143Y-108261905D01*
X196107143Y-108190476D01*
X196130953Y-108095238D01*
X196154762Y-108047619D01*
X196202381Y-108000000D01*
X196273810Y-107976190D01*
X196321429Y-107976190D01*
X196392857Y-108000000D01*
X196416667Y-108023810D01*
X196845238Y-107976190D02*
X196750000Y-107976190D01*
X196702381Y-108000000D01*
X196678572Y-108023810D01*
X196630953Y-108095238D01*
X196607143Y-108190476D01*
X196607143Y-108380952D01*
X196630953Y-108428571D01*
X196654762Y-108452381D01*
X196702381Y-108476190D01*
X196797619Y-108476190D01*
X196845238Y-108452381D01*
X196869048Y-108428571D01*
X196892857Y-108380952D01*
X196892857Y-108261905D01*
X196869048Y-108214286D01*
X196845238Y-108190476D01*
X196797619Y-108166667D01*
X196702381Y-108166667D01*
X196654762Y-108190476D01*
X196630953Y-108214286D01*
X196607143Y-108261905D01*
X196416667Y-106428571D02*
X196392857Y-106452381D01*
X196321429Y-106476190D01*
X196273810Y-106476190D01*
X196202381Y-106452381D01*
X196154762Y-106404762D01*
X196130953Y-106357143D01*
X196107143Y-106261905D01*
X196107143Y-106190476D01*
X196130953Y-106095238D01*
X196154762Y-106047619D01*
X196202381Y-106000000D01*
X196273810Y-105976190D01*
X196321429Y-105976190D01*
X196392857Y-106000000D01*
X196416667Y-106023810D01*
X196583334Y-105976190D02*
X196916667Y-105976190D01*
X196702381Y-106476190D01*
X196416667Y-104428571D02*
X196392857Y-104452381D01*
X196321429Y-104476190D01*
X196273810Y-104476190D01*
X196202381Y-104452381D01*
X196154762Y-104404762D01*
X196130953Y-104357143D01*
X196107143Y-104261905D01*
X196107143Y-104190476D01*
X196130953Y-104095238D01*
X196154762Y-104047619D01*
X196202381Y-104000000D01*
X196273810Y-103976190D01*
X196321429Y-103976190D01*
X196392857Y-104000000D01*
X196416667Y-104023810D01*
X196702381Y-104190476D02*
X196654762Y-104166667D01*
X196630953Y-104142857D01*
X196607143Y-104095238D01*
X196607143Y-104071429D01*
X196630953Y-104023810D01*
X196654762Y-104000000D01*
X196702381Y-103976190D01*
X196797619Y-103976190D01*
X196845238Y-104000000D01*
X196869048Y-104023810D01*
X196892857Y-104071429D01*
X196892857Y-104095238D01*
X196869048Y-104142857D01*
X196845238Y-104166667D01*
X196797619Y-104190476D01*
X196702381Y-104190476D01*
X196654762Y-104214286D01*
X196630953Y-104238095D01*
X196607143Y-104285714D01*
X196607143Y-104380952D01*
X196630953Y-104428571D01*
X196654762Y-104452381D01*
X196702381Y-104476190D01*
X196797619Y-104476190D01*
X196845238Y-104452381D01*
X196869048Y-104428571D01*
X196892857Y-104380952D01*
X196892857Y-104285714D01*
X196869048Y-104238095D01*
X196845238Y-104214286D01*
X196797619Y-104190476D01*
X196416667Y-102428571D02*
X196392857Y-102452381D01*
X196321429Y-102476190D01*
X196273810Y-102476190D01*
X196202381Y-102452381D01*
X196154762Y-102404762D01*
X196130953Y-102357143D01*
X196107143Y-102261905D01*
X196107143Y-102190476D01*
X196130953Y-102095238D01*
X196154762Y-102047619D01*
X196202381Y-102000000D01*
X196273810Y-101976190D01*
X196321429Y-101976190D01*
X196392857Y-102000000D01*
X196416667Y-102023810D01*
X196654762Y-102476190D02*
X196750000Y-102476190D01*
X196797619Y-102452381D01*
X196821429Y-102428571D01*
X196869048Y-102357143D01*
X196892857Y-102261905D01*
X196892857Y-102071429D01*
X196869048Y-102023810D01*
X196845238Y-102000000D01*
X196797619Y-101976190D01*
X196702381Y-101976190D01*
X196654762Y-102000000D01*
X196630953Y-102023810D01*
X196607143Y-102071429D01*
X196607143Y-102190476D01*
X196630953Y-102238095D01*
X196654762Y-102261905D01*
X196702381Y-102285714D01*
X196797619Y-102285714D01*
X196845238Y-102261905D01*
X196869048Y-102238095D01*
X196892857Y-102190476D01*
X195928572Y-100428571D02*
X195904762Y-100452381D01*
X195833334Y-100476190D01*
X195785715Y-100476190D01*
X195714286Y-100452381D01*
X195666667Y-100404762D01*
X195642858Y-100357143D01*
X195619048Y-100261905D01*
X195619048Y-100190476D01*
X195642858Y-100095238D01*
X195666667Y-100047619D01*
X195714286Y-100000000D01*
X195785715Y-99976190D01*
X195833334Y-99976190D01*
X195904762Y-100000000D01*
X195928572Y-100023810D01*
X196404762Y-100476190D02*
X196119048Y-100476190D01*
X196261905Y-100476190D02*
X196261905Y-99976190D01*
X196214286Y-100047619D01*
X196166667Y-100095238D01*
X196119048Y-100119048D01*
X196595238Y-100023810D02*
X196619048Y-100000000D01*
X196666667Y-99976190D01*
X196785714Y-99976190D01*
X196833333Y-100000000D01*
X196857143Y-100023810D01*
X196880952Y-100071429D01*
X196880952Y-100119048D01*
X196857143Y-100190476D01*
X196571429Y-100476190D01*
X196880952Y-100476190D01*
X195928572Y-98428571D02*
X195904762Y-98452381D01*
X195833334Y-98476190D01*
X195785715Y-98476190D01*
X195714286Y-98452381D01*
X195666667Y-98404762D01*
X195642858Y-98357143D01*
X195619048Y-98261905D01*
X195619048Y-98190476D01*
X195642858Y-98095238D01*
X195666667Y-98047619D01*
X195714286Y-98000000D01*
X195785715Y-97976190D01*
X195833334Y-97976190D01*
X195904762Y-98000000D01*
X195928572Y-98023810D01*
X196404762Y-98476190D02*
X196119048Y-98476190D01*
X196261905Y-98476190D02*
X196261905Y-97976190D01*
X196214286Y-98047619D01*
X196166667Y-98095238D01*
X196119048Y-98119048D01*
X196571429Y-97976190D02*
X196880952Y-97976190D01*
X196714286Y-98166667D01*
X196785714Y-98166667D01*
X196833333Y-98190476D01*
X196857143Y-98214286D01*
X196880952Y-98261905D01*
X196880952Y-98380952D01*
X196857143Y-98428571D01*
X196833333Y-98452381D01*
X196785714Y-98476190D01*
X196642857Y-98476190D01*
X196595238Y-98452381D01*
X196571429Y-98428571D01*
X195928572Y-96428571D02*
X195904762Y-96452381D01*
X195833334Y-96476190D01*
X195785715Y-96476190D01*
X195714286Y-96452381D01*
X195666667Y-96404762D01*
X195642858Y-96357143D01*
X195619048Y-96261905D01*
X195619048Y-96190476D01*
X195642858Y-96095238D01*
X195666667Y-96047619D01*
X195714286Y-96000000D01*
X195785715Y-95976190D01*
X195833334Y-95976190D01*
X195904762Y-96000000D01*
X195928572Y-96023810D01*
X196404762Y-96476190D02*
X196119048Y-96476190D01*
X196261905Y-96476190D02*
X196261905Y-95976190D01*
X196214286Y-96047619D01*
X196166667Y-96095238D01*
X196119048Y-96119048D01*
X196833333Y-96142857D02*
X196833333Y-96476190D01*
X196714286Y-95952381D02*
X196595238Y-96309524D01*
X196904762Y-96309524D01*
X125928572Y-123178571D02*
X125904762Y-123202381D01*
X125833334Y-123226190D01*
X125785715Y-123226190D01*
X125714286Y-123202381D01*
X125666667Y-123154762D01*
X125642858Y-123107143D01*
X125619048Y-123011905D01*
X125619048Y-122940476D01*
X125642858Y-122845238D01*
X125666667Y-122797619D01*
X125714286Y-122750000D01*
X125785715Y-122726190D01*
X125833334Y-122726190D01*
X125904762Y-122750000D01*
X125928572Y-122773810D01*
X126404762Y-123226190D02*
X126119048Y-123226190D01*
X126261905Y-123226190D02*
X126261905Y-122726190D01*
X126214286Y-122797619D01*
X126166667Y-122845238D01*
X126119048Y-122869048D01*
X126833333Y-122726190D02*
X126738095Y-122726190D01*
X126690476Y-122750000D01*
X126666667Y-122773810D01*
X126619048Y-122845238D01*
X126595238Y-122940476D01*
X126595238Y-123130952D01*
X126619048Y-123178571D01*
X126642857Y-123202381D01*
X126690476Y-123226190D01*
X126785714Y-123226190D01*
X126833333Y-123202381D01*
X126857143Y-123178571D01*
X126880952Y-123130952D01*
X126880952Y-123011905D01*
X126857143Y-122964286D01*
X126833333Y-122940476D01*
X126785714Y-122916667D01*
X126690476Y-122916667D01*
X126642857Y-122940476D01*
X126619048Y-122964286D01*
X126595238Y-123011905D01*
X181178572Y-110678571D02*
X181154762Y-110702381D01*
X181083334Y-110726190D01*
X181035715Y-110726190D01*
X180964286Y-110702381D01*
X180916667Y-110654762D01*
X180892858Y-110607143D01*
X180869048Y-110511905D01*
X180869048Y-110440476D01*
X180892858Y-110345238D01*
X180916667Y-110297619D01*
X180964286Y-110250000D01*
X181035715Y-110226190D01*
X181083334Y-110226190D01*
X181154762Y-110250000D01*
X181178572Y-110273810D01*
X181654762Y-110726190D02*
X181369048Y-110726190D01*
X181511905Y-110726190D02*
X181511905Y-110226190D01*
X181464286Y-110297619D01*
X181416667Y-110345238D01*
X181369048Y-110369048D01*
X181821429Y-110226190D02*
X182154762Y-110226190D01*
X181940476Y-110726190D01*
X151678572Y-38178571D02*
X151654762Y-38202381D01*
X151583334Y-38226190D01*
X151535715Y-38226190D01*
X151464286Y-38202381D01*
X151416667Y-38154762D01*
X151392858Y-38107143D01*
X151369048Y-38011905D01*
X151369048Y-37940476D01*
X151392858Y-37845238D01*
X151416667Y-37797619D01*
X151464286Y-37750000D01*
X151535715Y-37726190D01*
X151583334Y-37726190D01*
X151654762Y-37750000D01*
X151678572Y-37773810D01*
X152154762Y-38226190D02*
X151869048Y-38226190D01*
X152011905Y-38226190D02*
X152011905Y-37726190D01*
X151964286Y-37797619D01*
X151916667Y-37845238D01*
X151869048Y-37869048D01*
X152440476Y-37940476D02*
X152392857Y-37916667D01*
X152369048Y-37892857D01*
X152345238Y-37845238D01*
X152345238Y-37821429D01*
X152369048Y-37773810D01*
X152392857Y-37750000D01*
X152440476Y-37726190D01*
X152535714Y-37726190D01*
X152583333Y-37750000D01*
X152607143Y-37773810D01*
X152630952Y-37821429D01*
X152630952Y-37845238D01*
X152607143Y-37892857D01*
X152583333Y-37916667D01*
X152535714Y-37940476D01*
X152440476Y-37940476D01*
X152392857Y-37964286D01*
X152369048Y-37988095D01*
X152345238Y-38035714D01*
X152345238Y-38130952D01*
X152369048Y-38178571D01*
X152392857Y-38202381D01*
X152440476Y-38226190D01*
X152535714Y-38226190D01*
X152583333Y-38202381D01*
X152607143Y-38178571D01*
X152630952Y-38130952D01*
X152630952Y-38035714D01*
X152607143Y-37988095D01*
X152583333Y-37964286D01*
X152535714Y-37940476D01*
X180514035Y-89926130D02*
X180490225Y-89949940D01*
X180418797Y-89973749D01*
X180371178Y-89973749D01*
X180299749Y-89949940D01*
X180252130Y-89902321D01*
X180228321Y-89854702D01*
X180204511Y-89759464D01*
X180204511Y-89688035D01*
X180228321Y-89592797D01*
X180252130Y-89545178D01*
X180299749Y-89497559D01*
X180371178Y-89473749D01*
X180418797Y-89473749D01*
X180490225Y-89497559D01*
X180514035Y-89521369D01*
X180704511Y-89521369D02*
X180728321Y-89497559D01*
X180775940Y-89473749D01*
X180894987Y-89473749D01*
X180942606Y-89497559D01*
X180966416Y-89521369D01*
X180990225Y-89568988D01*
X180990225Y-89616607D01*
X180966416Y-89688035D01*
X180680702Y-89973749D01*
X180990225Y-89973749D01*
X181299749Y-89473749D02*
X181347368Y-89473749D01*
X181394987Y-89497559D01*
X181418796Y-89521369D01*
X181442606Y-89568988D01*
X181466415Y-89664226D01*
X181466415Y-89783273D01*
X181442606Y-89878511D01*
X181418796Y-89926130D01*
X181394987Y-89949940D01*
X181347368Y-89973749D01*
X181299749Y-89973749D01*
X181252130Y-89949940D01*
X181228320Y-89926130D01*
X181204511Y-89878511D01*
X181180701Y-89783273D01*
X181180701Y-89664226D01*
X181204511Y-89568988D01*
X181228320Y-89521369D01*
X181252130Y-89497559D01*
X181299749Y-89473749D01*
X175764035Y-103176130D02*
X175740225Y-103199940D01*
X175668797Y-103223749D01*
X175621178Y-103223749D01*
X175549749Y-103199940D01*
X175502130Y-103152321D01*
X175478321Y-103104702D01*
X175454511Y-103009464D01*
X175454511Y-102938035D01*
X175478321Y-102842797D01*
X175502130Y-102795178D01*
X175549749Y-102747559D01*
X175621178Y-102723749D01*
X175668797Y-102723749D01*
X175740225Y-102747559D01*
X175764035Y-102771369D01*
X175954511Y-102771369D02*
X175978321Y-102747559D01*
X176025940Y-102723749D01*
X176144987Y-102723749D01*
X176192606Y-102747559D01*
X176216416Y-102771369D01*
X176240225Y-102818988D01*
X176240225Y-102866607D01*
X176216416Y-102938035D01*
X175930702Y-103223749D01*
X176240225Y-103223749D01*
X176716415Y-103223749D02*
X176430701Y-103223749D01*
X176573558Y-103223749D02*
X176573558Y-102723749D01*
X176525939Y-102795178D01*
X176478320Y-102842797D01*
X176430701Y-102866607D01*
X155178572Y-87678571D02*
X155154762Y-87702381D01*
X155083334Y-87726190D01*
X155035715Y-87726190D01*
X154964286Y-87702381D01*
X154916667Y-87654762D01*
X154892858Y-87607143D01*
X154869048Y-87511905D01*
X154869048Y-87440476D01*
X154892858Y-87345238D01*
X154916667Y-87297619D01*
X154964286Y-87250000D01*
X155035715Y-87226190D01*
X155083334Y-87226190D01*
X155154762Y-87250000D01*
X155178572Y-87273810D01*
X155369048Y-87273810D02*
X155392858Y-87250000D01*
X155440477Y-87226190D01*
X155559524Y-87226190D01*
X155607143Y-87250000D01*
X155630953Y-87273810D01*
X155654762Y-87321429D01*
X155654762Y-87369048D01*
X155630953Y-87440476D01*
X155345239Y-87726190D01*
X155654762Y-87726190D01*
X155845238Y-87273810D02*
X155869048Y-87250000D01*
X155916667Y-87226190D01*
X156035714Y-87226190D01*
X156083333Y-87250000D01*
X156107143Y-87273810D01*
X156130952Y-87321429D01*
X156130952Y-87369048D01*
X156107143Y-87440476D01*
X155821429Y-87726190D01*
X156130952Y-87726190D01*
X185428572Y-95678571D02*
X185404762Y-95702381D01*
X185333334Y-95726190D01*
X185285715Y-95726190D01*
X185214286Y-95702381D01*
X185166667Y-95654762D01*
X185142858Y-95607143D01*
X185119048Y-95511905D01*
X185119048Y-95440476D01*
X185142858Y-95345238D01*
X185166667Y-95297619D01*
X185214286Y-95250000D01*
X185285715Y-95226190D01*
X185333334Y-95226190D01*
X185404762Y-95250000D01*
X185428572Y-95273810D01*
X185619048Y-95273810D02*
X185642858Y-95250000D01*
X185690477Y-95226190D01*
X185809524Y-95226190D01*
X185857143Y-95250000D01*
X185880953Y-95273810D01*
X185904762Y-95321429D01*
X185904762Y-95369048D01*
X185880953Y-95440476D01*
X185595239Y-95726190D01*
X185904762Y-95726190D01*
X186071429Y-95226190D02*
X186380952Y-95226190D01*
X186214286Y-95416667D01*
X186285714Y-95416667D01*
X186333333Y-95440476D01*
X186357143Y-95464286D01*
X186380952Y-95511905D01*
X186380952Y-95630952D01*
X186357143Y-95678571D01*
X186333333Y-95702381D01*
X186285714Y-95726190D01*
X186142857Y-95726190D01*
X186095238Y-95702381D01*
X186071429Y-95678571D01*
X183428572Y-95678571D02*
X183404762Y-95702381D01*
X183333334Y-95726190D01*
X183285715Y-95726190D01*
X183214286Y-95702381D01*
X183166667Y-95654762D01*
X183142858Y-95607143D01*
X183119048Y-95511905D01*
X183119048Y-95440476D01*
X183142858Y-95345238D01*
X183166667Y-95297619D01*
X183214286Y-95250000D01*
X183285715Y-95226190D01*
X183333334Y-95226190D01*
X183404762Y-95250000D01*
X183428572Y-95273810D01*
X183619048Y-95273810D02*
X183642858Y-95250000D01*
X183690477Y-95226190D01*
X183809524Y-95226190D01*
X183857143Y-95250000D01*
X183880953Y-95273810D01*
X183904762Y-95321429D01*
X183904762Y-95369048D01*
X183880953Y-95440476D01*
X183595239Y-95726190D01*
X183904762Y-95726190D01*
X184333333Y-95392857D02*
X184333333Y-95726190D01*
X184214286Y-95202381D02*
X184095238Y-95559524D01*
X184404762Y-95559524D01*
X181428572Y-95678571D02*
X181404762Y-95702381D01*
X181333334Y-95726190D01*
X181285715Y-95726190D01*
X181214286Y-95702381D01*
X181166667Y-95654762D01*
X181142858Y-95607143D01*
X181119048Y-95511905D01*
X181119048Y-95440476D01*
X181142858Y-95345238D01*
X181166667Y-95297619D01*
X181214286Y-95250000D01*
X181285715Y-95226190D01*
X181333334Y-95226190D01*
X181404762Y-95250000D01*
X181428572Y-95273810D01*
X181619048Y-95273810D02*
X181642858Y-95250000D01*
X181690477Y-95226190D01*
X181809524Y-95226190D01*
X181857143Y-95250000D01*
X181880953Y-95273810D01*
X181904762Y-95321429D01*
X181904762Y-95369048D01*
X181880953Y-95440476D01*
X181595239Y-95726190D01*
X181904762Y-95726190D01*
X182357143Y-95226190D02*
X182119048Y-95226190D01*
X182095238Y-95464286D01*
X182119048Y-95440476D01*
X182166667Y-95416667D01*
X182285714Y-95416667D01*
X182333333Y-95440476D01*
X182357143Y-95464286D01*
X182380952Y-95511905D01*
X182380952Y-95630952D01*
X182357143Y-95678571D01*
X182333333Y-95702381D01*
X182285714Y-95726190D01*
X182166667Y-95726190D01*
X182119048Y-95702381D01*
X182095238Y-95678571D01*
X192178572Y-55928571D02*
X192154762Y-55952381D01*
X192083334Y-55976190D01*
X192035715Y-55976190D01*
X191964286Y-55952381D01*
X191916667Y-55904762D01*
X191892858Y-55857143D01*
X191869048Y-55761905D01*
X191869048Y-55690476D01*
X191892858Y-55595238D01*
X191916667Y-55547619D01*
X191964286Y-55500000D01*
X192035715Y-55476190D01*
X192083334Y-55476190D01*
X192154762Y-55500000D01*
X192178572Y-55523810D01*
X192369048Y-55523810D02*
X192392858Y-55500000D01*
X192440477Y-55476190D01*
X192559524Y-55476190D01*
X192607143Y-55500000D01*
X192630953Y-55523810D01*
X192654762Y-55571429D01*
X192654762Y-55619048D01*
X192630953Y-55690476D01*
X192345239Y-55976190D01*
X192654762Y-55976190D01*
X193083333Y-55476190D02*
X192988095Y-55476190D01*
X192940476Y-55500000D01*
X192916667Y-55523810D01*
X192869048Y-55595238D01*
X192845238Y-55690476D01*
X192845238Y-55880952D01*
X192869048Y-55928571D01*
X192892857Y-55952381D01*
X192940476Y-55976190D01*
X193035714Y-55976190D01*
X193083333Y-55952381D01*
X193107143Y-55928571D01*
X193130952Y-55880952D01*
X193130952Y-55761905D01*
X193107143Y-55714286D01*
X193083333Y-55690476D01*
X193035714Y-55666667D01*
X192940476Y-55666667D01*
X192892857Y-55690476D01*
X192869048Y-55714286D01*
X192845238Y-55761905D01*
X192178572Y-53428571D02*
X192154762Y-53452381D01*
X192083334Y-53476190D01*
X192035715Y-53476190D01*
X191964286Y-53452381D01*
X191916667Y-53404762D01*
X191892858Y-53357143D01*
X191869048Y-53261905D01*
X191869048Y-53190476D01*
X191892858Y-53095238D01*
X191916667Y-53047619D01*
X191964286Y-53000000D01*
X192035715Y-52976190D01*
X192083334Y-52976190D01*
X192154762Y-53000000D01*
X192178572Y-53023810D01*
X192369048Y-53023810D02*
X192392858Y-53000000D01*
X192440477Y-52976190D01*
X192559524Y-52976190D01*
X192607143Y-53000000D01*
X192630953Y-53023810D01*
X192654762Y-53071429D01*
X192654762Y-53119048D01*
X192630953Y-53190476D01*
X192345239Y-53476190D01*
X192654762Y-53476190D01*
X192821429Y-52976190D02*
X193154762Y-52976190D01*
X192940476Y-53476190D01*
X180928572Y-65178571D02*
X180904762Y-65202381D01*
X180833334Y-65226190D01*
X180785715Y-65226190D01*
X180714286Y-65202381D01*
X180666667Y-65154762D01*
X180642858Y-65107143D01*
X180619048Y-65011905D01*
X180619048Y-64940476D01*
X180642858Y-64845238D01*
X180666667Y-64797619D01*
X180714286Y-64750000D01*
X180785715Y-64726190D01*
X180833334Y-64726190D01*
X180904762Y-64750000D01*
X180928572Y-64773810D01*
X181119048Y-64773810D02*
X181142858Y-64750000D01*
X181190477Y-64726190D01*
X181309524Y-64726190D01*
X181357143Y-64750000D01*
X181380953Y-64773810D01*
X181404762Y-64821429D01*
X181404762Y-64869048D01*
X181380953Y-64940476D01*
X181095239Y-65226190D01*
X181404762Y-65226190D01*
X181642857Y-65226190D02*
X181738095Y-65226190D01*
X181785714Y-65202381D01*
X181809524Y-65178571D01*
X181857143Y-65107143D01*
X181880952Y-65011905D01*
X181880952Y-64821429D01*
X181857143Y-64773810D01*
X181833333Y-64750000D01*
X181785714Y-64726190D01*
X181690476Y-64726190D01*
X181642857Y-64750000D01*
X181619048Y-64773810D01*
X181595238Y-64821429D01*
X181595238Y-64940476D01*
X181619048Y-64988095D01*
X181642857Y-65011905D01*
X181690476Y-65035714D01*
X181785714Y-65035714D01*
X181833333Y-65011905D01*
X181857143Y-64988095D01*
X181880952Y-64940476D01*
X187928572Y-65178571D02*
X187904762Y-65202381D01*
X187833334Y-65226190D01*
X187785715Y-65226190D01*
X187714286Y-65202381D01*
X187666667Y-65154762D01*
X187642858Y-65107143D01*
X187619048Y-65011905D01*
X187619048Y-64940476D01*
X187642858Y-64845238D01*
X187666667Y-64797619D01*
X187714286Y-64750000D01*
X187785715Y-64726190D01*
X187833334Y-64726190D01*
X187904762Y-64750000D01*
X187928572Y-64773810D01*
X188095239Y-64726190D02*
X188404762Y-64726190D01*
X188238096Y-64916667D01*
X188309524Y-64916667D01*
X188357143Y-64940476D01*
X188380953Y-64964286D01*
X188404762Y-65011905D01*
X188404762Y-65130952D01*
X188380953Y-65178571D01*
X188357143Y-65202381D01*
X188309524Y-65226190D01*
X188166667Y-65226190D01*
X188119048Y-65202381D01*
X188095239Y-65178571D01*
X188714286Y-64726190D02*
X188761905Y-64726190D01*
X188809524Y-64750000D01*
X188833333Y-64773810D01*
X188857143Y-64821429D01*
X188880952Y-64916667D01*
X188880952Y-65035714D01*
X188857143Y-65130952D01*
X188833333Y-65178571D01*
X188809524Y-65202381D01*
X188761905Y-65226190D01*
X188714286Y-65226190D01*
X188666667Y-65202381D01*
X188642857Y-65178571D01*
X188619048Y-65130952D01*
X188595238Y-65035714D01*
X188595238Y-64916667D01*
X188619048Y-64821429D01*
X188642857Y-64773810D01*
X188666667Y-64750000D01*
X188714286Y-64726190D01*
X155178572Y-120928571D02*
X155154762Y-120952381D01*
X155083334Y-120976190D01*
X155035715Y-120976190D01*
X154964286Y-120952381D01*
X154916667Y-120904762D01*
X154892858Y-120857143D01*
X154869048Y-120761905D01*
X154869048Y-120690476D01*
X154892858Y-120595238D01*
X154916667Y-120547619D01*
X154964286Y-120500000D01*
X155035715Y-120476190D01*
X155083334Y-120476190D01*
X155154762Y-120500000D01*
X155178572Y-120523810D01*
X155345239Y-120476190D02*
X155654762Y-120476190D01*
X155488096Y-120666667D01*
X155559524Y-120666667D01*
X155607143Y-120690476D01*
X155630953Y-120714286D01*
X155654762Y-120761905D01*
X155654762Y-120880952D01*
X155630953Y-120928571D01*
X155607143Y-120952381D01*
X155559524Y-120976190D01*
X155416667Y-120976190D01*
X155369048Y-120952381D01*
X155345239Y-120928571D01*
X156107143Y-120476190D02*
X155869048Y-120476190D01*
X155845238Y-120714286D01*
X155869048Y-120690476D01*
X155916667Y-120666667D01*
X156035714Y-120666667D01*
X156083333Y-120690476D01*
X156107143Y-120714286D01*
X156130952Y-120761905D01*
X156130952Y-120880952D01*
X156107143Y-120928571D01*
X156083333Y-120952381D01*
X156035714Y-120976190D01*
X155916667Y-120976190D01*
X155869048Y-120952381D01*
X155845238Y-120928571D01*
X139966416Y-101976190D02*
X139966416Y-101476190D01*
X140085463Y-101476190D01*
X140156892Y-101500000D01*
X140204511Y-101547619D01*
X140228320Y-101595238D01*
X140252130Y-101690476D01*
X140252130Y-101761905D01*
X140228320Y-101857143D01*
X140204511Y-101904762D01*
X140156892Y-101952381D01*
X140085463Y-101976190D01*
X139966416Y-101976190D01*
X140728320Y-101976190D02*
X140442606Y-101976190D01*
X140585463Y-101976190D02*
X140585463Y-101476190D01*
X140537844Y-101547619D01*
X140490225Y-101595238D01*
X140442606Y-101619048D01*
X180380953Y-103226190D02*
X180380953Y-102726190D01*
X180500000Y-102726190D01*
X180571429Y-102750000D01*
X180619048Y-102797619D01*
X180642857Y-102845238D01*
X180666667Y-102940476D01*
X180666667Y-103011905D01*
X180642857Y-103107143D01*
X180619048Y-103154762D01*
X180571429Y-103202381D01*
X180500000Y-103226190D01*
X180380953Y-103226190D01*
X180857143Y-102773810D02*
X180880953Y-102750000D01*
X180928572Y-102726190D01*
X181047619Y-102726190D01*
X181095238Y-102750000D01*
X181119048Y-102773810D01*
X181142857Y-102821429D01*
X181142857Y-102869048D01*
X181119048Y-102940476D01*
X180833334Y-103226190D01*
X181142857Y-103226190D01*
X146066416Y-115133749D02*
X146066416Y-114633749D01*
X146185463Y-114633749D01*
X146256892Y-114657559D01*
X146304511Y-114705178D01*
X146328320Y-114752797D01*
X146352130Y-114848035D01*
X146352130Y-114919464D01*
X146328320Y-115014702D01*
X146304511Y-115062321D01*
X146256892Y-115109940D01*
X146185463Y-115133749D01*
X146066416Y-115133749D01*
X146518797Y-114633749D02*
X146828320Y-114633749D01*
X146661654Y-114824226D01*
X146733082Y-114824226D01*
X146780701Y-114848035D01*
X146804511Y-114871845D01*
X146828320Y-114919464D01*
X146828320Y-115038511D01*
X146804511Y-115086130D01*
X146780701Y-115109940D01*
X146733082Y-115133749D01*
X146590225Y-115133749D01*
X146542606Y-115109940D01*
X146518797Y-115086130D01*
X153652130Y-91973749D02*
X153414035Y-91973749D01*
X153414035Y-91473749D01*
X154080701Y-91973749D02*
X153794987Y-91973749D01*
X153937844Y-91973749D02*
X153937844Y-91473749D01*
X153890225Y-91545178D01*
X153842606Y-91592797D01*
X153794987Y-91616607D01*
X153652130Y-68473749D02*
X153414035Y-68473749D01*
X153414035Y-67973749D01*
X153794987Y-68021369D02*
X153818797Y-67997559D01*
X153866416Y-67973749D01*
X153985463Y-67973749D01*
X154033082Y-67997559D01*
X154056892Y-68021369D01*
X154080701Y-68068988D01*
X154080701Y-68116607D01*
X154056892Y-68188035D01*
X153771178Y-68473749D01*
X154080701Y-68473749D01*
X199130953Y-120976190D02*
X199130953Y-120476190D01*
X199321429Y-120476190D01*
X199369048Y-120500000D01*
X199392857Y-120523810D01*
X199416667Y-120571429D01*
X199416667Y-120642857D01*
X199392857Y-120690476D01*
X199369048Y-120714286D01*
X199321429Y-120738095D01*
X199130953Y-120738095D01*
X199892857Y-120976190D02*
X199607143Y-120976190D01*
X199750000Y-120976190D02*
X199750000Y-120476190D01*
X199702381Y-120547619D01*
X199654762Y-120595238D01*
X199607143Y-120619048D01*
X136626416Y-73473749D02*
X136626416Y-72973749D01*
X136816892Y-72973749D01*
X136864511Y-72997559D01*
X136888320Y-73021369D01*
X136912130Y-73068988D01*
X136912130Y-73140416D01*
X136888320Y-73188035D01*
X136864511Y-73211845D01*
X136816892Y-73235654D01*
X136626416Y-73235654D01*
X137102606Y-73021369D02*
X137126416Y-72997559D01*
X137174035Y-72973749D01*
X137293082Y-72973749D01*
X137340701Y-72997559D01*
X137364511Y-73021369D01*
X137388320Y-73068988D01*
X137388320Y-73116607D01*
X137364511Y-73188035D01*
X137078797Y-73473749D01*
X137388320Y-73473749D01*
X195880953Y-40976190D02*
X195880953Y-40476190D01*
X196071429Y-40476190D01*
X196119048Y-40500000D01*
X196142857Y-40523810D01*
X196166667Y-40571429D01*
X196166667Y-40642857D01*
X196142857Y-40690476D01*
X196119048Y-40714286D01*
X196071429Y-40738095D01*
X195880953Y-40738095D01*
X196595238Y-40642857D02*
X196595238Y-40976190D01*
X196476191Y-40452381D02*
X196357143Y-40809524D01*
X196666667Y-40809524D01*
X178630953Y-108726190D02*
X178630953Y-108226190D01*
X178821429Y-108226190D01*
X178869048Y-108250000D01*
X178892857Y-108273810D01*
X178916667Y-108321429D01*
X178916667Y-108392857D01*
X178892857Y-108440476D01*
X178869048Y-108464286D01*
X178821429Y-108488095D01*
X178630953Y-108488095D01*
X179345238Y-108226190D02*
X179250000Y-108226190D01*
X179202381Y-108250000D01*
X179178572Y-108273810D01*
X179130953Y-108345238D01*
X179107143Y-108440476D01*
X179107143Y-108630952D01*
X179130953Y-108678571D01*
X179154762Y-108702381D01*
X179202381Y-108726190D01*
X179297619Y-108726190D01*
X179345238Y-108702381D01*
X179369048Y-108678571D01*
X179392857Y-108630952D01*
X179392857Y-108511905D01*
X179369048Y-108464286D01*
X179345238Y-108440476D01*
X179297619Y-108416667D01*
X179202381Y-108416667D01*
X179154762Y-108440476D01*
X179130953Y-108464286D01*
X179107143Y-108511905D01*
X178880953Y-53743749D02*
X178880953Y-53243749D01*
X179071429Y-53243749D01*
X179119048Y-53267559D01*
X179142857Y-53291369D01*
X179166667Y-53338988D01*
X179166667Y-53410416D01*
X179142857Y-53458035D01*
X179119048Y-53481845D01*
X179071429Y-53505654D01*
X178880953Y-53505654D01*
X179333334Y-53243749D02*
X179666667Y-53243749D01*
X179452381Y-53743749D01*
X129026416Y-38343749D02*
X129026416Y-37843749D01*
X129216892Y-37843749D01*
X129264511Y-37867559D01*
X129288320Y-37891369D01*
X129312130Y-37938988D01*
X129312130Y-38010416D01*
X129288320Y-38058035D01*
X129264511Y-38081845D01*
X129216892Y-38105654D01*
X129026416Y-38105654D01*
X129550225Y-38343749D02*
X129645463Y-38343749D01*
X129693082Y-38319940D01*
X129716892Y-38296130D01*
X129764511Y-38224702D01*
X129788320Y-38129464D01*
X129788320Y-37938988D01*
X129764511Y-37891369D01*
X129740701Y-37867559D01*
X129693082Y-37843749D01*
X129597844Y-37843749D01*
X129550225Y-37867559D01*
X129526416Y-37891369D01*
X129502606Y-37938988D01*
X129502606Y-38058035D01*
X129526416Y-38105654D01*
X129550225Y-38129464D01*
X129597844Y-38153273D01*
X129693082Y-38153273D01*
X129740701Y-38129464D01*
X129764511Y-38105654D01*
X129788320Y-38058035D01*
X191287844Y-101023810D02*
X191240225Y-101000000D01*
X191192606Y-100952381D01*
X191121177Y-100880952D01*
X191073558Y-100857143D01*
X191025939Y-100857143D01*
X191049749Y-100976190D02*
X191002130Y-100952381D01*
X190954511Y-100904762D01*
X190930701Y-100809524D01*
X190930701Y-100642857D01*
X190954511Y-100547619D01*
X191002130Y-100500000D01*
X191049749Y-100476190D01*
X191144987Y-100476190D01*
X191192606Y-100500000D01*
X191240225Y-100547619D01*
X191264034Y-100642857D01*
X191264034Y-100809524D01*
X191240225Y-100904762D01*
X191192606Y-100952381D01*
X191144987Y-100976190D01*
X191049749Y-100976190D01*
X191740225Y-100976190D02*
X191454511Y-100976190D01*
X191597368Y-100976190D02*
X191597368Y-100476190D01*
X191549749Y-100547619D01*
X191502130Y-100595238D01*
X191454511Y-100619048D01*
X173452381Y-80021369D02*
X173404762Y-79997559D01*
X173357143Y-79949940D01*
X173285714Y-79878511D01*
X173238095Y-79854702D01*
X173190476Y-79854702D01*
X173214286Y-79973749D02*
X173166667Y-79949940D01*
X173119048Y-79902321D01*
X173095238Y-79807083D01*
X173095238Y-79640416D01*
X173119048Y-79545178D01*
X173166667Y-79497559D01*
X173214286Y-79473749D01*
X173309524Y-79473749D01*
X173357143Y-79497559D01*
X173404762Y-79545178D01*
X173428571Y-79640416D01*
X173428571Y-79807083D01*
X173404762Y-79902321D01*
X173357143Y-79949940D01*
X173309524Y-79973749D01*
X173214286Y-79973749D01*
X173619048Y-79521369D02*
X173642858Y-79497559D01*
X173690477Y-79473749D01*
X173809524Y-79473749D01*
X173857143Y-79497559D01*
X173880953Y-79521369D01*
X173904762Y-79568988D01*
X173904762Y-79616607D01*
X173880953Y-79688035D01*
X173595239Y-79973749D01*
X173904762Y-79973749D01*
X126166667Y-117226190D02*
X126000000Y-116988095D01*
X125880953Y-117226190D02*
X125880953Y-116726190D01*
X126071429Y-116726190D01*
X126119048Y-116750000D01*
X126142857Y-116773810D01*
X126166667Y-116821429D01*
X126166667Y-116892857D01*
X126142857Y-116940476D01*
X126119048Y-116964286D01*
X126071429Y-116988095D01*
X125880953Y-116988095D01*
X126595238Y-116892857D02*
X126595238Y-117226190D01*
X126476191Y-116702381D02*
X126357143Y-117059524D01*
X126666667Y-117059524D01*
X149252130Y-89823749D02*
X149085463Y-89585654D01*
X148966416Y-89823749D02*
X148966416Y-89323749D01*
X149156892Y-89323749D01*
X149204511Y-89347559D01*
X149228320Y-89371369D01*
X149252130Y-89418988D01*
X149252130Y-89490416D01*
X149228320Y-89538035D01*
X149204511Y-89561845D01*
X149156892Y-89585654D01*
X148966416Y-89585654D01*
X149418797Y-89323749D02*
X149752130Y-89323749D01*
X149537844Y-89823749D01*
X192514035Y-105123749D02*
X192347368Y-104885654D01*
X192228321Y-105123749D02*
X192228321Y-104623749D01*
X192418797Y-104623749D01*
X192466416Y-104647559D01*
X192490225Y-104671369D01*
X192514035Y-104718988D01*
X192514035Y-104790416D01*
X192490225Y-104838035D01*
X192466416Y-104861845D01*
X192418797Y-104885654D01*
X192228321Y-104885654D01*
X192990225Y-105123749D02*
X192704511Y-105123749D01*
X192847368Y-105123749D02*
X192847368Y-104623749D01*
X192799749Y-104695178D01*
X192752130Y-104742797D01*
X192704511Y-104766607D01*
X193156892Y-104623749D02*
X193466415Y-104623749D01*
X193299749Y-104814226D01*
X193371177Y-104814226D01*
X193418796Y-104838035D01*
X193442606Y-104861845D01*
X193466415Y-104909464D01*
X193466415Y-105028511D01*
X193442606Y-105076130D01*
X193418796Y-105099940D01*
X193371177Y-105123749D01*
X193228320Y-105123749D01*
X193180701Y-105099940D01*
X193156892Y-105076130D01*
X144678572Y-73976190D02*
X144511905Y-73738095D01*
X144392858Y-73976190D02*
X144392858Y-73476190D01*
X144583334Y-73476190D01*
X144630953Y-73500000D01*
X144654762Y-73523810D01*
X144678572Y-73571429D01*
X144678572Y-73642857D01*
X144654762Y-73690476D01*
X144630953Y-73714286D01*
X144583334Y-73738095D01*
X144392858Y-73738095D01*
X145154762Y-73976190D02*
X144869048Y-73976190D01*
X145011905Y-73976190D02*
X145011905Y-73476190D01*
X144964286Y-73547619D01*
X144916667Y-73595238D01*
X144869048Y-73619048D01*
X145583333Y-73642857D02*
X145583333Y-73976190D01*
X145464286Y-73452381D02*
X145345238Y-73809524D01*
X145654762Y-73809524D01*
X135514035Y-101976190D02*
X135347368Y-101738095D01*
X135228321Y-101976190D02*
X135228321Y-101476190D01*
X135418797Y-101476190D01*
X135466416Y-101500000D01*
X135490225Y-101523810D01*
X135514035Y-101571429D01*
X135514035Y-101642857D01*
X135490225Y-101690476D01*
X135466416Y-101714286D01*
X135418797Y-101738095D01*
X135228321Y-101738095D01*
X135990225Y-101976190D02*
X135704511Y-101976190D01*
X135847368Y-101976190D02*
X135847368Y-101476190D01*
X135799749Y-101547619D01*
X135752130Y-101595238D01*
X135704511Y-101619048D01*
X136442606Y-101476190D02*
X136204511Y-101476190D01*
X136180701Y-101714286D01*
X136204511Y-101690476D01*
X136252130Y-101666667D01*
X136371177Y-101666667D01*
X136418796Y-101690476D01*
X136442606Y-101714286D01*
X136466415Y-101761905D01*
X136466415Y-101880952D01*
X136442606Y-101928571D01*
X136418796Y-101952381D01*
X136371177Y-101976190D01*
X136252130Y-101976190D01*
X136204511Y-101952381D01*
X136180701Y-101928571D01*
X194428572Y-66973749D02*
X194261905Y-66735654D01*
X194142858Y-66973749D02*
X194142858Y-66473749D01*
X194333334Y-66473749D01*
X194380953Y-66497559D01*
X194404762Y-66521369D01*
X194428572Y-66568988D01*
X194428572Y-66640416D01*
X194404762Y-66688035D01*
X194380953Y-66711845D01*
X194333334Y-66735654D01*
X194142858Y-66735654D01*
X194904762Y-66973749D02*
X194619048Y-66973749D01*
X194761905Y-66973749D02*
X194761905Y-66473749D01*
X194714286Y-66545178D01*
X194666667Y-66592797D01*
X194619048Y-66616607D01*
X195071429Y-66473749D02*
X195404762Y-66473749D01*
X195190476Y-66973749D01*
X149428572Y-38476190D02*
X149261905Y-38238095D01*
X149142858Y-38476190D02*
X149142858Y-37976190D01*
X149333334Y-37976190D01*
X149380953Y-38000000D01*
X149404762Y-38023810D01*
X149428572Y-38071429D01*
X149428572Y-38142857D01*
X149404762Y-38190476D01*
X149380953Y-38214286D01*
X149333334Y-38238095D01*
X149142858Y-38238095D01*
X149904762Y-38476190D02*
X149619048Y-38476190D01*
X149761905Y-38476190D02*
X149761905Y-37976190D01*
X149714286Y-38047619D01*
X149666667Y-38095238D01*
X149619048Y-38119048D01*
X150190476Y-38190476D02*
X150142857Y-38166667D01*
X150119048Y-38142857D01*
X150095238Y-38095238D01*
X150095238Y-38071429D01*
X150119048Y-38023810D01*
X150142857Y-38000000D01*
X150190476Y-37976190D01*
X150285714Y-37976190D01*
X150333333Y-38000000D01*
X150357143Y-38023810D01*
X150380952Y-38071429D01*
X150380952Y-38095238D01*
X150357143Y-38142857D01*
X150333333Y-38166667D01*
X150285714Y-38190476D01*
X150190476Y-38190476D01*
X150142857Y-38214286D01*
X150119048Y-38238095D01*
X150095238Y-38285714D01*
X150095238Y-38380952D01*
X150119048Y-38428571D01*
X150142857Y-38452381D01*
X150190476Y-38476190D01*
X150285714Y-38476190D01*
X150333333Y-38452381D01*
X150357143Y-38428571D01*
X150380952Y-38380952D01*
X150380952Y-38285714D01*
X150357143Y-38238095D01*
X150333333Y-38214286D01*
X150285714Y-38190476D01*
X182928572Y-101726190D02*
X182761905Y-101488095D01*
X182642858Y-101726190D02*
X182642858Y-101226190D01*
X182833334Y-101226190D01*
X182880953Y-101250000D01*
X182904762Y-101273810D01*
X182928572Y-101321429D01*
X182928572Y-101392857D01*
X182904762Y-101440476D01*
X182880953Y-101464286D01*
X182833334Y-101488095D01*
X182642858Y-101488095D01*
X183119048Y-101273810D02*
X183142858Y-101250000D01*
X183190477Y-101226190D01*
X183309524Y-101226190D01*
X183357143Y-101250000D01*
X183380953Y-101273810D01*
X183404762Y-101321429D01*
X183404762Y-101369048D01*
X183380953Y-101440476D01*
X183095239Y-101726190D01*
X183404762Y-101726190D01*
X183714286Y-101226190D02*
X183761905Y-101226190D01*
X183809524Y-101250000D01*
X183833333Y-101273810D01*
X183857143Y-101321429D01*
X183880952Y-101416667D01*
X183880952Y-101535714D01*
X183857143Y-101630952D01*
X183833333Y-101678571D01*
X183809524Y-101702381D01*
X183761905Y-101726190D01*
X183714286Y-101726190D01*
X183666667Y-101702381D01*
X183642857Y-101678571D01*
X183619048Y-101630952D01*
X183595238Y-101535714D01*
X183595238Y-101416667D01*
X183619048Y-101321429D01*
X183642857Y-101273810D01*
X183666667Y-101250000D01*
X183714286Y-101226190D01*
X144678572Y-71476190D02*
X144511905Y-71238095D01*
X144392858Y-71476190D02*
X144392858Y-70976190D01*
X144583334Y-70976190D01*
X144630953Y-71000000D01*
X144654762Y-71023810D01*
X144678572Y-71071429D01*
X144678572Y-71142857D01*
X144654762Y-71190476D01*
X144630953Y-71214286D01*
X144583334Y-71238095D01*
X144392858Y-71238095D01*
X144869048Y-71023810D02*
X144892858Y-71000000D01*
X144940477Y-70976190D01*
X145059524Y-70976190D01*
X145107143Y-71000000D01*
X145130953Y-71023810D01*
X145154762Y-71071429D01*
X145154762Y-71119048D01*
X145130953Y-71190476D01*
X144845239Y-71476190D01*
X145154762Y-71476190D01*
X145321429Y-70976190D02*
X145654762Y-70976190D01*
X145440476Y-71476190D01*
X140704035Y-115313749D02*
X140537368Y-115075654D01*
X140418321Y-115313749D02*
X140418321Y-114813749D01*
X140608797Y-114813749D01*
X140656416Y-114837559D01*
X140680225Y-114861369D01*
X140704035Y-114908988D01*
X140704035Y-114980416D01*
X140680225Y-115028035D01*
X140656416Y-115051845D01*
X140608797Y-115075654D01*
X140418321Y-115075654D01*
X140894511Y-114861369D02*
X140918321Y-114837559D01*
X140965940Y-114813749D01*
X141084987Y-114813749D01*
X141132606Y-114837559D01*
X141156416Y-114861369D01*
X141180225Y-114908988D01*
X141180225Y-114956607D01*
X141156416Y-115028035D01*
X140870702Y-115313749D01*
X141180225Y-115313749D01*
X141465939Y-115028035D02*
X141418320Y-115004226D01*
X141394511Y-114980416D01*
X141370701Y-114932797D01*
X141370701Y-114908988D01*
X141394511Y-114861369D01*
X141418320Y-114837559D01*
X141465939Y-114813749D01*
X141561177Y-114813749D01*
X141608796Y-114837559D01*
X141632606Y-114861369D01*
X141656415Y-114908988D01*
X141656415Y-114932797D01*
X141632606Y-114980416D01*
X141608796Y-115004226D01*
X141561177Y-115028035D01*
X141465939Y-115028035D01*
X141418320Y-115051845D01*
X141394511Y-115075654D01*
X141370701Y-115123273D01*
X141370701Y-115218511D01*
X141394511Y-115266130D01*
X141418320Y-115289940D01*
X141465939Y-115313749D01*
X141561177Y-115313749D01*
X141608796Y-115289940D01*
X141632606Y-115266130D01*
X141656415Y-115218511D01*
X141656415Y-115123273D01*
X141632606Y-115075654D01*
X141608796Y-115051845D01*
X141561177Y-115028035D01*
X128428572Y-117226190D02*
X128261905Y-116988095D01*
X128142858Y-117226190D02*
X128142858Y-116726190D01*
X128333334Y-116726190D01*
X128380953Y-116750000D01*
X128404762Y-116773810D01*
X128428572Y-116821429D01*
X128428572Y-116892857D01*
X128404762Y-116940476D01*
X128380953Y-116964286D01*
X128333334Y-116988095D01*
X128142858Y-116988095D01*
X128595239Y-116726190D02*
X128904762Y-116726190D01*
X128738096Y-116916667D01*
X128809524Y-116916667D01*
X128857143Y-116940476D01*
X128880953Y-116964286D01*
X128904762Y-117011905D01*
X128904762Y-117130952D01*
X128880953Y-117178571D01*
X128857143Y-117202381D01*
X128809524Y-117226190D01*
X128666667Y-117226190D01*
X128619048Y-117202381D01*
X128595239Y-117178571D01*
X129214286Y-116726190D02*
X129261905Y-116726190D01*
X129309524Y-116750000D01*
X129333333Y-116773810D01*
X129357143Y-116821429D01*
X129380952Y-116916667D01*
X129380952Y-117035714D01*
X129357143Y-117130952D01*
X129333333Y-117178571D01*
X129309524Y-117202381D01*
X129261905Y-117226190D01*
X129214286Y-117226190D01*
X129166667Y-117202381D01*
X129142857Y-117178571D01*
X129119048Y-117130952D01*
X129095238Y-117035714D01*
X129095238Y-116916667D01*
X129119048Y-116821429D01*
X129142857Y-116773810D01*
X129166667Y-116750000D01*
X129214286Y-116726190D01*
X154833334Y-74452381D02*
X154904763Y-74476190D01*
X155023810Y-74476190D01*
X155071429Y-74452381D01*
X155095239Y-74428571D01*
X155119048Y-74380952D01*
X155119048Y-74333333D01*
X155095239Y-74285714D01*
X155071429Y-74261905D01*
X155023810Y-74238095D01*
X154928572Y-74214286D01*
X154880953Y-74190476D01*
X154857144Y-74166667D01*
X154833334Y-74119048D01*
X154833334Y-74071429D01*
X154857144Y-74023810D01*
X154880953Y-74000000D01*
X154928572Y-73976190D01*
X155047620Y-73976190D01*
X155119048Y-74000000D01*
X155285715Y-73976190D02*
X155404762Y-74476190D01*
X155500000Y-74119048D01*
X155595238Y-74476190D01*
X155714286Y-73976190D01*
X156166667Y-74476190D02*
X155880953Y-74476190D01*
X156023810Y-74476190D02*
X156023810Y-73976190D01*
X155976191Y-74047619D01*
X155928572Y-74095238D01*
X155880953Y-74119048D01*
X132918797Y-125449940D02*
X132990226Y-125473749D01*
X133109273Y-125473749D01*
X133156892Y-125449940D01*
X133180702Y-125426130D01*
X133204511Y-125378511D01*
X133204511Y-125330892D01*
X133180702Y-125283273D01*
X133156892Y-125259464D01*
X133109273Y-125235654D01*
X133014035Y-125211845D01*
X132966416Y-125188035D01*
X132942607Y-125164226D01*
X132918797Y-125116607D01*
X132918797Y-125068988D01*
X132942607Y-125021369D01*
X132966416Y-124997559D01*
X133014035Y-124973749D01*
X133133083Y-124973749D01*
X133204511Y-124997559D01*
X133371178Y-124973749D02*
X133490225Y-125473749D01*
X133585463Y-125116607D01*
X133680701Y-125473749D01*
X133799749Y-124973749D01*
X133966416Y-125021369D02*
X133990226Y-124997559D01*
X134037845Y-124973749D01*
X134156892Y-124973749D01*
X134204511Y-124997559D01*
X134228321Y-125021369D01*
X134252130Y-125068988D01*
X134252130Y-125116607D01*
X134228321Y-125188035D01*
X133942607Y-125473749D01*
X134252130Y-125473749D01*
X158418797Y-44449940D02*
X158490226Y-44473749D01*
X158609273Y-44473749D01*
X158656892Y-44449940D01*
X158680702Y-44426130D01*
X158704511Y-44378511D01*
X158704511Y-44330892D01*
X158680702Y-44283273D01*
X158656892Y-44259464D01*
X158609273Y-44235654D01*
X158514035Y-44211845D01*
X158466416Y-44188035D01*
X158442607Y-44164226D01*
X158418797Y-44116607D01*
X158418797Y-44068988D01*
X158442607Y-44021369D01*
X158466416Y-43997559D01*
X158514035Y-43973749D01*
X158633083Y-43973749D01*
X158704511Y-43997559D01*
X158871178Y-43973749D02*
X158990225Y-44473749D01*
X159085463Y-44116607D01*
X159180701Y-44473749D01*
X159299749Y-43973749D01*
X159442607Y-43973749D02*
X159752130Y-43973749D01*
X159585464Y-44164226D01*
X159656892Y-44164226D01*
X159704511Y-44188035D01*
X159728321Y-44211845D01*
X159752130Y-44259464D01*
X159752130Y-44378511D01*
X159728321Y-44426130D01*
X159704511Y-44449940D01*
X159656892Y-44473749D01*
X159514035Y-44473749D01*
X159466416Y-44449940D01*
X159442607Y-44426130D01*
X154583334Y-78952381D02*
X154654763Y-78976190D01*
X154773810Y-78976190D01*
X154821429Y-78952381D01*
X154845239Y-78928571D01*
X154869048Y-78880952D01*
X154869048Y-78833333D01*
X154845239Y-78785714D01*
X154821429Y-78761905D01*
X154773810Y-78738095D01*
X154678572Y-78714286D01*
X154630953Y-78690476D01*
X154607144Y-78666667D01*
X154583334Y-78619048D01*
X154583334Y-78571429D01*
X154607144Y-78523810D01*
X154630953Y-78500000D01*
X154678572Y-78476190D01*
X154797620Y-78476190D01*
X154869048Y-78500000D01*
X155035715Y-78476190D02*
X155154762Y-78976190D01*
X155250000Y-78619048D01*
X155345238Y-78976190D01*
X155464286Y-78476190D01*
X155869048Y-78642857D02*
X155869048Y-78976190D01*
X155750001Y-78452381D02*
X155630953Y-78809524D01*
X155940477Y-78809524D01*
X144918797Y-125449940D02*
X144990226Y-125473749D01*
X145109273Y-125473749D01*
X145156892Y-125449940D01*
X145180702Y-125426130D01*
X145204511Y-125378511D01*
X145204511Y-125330892D01*
X145180702Y-125283273D01*
X145156892Y-125259464D01*
X145109273Y-125235654D01*
X145014035Y-125211845D01*
X144966416Y-125188035D01*
X144942607Y-125164226D01*
X144918797Y-125116607D01*
X144918797Y-125068988D01*
X144942607Y-125021369D01*
X144966416Y-124997559D01*
X145014035Y-124973749D01*
X145133083Y-124973749D01*
X145204511Y-124997559D01*
X145371178Y-124973749D02*
X145490225Y-125473749D01*
X145585463Y-125116607D01*
X145680701Y-125473749D01*
X145799749Y-124973749D01*
X146228321Y-124973749D02*
X145990226Y-124973749D01*
X145966416Y-125211845D01*
X145990226Y-125188035D01*
X146037845Y-125164226D01*
X146156892Y-125164226D01*
X146204511Y-125188035D01*
X146228321Y-125211845D01*
X146252130Y-125259464D01*
X146252130Y-125378511D01*
X146228321Y-125426130D01*
X146204511Y-125449940D01*
X146156892Y-125473749D01*
X146037845Y-125473749D01*
X145990226Y-125449940D01*
X145966416Y-125426130D01*
X149754511Y-81723749D02*
X149754511Y-82128511D01*
X149778320Y-82176130D01*
X149802130Y-82199940D01*
X149849749Y-82223749D01*
X149944987Y-82223749D01*
X149992606Y-82199940D01*
X150016415Y-82176130D01*
X150040225Y-82128511D01*
X150040225Y-81723749D01*
X150492606Y-81890416D02*
X150492606Y-82223749D01*
X150373559Y-81699940D02*
X150254511Y-82057083D01*
X150564035Y-82057083D01*
X148454511Y-103873749D02*
X148454511Y-104278511D01*
X148478320Y-104326130D01*
X148502130Y-104349940D01*
X148549749Y-104373749D01*
X148644987Y-104373749D01*
X148692606Y-104349940D01*
X148716415Y-104326130D01*
X148740225Y-104278511D01*
X148740225Y-103873749D01*
X149216416Y-103873749D02*
X148978321Y-103873749D01*
X148954511Y-104111845D01*
X148978321Y-104088035D01*
X149025940Y-104064226D01*
X149144987Y-104064226D01*
X149192606Y-104088035D01*
X149216416Y-104111845D01*
X149240225Y-104159464D01*
X149240225Y-104278511D01*
X149216416Y-104326130D01*
X149192606Y-104349940D01*
X149144987Y-104373749D01*
X149025940Y-104373749D01*
X148978321Y-104349940D01*
X148954511Y-104326130D01*
X131880953Y-43226190D02*
X131880953Y-42726190D01*
X132071429Y-42726190D01*
X132119048Y-42750000D01*
X132142857Y-42773810D01*
X132166667Y-42821429D01*
X132166667Y-42892857D01*
X132142857Y-42940476D01*
X132119048Y-42964286D01*
X132071429Y-42988095D01*
X131880953Y-42988095D01*
X132452381Y-42940476D02*
X132404762Y-42916667D01*
X132380953Y-42892857D01*
X132357143Y-42845238D01*
X132357143Y-42821429D01*
X132380953Y-42773810D01*
X132404762Y-42750000D01*
X132452381Y-42726190D01*
X132547619Y-42726190D01*
X132595238Y-42750000D01*
X132619048Y-42773810D01*
X132642857Y-42821429D01*
X132642857Y-42845238D01*
X132619048Y-42892857D01*
X132595238Y-42916667D01*
X132547619Y-42940476D01*
X132452381Y-42940476D01*
X132404762Y-42964286D01*
X132380953Y-42988095D01*
X132357143Y-43035714D01*
X132357143Y-43130952D01*
X132380953Y-43178571D01*
X132404762Y-43202381D01*
X132452381Y-43226190D01*
X132547619Y-43226190D01*
X132595238Y-43202381D01*
X132619048Y-43178571D01*
X132642857Y-43130952D01*
X132642857Y-43035714D01*
X132619048Y-42988095D01*
X132595238Y-42964286D01*
X132547619Y-42940476D01*
M02*
