"Id";"Designator";"Package";"Quantity";"Designation";"Supplier and ref";
1;"C1,C3,C5,C6,C7,C8,C9,C12,C13,C14,C23,C24,C25,C26,C27,C28";"C_0805";16;"10μF";;;
2;"C2,C11";"CP_Elec_6.3x7.7";2;"22μF";;;
3;"C4,C20,C22";"C_0805";3;"1μF";;;
4;"C10,C34";"C_0805";2;"220pF";;;
5;"C15,C19";"C_0805";2;"1nF";;;
6;"C16,C21,C35";"C_0805";3;"100nF";;;
7;"C17,C18";"CP_Elec_6.3x7.7";2;"CP1";;;
8;"C29,C30,C36";"CP_Radial_D6.3mm_P2.50mm";3;"47μF";;;
9;"C33";"C_0805";1;"10nF";;;
10;"D2";"D_MiniMELF";1;"BAT42";;;
11;"D3";"LED_0805";1;"LED";;;
12;"L1,L2";"WE-HCF_SMD_High_Current_Inductor";2;"10μH";;;
13;"P1";"TerminalBlock_Phoenix_MKDS1.5-2pol";1;"J1-VPV";;;
14;"P2";"Pin_Header_Straight_1x04_Pitch2.54mm";1;"FTDI_HEADER";;;
15;"P4";"TerminalBlock_Phoenix_MKDS1.5-2pol";1;"J2-OUT";;;
16;"P8";"oled-096-i2c-4pin";1;"oled_i2c";;;
17;"P9";"Pin_Header_Straight_1x06_Pitch2.54mm";1;"BME280";;;
18;"Q1,Q2";"SO-8";2;"SI4154";;;
19;"R1,R2,R21,R23";"R_2816";4;"0.01";;;
20;"R3,R24";"R_0805";2;"2.7K";;;
21;"R4,R6,R11,R12,R14";"R_0805";5;"10k";;;
22;"R5,R25";"R_0805";2;"180K";;;
23;"R7,R26";"R_0805";2;"100";;;
24;"R8";"R_0805";1;"6.8K";;;
25;"R9,R16,R27,R30";"R_0805";4;"10K";;;
26;"R10";"R_0805";1;"3K";;;
27;"R13";"R_0805";1;"30K";;;
28;"R17";"R_0805";1;"100K";;;
29;"R19";"R_0805";1;"10";;;
30;"R20,R22";"R_0805";2;"1K";;;
31;"R28";"R_0805";1;"330";;;
32;"SW1,SW4";"SW_Micro_SPST";2;"SPDT";;;
33;"SW2,SW5";"SW_PUSH_6mm";2;"SW_PUSH";;;
34;"U1,U5";"SOT-223";2;"AMS1117";;;
35;"U2";"SOIC-8_3.9x4.9mm_Pitch1.27mm";1;"MCP6V02";;;
36;"U3";"ESP-32S";1;"ESP-32S";;;
37;"U4";"SOIC-8_3.9x4.9mm_Pitch1.27mm";1;"MCP14628";;;
38;",";"padhole";2;"padhole";;;
