(export (version D)
  (design
    (source /home/edge/Documentos/MPPT/New_MPPT_PCB/mppt_esp/mppt_microchip.sch)
    (date "Ter 19 Jun 2018 14:15:13 -03")
    (tool "Eeschema 4.0.7-e2-6376~58~ubuntu16.04.1")
    (sheet (number 1) (name /) (tstamps /)
      (title_block
        (title "MIMAS SPARTAN 6 FPGA MODULE")
        (company "Numato Lab")
        (rev)
        (date "3 dec 2013")
        (source mppt_microchip.sch)
        (comment (number 1) (value http://www.numato.com))
        (comment (number 2) (value "License : CC BY-SA"))
        (comment (number 3) (value ""))
        (comment (number 4) (value ""))))
    (sheet (number 2) (name "/Buck Converter/") (tstamps /5A2288BA/)
      (title_block
        (title)
        (company)
        (rev)
        (date)
        (source "Buck Converter.sch")
        (comment (number 1) (value ""))
        (comment (number 2) (value ""))
        (comment (number 3) (value ""))
        (comment (number 4) (value ""))))
    (sheet (number 3) (name /ESP/) (tstamps /5A1C78E5/)
      (title_block
        (title)
        (company)
        (rev)
        (date)
        (source ESP.sch)
        (comment (number 1) (value ""))
        (comment (number 2) (value ""))
        (comment (number 3) (value ""))
        (comment (number 4) (value "")))))
  (components
    (comp (ref P1)
      (value J1-VPV)
      (footprint TerminalBlock_Phoenix:TerminalBlock_Phoenix_MKDS1.5-2pol)
      (libsource (lib conn) (part CONN_01X02))
      (sheetpath (names /) (tstamps /))
      (tstamp 58A64A45))
    (comp (ref R1)
      (value 0.01)
      (footprint Resistors_SMD:R_2816)
      (libsource (lib device) (part R))
      (sheetpath (names /) (tstamps /))
      (tstamp 58A64DDF))
    (comp (ref R2)
      (value 0.01)
      (footprint Resistors_SMD:R_2816)
      (libsource (lib device) (part R))
      (sheetpath (names /) (tstamps /))
      (tstamp 58A64E40))
    (comp (ref R3)
      (value 2.7K)
      (footprint Resistors_SMD:R_0805)
      (libsource (lib device) (part R))
      (sheetpath (names /) (tstamps /))
      (tstamp 58A650ED))
    (comp (ref R5)
      (value 180K)
      (footprint Resistors_SMD:R_0805)
      (libsource (lib device) (part R))
      (sheetpath (names /) (tstamps /))
      (tstamp 58A65650))
    (comp (ref R7)
      (value 100)
      (footprint Resistors_SMD:R_0805)
      (libsource (lib device) (part R))
      (sheetpath (names /) (tstamps /))
      (tstamp 58A65B66))
    (comp (ref R10)
      (value 3K)
      (footprint Resistors_SMD:R_0805)
      (libsource (lib device) (part R))
      (sheetpath (names /) (tstamps /))
      (tstamp 58A67D5F))
    (comp (ref R13)
      (value 30K)
      (footprint Resistors_SMD:R_0805)
      (libsource (lib device) (part R))
      (sheetpath (names /) (tstamps /))
      (tstamp 58A684D4))
    (comp (ref R16)
      (value 10K)
      (footprint Resistors_SMD:R_0805)
      (libsource (lib device) (part R))
      (sheetpath (names /) (tstamps /))
      (tstamp 58A68882))
    (comp (ref R17)
      (value 100K)
      (footprint Resistors_SMD:R_0805)
      (libsource (lib device) (part R))
      (sheetpath (names /) (tstamps /))
      (tstamp 58A68895))
    (comp (ref R8)
      (value 6.8K)
      (footprint Resistors_SMD:R_0805)
      (libsource (lib device) (part R))
      (sheetpath (names /) (tstamps /))
      (tstamp 58ACAABF))
    (comp (ref R9)
      (value 10K)
      (footprint Resistors_SMD:R_0805)
      (libsource (lib device) (part R))
      (sheetpath (names /) (tstamps /))
      (tstamp 58ACB559))
    (comp (ref U2)
      (value MCP6V02)
      (footprint Housings_SOIC:SOIC-8_3.9x4.9mm_Pitch1.27mm)
      (libsource (lib KICAD-OPEN-LIBS) (part MCP6V02))
      (sheetpath (names /) (tstamps /))
      (tstamp 58A7C6A0))
    (comp (ref U1)
      (value AMS1117)
      (footprint TO_SOT_Packages_SMD:SOT-223)
      (libsource (lib AMS1117) (part AMS1117))
      (sheetpath (names /) (tstamps /))
      (tstamp 59D6FEE5))
    (comp (ref C2)
      (value 22μF)
      (footprint Capacitors_SMD:CP_Elec_6.3x7.7)
      (libsource (lib device) (part CP1))
      (sheetpath (names /) (tstamps /))
      (tstamp 59D71622))
    (comp (ref C11)
      (value 22μF)
      (footprint Capacitors_SMD:CP_Elec_6.3x7.7)
      (libsource (lib device) (part CP1))
      (sheetpath (names /) (tstamps /))
      (tstamp 59D72024))
    (comp (ref C1)
      (value 10μF)
      (footprint Capacitors_SMD:C_0805)
      (libsource (lib device) (part C))
      (sheetpath (names /) (tstamps /))
      (tstamp 5A1847D6))
    (comp (ref C3)
      (value 10μF)
      (footprint Capacitors_SMD:C_0805)
      (libsource (lib device) (part C))
      (sheetpath (names /) (tstamps /))
      (tstamp 5A18489D))
    (comp (ref C5)
      (value 10μF)
      (footprint Capacitors_SMD:C_0805)
      (libsource (lib device) (part C))
      (sheetpath (names /) (tstamps /))
      (tstamp 5A18495E))
    (comp (ref C6)
      (value 10μF)
      (footprint Capacitors_SMD:C_0805)
      (libsource (lib device) (part C))
      (sheetpath (names /) (tstamps /))
      (tstamp 5A184A21))
    (comp (ref C7)
      (value 10μF)
      (footprint Capacitors_SMD:C_0805)
      (libsource (lib device) (part C))
      (sheetpath (names /) (tstamps /))
      (tstamp 5A184AE6))
    (comp (ref C8)
      (value 10μF)
      (footprint Capacitors_SMD:C_0805)
      (libsource (lib device) (part C))
      (sheetpath (names /) (tstamps /))
      (tstamp 5A184BAD))
    (comp (ref C9)
      (value 10μF)
      (footprint Capacitors_SMD:C_0805)
      (libsource (lib device) (part C))
      (sheetpath (names /) (tstamps /))
      (tstamp 5A184C76))
    (comp (ref C12)
      (value 10μF)
      (footprint Capacitors_SMD:C_0805)
      (libsource (lib device) (part C))
      (sheetpath (names /) (tstamps /))
      (tstamp 5A184D41))
    (comp (ref C13)
      (value 10μF)
      (footprint Capacitors_SMD:C_0805)
      (libsource (lib device) (part C))
      (sheetpath (names /) (tstamps /))
      (tstamp 5A184E0E))
    (comp (ref C14)
      (value 10μF)
      (footprint Capacitors_SMD:C_0805)
      (libsource (lib device) (part C))
      (sheetpath (names /) (tstamps /))
      (tstamp 5A187206))
    (comp (ref C10)
      (value 220pF)
      (footprint Capacitors_SMD:C_0805)
      (libsource (lib device) (part C))
      (sheetpath (names /) (tstamps /))
      (tstamp 5A1888BA))
    (comp (ref C4)
      (value 1μF)
      (footprint Capacitors_SMD:C_0805)
      (libsource (lib device) (part C))
      (sheetpath (names /) (tstamps /))
      (tstamp 5A18902C))
    (comp (ref C15)
      (value 1nF)
      (footprint Capacitors_SMD:C_0805)
      (libsource (lib device) (part C))
      (sheetpath (names /) (tstamps /))
      (tstamp 5A18A165))
    (comp (ref C19)
      (value 1nF)
      (footprint Capacitors_SMD:C_0805)
      (libsource (lib device) (part C))
      (sheetpath (names /) (tstamps /))
      (tstamp 5A18E9A6))
    (comp (ref SW1)
      (value SPDT)
      (footprint Buttons_Switches_ThroughHole:SW_Micro_SPST)
      (libsource (lib PL_switches) (part SPDT))
      (sheetpath (names /) (tstamps /))
      (tstamp 59D86048))
    (comp (ref P8)
      (value oled_i2c)
      (footprint radiofm_library:oled-096-i2c-4pin_semsuporte)
      (libsource (lib conn) (part CONN_01X04))
      (sheetpath (names /) (tstamps /))
      (tstamp 5AC735B2))
    (comp (ref P2)
      (value FTDI_HEADER)
      (footprint Pin_Headers:Pin_Header_Straight_1x04_Pitch2.54mm)
      (libsource (lib conn) (part CONN_01X04))
      (sheetpath (names /) (tstamps /))
      (tstamp 5AC76CCD))
    (comp (ref P9)
      (value BME280)
      (footprint Pin_Headers:Pin_Header_Straight_1x06_Pitch2.54mm)
      (libsource (lib conn) (part CONN_01X06))
      (sheetpath (names /) (tstamps /))
      (tstamp 5AC86D62))
    (comp (ref C36)
      (value 47μF)
      (footprint Capacitors_THT:CP_Radial_D6.3mm_P2.50mm)
      (libsource (lib device) (part CP1))
      (sheetpath (names /) (tstamps /))
      (tstamp 5ACFD128))
    (comp (ref U5)
      (value AMS1117)
      (footprint TO_SOT_Packages_SMD:SOT-223)
      (libsource (lib AMS1117) (part AMS1117))
      (sheetpath (names /) (tstamps /))
      (tstamp 5AD03E01))
    (comp (ref C18)
      (value 22μF)
      (footprint Capacitors_SMD:CP_Elec_6.3x7.7)
      (libsource (lib device) (part CP1))
      (sheetpath (names /) (tstamps /))
      (tstamp 5AD040D6))
    (comp (ref C17)
      (value 22μF)
      (footprint Capacitors_SMD:CP_Elec_6.3x7.7)
      (libsource (lib device) (part CP1))
      (sheetpath (names /) (tstamps /))
      (tstamp 5AD041CB))
    (comp (ref R18)
      (value 10K)
      (footprint Resistors_SMD:R_0805)
      (libsource (lib device) (part R))
      (sheetpath (names /) (tstamps /))
      (tstamp 5AE75C79))
    (comp (ref R15)
      (value 10K)
      (footprint Resistors_SMD:R_0805)
      (libsource (lib device) (part R))
      (sheetpath (names /) (tstamps /))
      (tstamp 5AE75D4C))
    (comp (ref U4)
      (value MCP14628)
      (footprint Housings_SOIC:SOIC-8_3.9x4.9mm_Pitch1.27mm)
      (libsource (lib microchip) (part MCP14628))
      (sheetpath (names "/Buck Converter/") (tstamps /5A2288BA/))
      (tstamp 5A229222))
    (comp (ref R19)
      (value 10)
      (footprint Resistors_SMD:R_0805)
      (libsource (lib device) (part R))
      (sheetpath (names "/Buck Converter/") (tstamps /5A2288BA/))
      (tstamp 5A22922A))
    (comp (ref Q1)
      (value SI4154)
      (footprint Power_Integrations:SO-8)
      (libsource (lib transistors) (part IRF8721PBF-1))
      (sheetpath (names "/Buck Converter/") (tstamps /5A2288BA/))
      (tstamp 5A229231))
    (comp (ref D2)
      (value BAT42)
      (footprint Diodes_SMD:D_MiniMELF)
      (libsource (lib mppt_microchip-rescue) (part DIODE-RESCUE-mppt_microchip))
      (sheetpath (names "/Buck Converter/") (tstamps /5A2288BA/))
      (tstamp 5A229238))
    (comp (ref R20)
      (value 1K)
      (footprint Resistors_SMD:R_0805)
      (libsource (lib device) (part R))
      (sheetpath (names "/Buck Converter/") (tstamps /5A2288BA/))
      (tstamp 5A22923F))
    (comp (ref L1)
      (value 10μH)
      (footprint MPPT_Library:WE-HCF_SMD_High_Current_Inductor)
      (libsource (lib mppt_microchip-rescue) (part INDUCTOR-RESCUE-mppt_microchip))
      (sheetpath (names "/Buck Converter/") (tstamps /5A2288BA/))
      (tstamp 5A229246))
    (comp (ref Q2)
      (value SI4154)
      (footprint Power_Integrations:SO-8)
      (libsource (lib transistors) (part IRF8721PBF-1))
      (sheetpath (names "/Buck Converter/") (tstamps /5A2288BA/))
      (tstamp 5A22924D))
    (comp (ref L2)
      (value 10μH)
      (footprint MPPT_Library:WE-HCF_SMD_High_Current_Inductor)
      (libsource (lib mppt_microchip-rescue) (part INDUCTOR-RESCUE-mppt_microchip))
      (sheetpath (names "/Buck Converter/") (tstamps /5A2288BA/))
      (tstamp 5A229254))
    (comp (ref C29)
      (value 47μF)
      (footprint Capacitors_THT:CP_Radial_D6.3mm_P2.50mm)
      (libsource (lib device) (part CP1))
      (sheetpath (names "/Buck Converter/") (tstamps /5A2288BA/))
      (tstamp 5A22925B))
    (comp (ref C30)
      (value 47μF)
      (footprint Capacitors_THT:CP_Radial_D6.3mm_P2.50mm)
      (libsource (lib device) (part CP1))
      (sheetpath (names "/Buck Converter/") (tstamps /5A2288BA/))
      (tstamp 5A229262))
    (comp (ref P4)
      (value J2-OUT)
      (footprint TerminalBlock_Phoenix:TerminalBlock_Phoenix_MKDS1.5-2pol)
      (libsource (lib conn) (part CONN_01X02))
      (sheetpath (names "/Buck Converter/") (tstamps /5A2288BA/))
      (tstamp 5A22926A))
    (comp (ref R23)
      (value 0.01)
      (footprint Resistors_SMD:R_2816)
      (libsource (lib device) (part R))
      (sheetpath (names "/Buck Converter/") (tstamps /5A2288BA/))
      (tstamp 5A229271))
    (comp (ref R21)
      (value 0.01)
      (footprint Resistors_SMD:R_2816)
      (libsource (lib device) (part R))
      (sheetpath (names "/Buck Converter/") (tstamps /5A2288BA/))
      (tstamp 5A229278))
    (comp (ref R22)
      (value 1K)
      (footprint Resistors_SMD:R_0805)
      (libsource (lib device) (part R))
      (sheetpath (names "/Buck Converter/") (tstamps /5A2288BA/))
      (tstamp 5A22927F))
    (comp (ref R26)
      (value 100)
      (footprint Resistors_SMD:R_0805)
      (libsource (lib device) (part R))
      (sheetpath (names "/Buck Converter/") (tstamps /5A2288BA/))
      (tstamp 5A229286))
    (comp (ref R25)
      (value 180K)
      (footprint Resistors_SMD:R_0805)
      (libsource (lib device) (part R))
      (sheetpath (names "/Buck Converter/") (tstamps /5A2288BA/))
      (tstamp 5A22928E))
    (comp (ref R24)
      (value 2.7K)
      (footprint Resistors_SMD:R_0805)
      (libsource (lib device) (part R))
      (sheetpath (names "/Buck Converter/") (tstamps /5A2288BA/))
      (tstamp 5A229295))
    (comp (ref C21)
      (value 100nF)
      (footprint Capacitors_SMD:C_0805)
      (libsource (lib device) (part C))
      (sheetpath (names "/Buck Converter/") (tstamps /5A2288BA/))
      (tstamp 5A22932A))
    (comp (ref C20)
      (value 1μF)
      (footprint Capacitors_SMD:C_0805)
      (libsource (lib device) (part C))
      (sheetpath (names "/Buck Converter/") (tstamps /5A2288BA/))
      (tstamp 5A229331))
    (comp (ref C22)
      (value 1μF)
      (footprint Capacitors_SMD:C_0805)
      (libsource (lib device) (part C))
      (sheetpath (names "/Buck Converter/") (tstamps /5A2288BA/))
      (tstamp 5A22933A))
    (comp (ref C23)
      (value 10μF)
      (footprint Capacitors_SMD:C_0805)
      (libsource (lib device) (part C))
      (sheetpath (names "/Buck Converter/") (tstamps /5A2288BA/))
      (tstamp 5A229341))
    (comp (ref C24)
      (value 10μF)
      (footprint Capacitors_SMD:C_0805)
      (libsource (lib device) (part C))
      (sheetpath (names "/Buck Converter/") (tstamps /5A2288BA/))
      (tstamp 5A229348))
    (comp (ref C25)
      (value 10μF)
      (footprint Capacitors_SMD:C_0805)
      (libsource (lib device) (part C))
      (sheetpath (names "/Buck Converter/") (tstamps /5A2288BA/))
      (tstamp 5A22934F))
    (comp (ref C26)
      (value 10μF)
      (footprint Capacitors_SMD:C_0805)
      (libsource (lib device) (part C))
      (sheetpath (names "/Buck Converter/") (tstamps /5A2288BA/))
      (tstamp 5A229356))
    (comp (ref C27)
      (value 10μF)
      (footprint Capacitors_SMD:C_0805)
      (libsource (lib device) (part C))
      (sheetpath (names "/Buck Converter/") (tstamps /5A2288BA/))
      (tstamp 5A22935D))
    (comp (ref C28)
      (value 10μF)
      (footprint Capacitors_SMD:C_0805)
      (libsource (lib device) (part C))
      (sheetpath (names "/Buck Converter/") (tstamps /5A2288BA/))
      (tstamp 5A229364))
    (comp (ref C33)
      (value 10nF)
      (footprint Capacitors_SMD:C_0805)
      (libsource (lib device) (part C))
      (sheetpath (names "/Buck Converter/") (tstamps /5A2288BA/))
      (tstamp 5A22936B))
    (comp (ref C34)
      (value 220pF)
      (footprint Capacitors_SMD:C_0805)
      (libsource (lib device) (part C))
      (sheetpath (names "/Buck Converter/") (tstamps /5A2288BA/))
      (tstamp 5A229372))
    (comp (ref R11)
      (value 10k)
      (footprint Resistors_SMD:R_0805)
      (libsource (lib device) (part R))
      (sheetpath (names /ESP/) (tstamps /5A1C78E5/))
      (tstamp 5A1C7B99))
    (comp (ref R12)
      (value 10k)
      (footprint Resistors_SMD:R_0805)
      (libsource (lib device) (part R))
      (sheetpath (names /ESP/) (tstamps /5A1C78E5/))
      (tstamp 5A1C7BD3))
    (comp (ref R6)
      (value 10k)
      (footprint Resistors_SMD:R_0805)
      (libsource (lib device) (part R))
      (sheetpath (names /ESP/) (tstamps /5A1C78E5/))
      (tstamp 5A1C7BDC))
    (comp (ref SW2)
      (value SW_PUSH)
      (footprint Buttons_Switches_THT:SW_PUSH_6mm)
      (libsource (lib device) (part SW_PUSH))
      (sheetpath (names /ESP/) (tstamps /5A1C78E5/))
      (tstamp 5A1C7BED))
    (comp (ref R4)
      (value 10k)
      (footprint Resistors_SMD:R_0805)
      (libsource (lib device) (part R))
      (sheetpath (names /ESP/) (tstamps /5A1C78E5/))
      (tstamp 5A1C7BF9))
    (comp (ref C16)
      (value 100nF)
      (footprint Capacitors_SMD:C_0805)
      (libsource (lib device) (part C))
      (sheetpath (names /ESP/) (tstamps /5A1C78E5/))
      (tstamp 5A1C7C12))
    (comp (ref SW4)
      (value SPDT)
      (footprint Buttons_Switches_ThroughHole:SW_Micro_SPST)
      (libsource (lib PL_switches) (part SPDT))
      (sheetpath (names /ESP/) (tstamps /5A1C78E5/))
      (tstamp 5AC680E9))
    (comp (ref R27)
      (value 10K)
      (footprint Resistors_SMD:R_0805)
      (libsource (lib device) (part R))
      (sheetpath (names /ESP/) (tstamps /5A1C78E5/))
      (tstamp 5AC69FD9))
    (comp (ref R28)
      (value 330)
      (footprint Resistors_SMD:R_0805)
      (libsource (lib device) (part R))
      (sheetpath (names /ESP/) (tstamps /5A1C78E5/))
      (tstamp 5AC6B5FB))
    (comp (ref D3)
      (value LED)
      (footprint LEDs:LED_0805)
      (libsource (lib device) (part LED))
      (sheetpath (names /ESP/) (tstamps /5A1C78E5/))
      (tstamp 5AC6B6D4))
    (comp (ref SW5)
      (value SW_PUSH)
      (footprint Buttons_Switches_THT:SW_PUSH_6mm)
      (libsource (lib device) (part SW_PUSH))
      (sheetpath (names /ESP/) (tstamps /5A1C78E5/))
      (tstamp 5AC6C6B7))
    (comp (ref R30)
      (value 10K)
      (footprint Resistors_SMD:R_0805)
      (libsource (lib device) (part R))
      (sheetpath (names /ESP/) (tstamps /5A1C78E5/))
      (tstamp 5AC6C71A))
    (comp (ref C35)
      (value 100nF)
      (footprint Capacitors_SMD:C_0805)
      (libsource (lib device) (part C))
      (sheetpath (names /ESP/) (tstamps /5A1C78E5/))
      (tstamp 5AC6C81C))
    (comp (ref U3)
      (value ESP-32S)
      (footprint MPPT_Library:ESP32-WROOM)
      (libsource (lib mppt_microchip-cache) (part ESP-32S))
      (sheetpath (names /ESP/) (tstamps /5A1C78E5/))
      (tstamp 5ACE63C4))
    (comp (ref R14)
      (value 10k)
      (footprint Resistors_SMD:R_0805)
      (libsource (lib device) (part R))
      (sheetpath (names /ESP/) (tstamps /5A1C78E5/))
      (tstamp 5A1C7BB3)))
  (libparts
    (libpart (lib AMS1117) (part AMS1117)
      (fields
        (field (name Reference) U)
        (field (name Value) AMS1117))
      (pins
        (pin (num 1) (name GND/ADJ) (type input))
        (pin (num 2) (name Vout) (type input))
        (pin (num 3) (name Vin) (type input))))
    (libpart (lib device) (part C)
      (description "Unpolarized capacitor")
      (footprints
        (fp C?)
        (fp C_????_*)
        (fp C_????)
        (fp SMD*_c)
        (fp Capacitor*))
      (fields
        (field (name Reference) C)
        (field (name Value) C))
      (pins
        (pin (num 1) (name ~) (type passive))
        (pin (num 2) (name ~) (type passive))))
    (libpart (lib conn) (part CONN_01X02)
      (description "Connector 01x02")
      (footprints
        (fp Pin_Header_Straight_1X02)
        (fp Pin_Header_Angled_1X02)
        (fp Socket_Strip_Straight_1X02)
        (fp Socket_Strip_Angled_1X02))
      (fields
        (field (name Reference) P)
        (field (name Value) CONN_01X02))
      (pins
        (pin (num 1) (name P1) (type passive))
        (pin (num 2) (name P2) (type passive))))
    (libpart (lib conn) (part CONN_01X04)
      (description "Connector 01x04")
      (footprints
        (fp Pin_Header_Straight_1X04)
        (fp Pin_Header_Angled_1X04)
        (fp Socket_Strip_Straight_1X04)
        (fp Socket_Strip_Angled_1X04))
      (fields
        (field (name Reference) P)
        (field (name Value) CONN_01X04))
      (pins
        (pin (num 1) (name P1) (type passive))
        (pin (num 2) (name P2) (type passive))
        (pin (num 3) (name P3) (type passive))
        (pin (num 4) (name P4) (type passive))))
    (libpart (lib conn) (part CONN_01X06)
      (description "Connector 01x06")
      (footprints
        (fp Pin_Header_Straight_1X06)
        (fp Pin_Header_Angled_1X06)
        (fp Socket_Strip_Straight_1X06)
        (fp Socket_Strip_Angled_1X06))
      (fields
        (field (name Reference) P)
        (field (name Value) CONN_01X06))
      (pins
        (pin (num 1) (name P1) (type passive))
        (pin (num 2) (name P2) (type passive))
        (pin (num 3) (name P3) (type passive))
        (pin (num 4) (name P4) (type passive))
        (pin (num 5) (name P5) (type passive))
        (pin (num 6) (name P6) (type passive))))
    (libpart (lib device) (part CP1)
      (description "Polarised capacitor")
      (footprints
        (fp SMD*_Pol)
        (fp c_elec*)
        (fp C*elec)
        (fp TantalC*)
        (fp Elko*)
        (fp CP*))
      (fields
        (field (name Reference) C)
        (field (name Value) CP1))
      (pins
        (pin (num 1) (name ~) (type passive))
        (pin (num 2) (name ~) (type passive))))
    (libpart (lib mppt_microchip-rescue) (part DIODE-RESCUE-mppt_microchip)
      (footprints
        (fp DIODE_*_PL))
      (fields
        (field (name Reference) D)
        (field (name Value) DIODE-RESCUE-mppt_microchip))
      (pins
        (pin (num 1) (name A) (type passive))
        (pin (num 2) (name K) (type passive))))
    (libpart (lib mppt_microchip-cache) (part ESP-32S)
      (fields
        (field (name Reference) U)
        (field (name Value) ESP-32S)
        (field (name Footprint) ESP32-footprints-Lib:ESP-32S))
      (pins
        (pin (num 1) (name GND) (type power_in))
        (pin (num 2) (name 3V3) (type power_in))
        (pin (num 3) (name EN) (type input))
        (pin (num 4) (name SENSOR_VP) (type input))
        (pin (num 5) (name SENSOR_VN) (type input))
        (pin (num 6) (name IO34) (type BiDi))
        (pin (num 7) (name IO35) (type BiDi))
        (pin (num 8) (name IO32) (type BiDi))
        (pin (num 9) (name IO33) (type BiDi))
        (pin (num 10) (name IO25) (type BiDi))
        (pin (num 11) (name IO26) (type BiDi))
        (pin (num 12) (name IO27) (type BiDi))
        (pin (num 13) (name IO14) (type BiDi))
        (pin (num 14) (name IO12) (type BiDi))
        (pin (num 15) (name GND) (type power_in))
        (pin (num 16) (name IO13) (type BiDi))
        (pin (num 17) (name SD2) (type BiDi))
        (pin (num 18) (name SD3) (type BiDi))
        (pin (num 19) (name CMD) (type BiDi))
        (pin (num 20) (name CLK) (type input))
        (pin (num 21) (name SDO) (type BiDi))
        (pin (num 22) (name SD1) (type BiDi))
        (pin (num 23) (name IO15) (type BiDi))
        (pin (num 24) (name IO2) (type BiDi))
        (pin (num 25) (name IO0) (type BiDi))
        (pin (num 26) (name IO4) (type input))
        (pin (num 27) (name IO16) (type BiDi))
        (pin (num 28) (name IO17) (type BiDi))
        (pin (num 29) (name IO5) (type BiDi))
        (pin (num 30) (name IO18) (type input))
        (pin (num 31) (name IO19) (type BiDi))
        (pin (num 32) (name NC) (type NotConnected))
        (pin (num 33) (name IO21) (type BiDi))
        (pin (num 34) (name RXD0) (type BiDi))
        (pin (num 35) (name TXD0) (type BiDi))
        (pin (num 36) (name IO22) (type BiDi))
        (pin (num 37) (name IO23) (type BiDi))
        (pin (num 38) (name GND) (type power_in))
        (pin (num 39) (name GND-PAD) (type power_in))))
    (libpart (lib mppt_microchip-rescue) (part INDUCTOR-RESCUE-mppt_microchip)
      (fields
        (field (name Reference) L)
        (field (name Value) INDUCTOR-RESCUE-mppt_microchip))
      (pins
        (pin (num 1) (name 1) (type passive))
        (pin (num 2) (name 2) (type passive))))
    (libpart (lib transistors) (part IRF8721PBF-1)
      (description "30V Vds, 14A Id, HEXFET MOSFET, SO-8")
      (docs http://www.irf.com/product-info/datasheets/data/irf8721pbf-1.pdf)
      (footprints
        (fp SO*)
        (fp SOIC*))
      (fields
        (field (name Reference) Q)
        (field (name Value) IRF8721PBF-1)
        (field (name Footprint) SO-8))
      (pins
        (pin (num 1) (name S) (type passive))
        (pin (num 2) (name ~) (type passive))
        (pin (num 3) (name ~) (type passive))
        (pin (num 4) (name G) (type input))
        (pin (num 5) (name ~) (type passive))
        (pin (num 6) (name ~) (type passive))
        (pin (num 7) (name ~) (type passive))
        (pin (num 8) (name D) (type passive))))
    (libpart (lib device) (part LED)
      (footprints
        (fp LED-3MM)
        (fp LED-5MM)
        (fp LED-10MM)
        (fp LED-0603)
        (fp LED-0805)
        (fp LED-1206)
        (fp LEDV))
      (fields
        (field (name Reference) D)
        (field (name Value) LED))
      (pins
        (pin (num 1) (name K) (type passive))
        (pin (num 2) (name A) (type passive))))
    (libpart (lib microchip) (part MCP14628)
      (fields
        (field (name Reference) U)
        (field (name Value) MCP14628))
      (pins
        (pin (num 1) (name HIGHDR) (type passive))
        (pin (num 2) (name BOOT) (type passive))
        (pin (num 3) (name PWM) (type passive))
        (pin (num 4) (name GND) (type power_in))
        (pin (num 5) (name LOWDR) (type passive))
        (pin (num 6) (name VCC) (type power_in))
        (pin (num 7) (name FCCM) (type passive))
        (pin (num 8) (name PHASE) (type passive))))
    (libpart (lib KICAD-OPEN-LIBS) (part MCP6V02)
      (description "Precision Dual Amp-Op")
      (fields
        (field (name Reference) U)
        (field (name Value) MCP6V02))
      (pins
        (pin (num 1) (name ~) (type output))
        (pin (num 2) (name -) (type input))
        (pin (num 3) (name +) (type input))
        (pin (num 4) (name V-) (type power_in))
        (pin (num 5) (name +) (type input))
        (pin (num 6) (name -) (type input))
        (pin (num 7) (name ~) (type output))
        (pin (num 8) (name V+) (type power_in))))
    (libpart (lib device) (part R)
      (description Resistor)
      (footprints
        (fp R_*)
        (fp Resistor_*))
      (fields
        (field (name Reference) R)
        (field (name Value) R))
      (pins
        (pin (num 1) (name ~) (type passive))
        (pin (num 2) (name ~) (type passive))))
    (libpart (lib PL_switches) (part SPDT)
      (description SPDT)
      (footprints
        (fp M2012SS1W01))
      (fields
        (field (name Reference) SW)
        (field (name Value) SPDT))
      (pins
        (pin (num 1) (name ~) (type passive))
        (pin (num 2) (name ~) (type passive))
        (pin (num 3) (name ~) (type passive))))
    (libpart (lib device) (part SW_PUSH)
      (description Button)
      (fields
        (field (name Reference) SW)
        (field (name Value) SW_PUSH))
      (pins
        (pin (num 1) (name 1) (type passive))
        (pin (num 2) (name 2) (type passive)))))
  (libraries
    (library (logical mppt_microchip-cache)
      (uri /home/edge/Documentos/MPPT/New_MPPT_PCB/mppt_esp/mppt_microchip-cache.lib))
    (library (logical transistors)
      (uri /home/edge/Documentos/MPPT/New_MPPT_PCB/mppt_microchip/library/transistors.lib))
    (library (logical AMS1117)
      (uri /home/edge/Documentos/MPPT/New_MPPT_PCB/mppt_microchip/library/AMS1117.lib))
    (library (logical KICAD-OPEN-LIBS)
      (uri /home/edge/Documentos/MPPT/New_MPPT_PCB/mppt_microchip/library/KICAD-OPEN-LIBS.lib))
    (library (logical device)
      (uri /home/edge/Documentos/MPPT/New_MPPT_PCB/mppt_microchip/library/device.lib))
    (library (logical PL_switches)
      (uri /home/edge/Documentos/MPPT/New_MPPT_PCB/mppt_microchip/library/PL_switches.lib))
    (library (logical conn)
      (uri /home/edge/Documentos/MPPT/New_MPPT_PCB/mppt_microchip/library/conn.lib))
    (library (logical mppt_microchip-rescue)
      (uri /home/edge/Documentos/MPPT/New_MPPT_PCB/mppt_esp/mppt_microchip-rescue.lib))
    (library (logical microchip)
      (uri /home/edge/Documentos/MPPT/New_MPPT_PCB/mppt_microchip/library/microchip.lib)))
  (nets
    (net (code 1) (name "Net-(C10-Pad1)")
      (node (ref R5) (pin 2))
      (node (ref R3) (pin 1))
      (node (ref U2) (pin 2))
      (node (ref C10) (pin 1)))
    (net (code 2) (name "Net-(P1-Pad1)")
      (node (ref R1) (pin 2))
      (node (ref P1) (pin 1))
      (node (ref R2) (pin 2))
      (node (ref R3) (pin 2)))
    (net (code 3) (name GND)
      (node (ref C7) (pin 2))
      (node (ref C5) (pin 2))
      (node (ref C6) (pin 2))
      (node (ref C13) (pin 2))
      (node (ref C3) (pin 2))
      (node (ref C19) (pin 2))
      (node (ref C15) (pin 2))
      (node (ref C22) (pin 2))
      (node (ref C8) (pin 2))
      (node (ref C9) (pin 2))
      (node (ref C4) (pin 1))
      (node (ref SW4) (pin 3))
      (node (ref C14) (pin 2))
      (node (ref C12) (pin 2))
      (node (ref P2) (pin 1))
      (node (ref C35) (pin 1))
      (node (ref P9) (pin 2))
      (node (ref U3) (pin 1))
      (node (ref P8) (pin 1))
      (node (ref SW5) (pin 2))
      (node (ref C18) (pin 2))
      (node (ref C17) (pin 2))
      (node (ref U5) (pin 1))
      (node (ref C36) (pin 2))
      (node (ref D3) (pin 1))
      (node (ref R11) (pin 2))
      (node (ref R16) (pin 2))
      (node (ref R6) (pin 1))
      (node (ref R10) (pin 2))
      (node (ref SW2) (pin 2))
      (node (ref C16) (pin 1))
      (node (ref R2) (pin 1))
      (node (ref R1) (pin 1))
      (node (ref U1) (pin 1))
      (node (ref C1) (pin 2))
      (node (ref C11) (pin 2))
      (node (ref C2) (pin 2))
      (node (ref U2) (pin 3))
      (node (ref R9) (pin 2))
      (node (ref Q2) (pin 1))
      (node (ref L1) (pin 2))
      (node (ref Q2) (pin 2))
      (node (ref U4) (pin 7))
      (node (ref U4) (pin 4))
      (node (ref Q2) (pin 3))
      (node (ref U3) (pin 39))
      (node (ref U3) (pin 15))
      (node (ref C26) (pin 2))
      (node (ref C27) (pin 2))
      (node (ref C28) (pin 2))
      (node (ref C33) (pin 2))
      (node (ref U3) (pin 38))
      (node (ref R24) (pin 1))
      (node (ref C30) (pin 2))
      (node (ref R23) (pin 2))
      (node (ref C29) (pin 2))
      (node (ref R21) (pin 2)))
    (net (code 4) (name +28V)
      (node (ref Q1) (pin 5))
      (node (ref P1) (pin 2))
      (node (ref C8) (pin 1))
      (node (ref C6) (pin 1))
      (node (ref C5) (pin 1))
      (node (ref C36) (pin 1))
      (node (ref C14) (pin 1))
      (node (ref C13) (pin 1))
      (node (ref Q1) (pin 6))
      (node (ref Q1) (pin 7))
      (node (ref C3) (pin 1))
      (node (ref Q1) (pin 8))
      (node (ref C1) (pin 1))
      (node (ref C9) (pin 1))
      (node (ref C12) (pin 1))
      (node (ref R13) (pin 1))
      (node (ref C7) (pin 1)))
    (net (code 5) (name "Net-(C10-Pad2)")
      (node (ref R5) (pin 1))
      (node (ref C10) (pin 2))
      (node (ref R7) (pin 2))
      (node (ref U2) (pin 1)))
    (net (code 6) (name "Net-(P9-Pad6)")
      (node (ref R15) (pin 1))
      (node (ref P9) (pin 6)))
    (net (code 7) (name "Net-(P9-Pad5)")
      (node (ref P9) (pin 5))
      (node (ref R18) (pin 2)))
    (net (code 8) (name "/Buck Converter/NCO")
      (node (ref U4) (pin 3))
      (node (ref U3) (pin 31)))
    (net (code 9) (name +3V3)
      (node (ref R18) (pin 1))
      (node (ref P9) (pin 1))
      (node (ref R15) (pin 2))
      (node (ref R8) (pin 1))
      (node (ref U5) (pin 2))
      (node (ref C17) (pin 1))
      (node (ref P8) (pin 2))
      (node (ref SW1) (pin 1)))
    (net (code 10) (name ISENSE_IN)
      (node (ref U3) (pin 5))
      (node (ref R7) (pin 1)))
    (net (code 11) (name ISENSE_OUT)
      (node (ref U3) (pin 7))
      (node (ref R26) (pin 1)))
    (net (code 12) (name /ESP/SCL)
      (node (ref P9) (pin 3))
      (node (ref U3) (pin 36))
      (node (ref P8) (pin 3)))
    (net (code 13) (name /ESP/SDA)
      (node (ref U3) (pin 33))
      (node (ref P8) (pin 4))
      (node (ref P9) (pin 4)))
    (net (code 14) (name /ESP/VCC)
      (node (ref R12) (pin 1))
      (node (ref U3) (pin 2))
      (node (ref R27) (pin 1))
      (node (ref SW1) (pin 2))
      (node (ref R4) (pin 2))
      (node (ref R14) (pin 1))
      (node (ref R30) (pin 1)))
    (net (code 15) (name +1V8)
      (node (ref U2) (pin 8))
      (node (ref R8) (pin 2))
      (node (ref R9) (pin 1)))
    (net (code 16) (name "/Buck Converter/AMP_GND")
      (node (ref U2) (pin 4))
      (node (ref C4) (pin 2)))
    (net (code 17) (name +5V)
      (node (ref C11) (pin 1))
      (node (ref R19) (pin 2))
      (node (ref U1) (pin 2)))
    (net (code 18) (name /ESP/TXD)
      (node (ref P2) (pin 4))
      (node (ref U3) (pin 35)))
    (net (code 19) (name /ESP/RXD)
      (node (ref P2) (pin 3))
      (node (ref U3) (pin 34)))
    (net (code 20) (name "Net-(P2-Pad2)")
      (node (ref SW1) (pin 3))
      (node (ref P2) (pin 2)))
    (net (code 21) (name VSENSE_OUT)
      (node (ref U3) (pin 6))
      (node (ref R10) (pin 1))
      (node (ref R13) (pin 2))
      (node (ref C15) (pin 1)))
    (net (code 22) (name VSENSE_IN)
      (node (ref U3) (pin 4))
      (node (ref R16) (pin 1))
      (node (ref R17) (pin 2))
      (node (ref C19) (pin 1)))
    (net (code 23) (name "/Buck Converter/VOUT")
      (node (ref P4) (pin 1))
      (node (ref C29) (pin 1))
      (node (ref R17) (pin 1))
      (node (ref C2) (pin 1))
      (node (ref U1) (pin 3))
      (node (ref C18) (pin 1))
      (node (ref U5) (pin 3))
      (node (ref C30) (pin 1))
      (node (ref L2) (pin 2))
      (node (ref C26) (pin 1))
      (node (ref C27) (pin 1))
      (node (ref C28) (pin 1)))
    (net (code 24) (name "Net-(C35-Pad2)")
      (node (ref U3) (pin 8))
      (node (ref C35) (pin 2))
      (node (ref R30) (pin 2))
      (node (ref SW5) (pin 1)))
    (net (code 25) (name "Net-(U3-Pad11)")
      (node (ref U3) (pin 11)))
    (net (code 26) (name "Net-(U3-Pad13)")
      (node (ref U3) (pin 13)))
    (net (code 27) (name "Net-(U3-Pad32)")
      (node (ref U3) (pin 32)))
    (net (code 28) (name "Net-(U3-Pad22)")
      (node (ref U3) (pin 22)))
    (net (code 29) (name "Net-(U3-Pad12)")
      (node (ref U3) (pin 12)))
    (net (code 30) (name "Net-(U3-Pad21)")
      (node (ref U3) (pin 21)))
    (net (code 31) (name "Net-(U3-Pad30)")
      (node (ref U3) (pin 30)))
    (net (code 32) (name "Net-(U3-Pad20)")
      (node (ref U3) (pin 20)))
    (net (code 33) (name "Net-(U3-Pad10)")
      (node (ref U3) (pin 10)))
    (net (code 34) (name "Net-(U3-Pad9)")
      (node (ref U3) (pin 9)))
    (net (code 35) (name "Net-(C16-Pad2)")
      (node (ref C16) (pin 2))
      (node (ref U3) (pin 3))
      (node (ref R4) (pin 1))
      (node (ref SW2) (pin 1)))
    (net (code 36) (name "Net-(R6-Pad2)")
      (node (ref R6) (pin 2))
      (node (ref U3) (pin 14)))
    (net (code 37) (name "Net-(R12-Pad2)")
      (node (ref R12) (pin 2))
      (node (ref U3) (pin 23)))
    (net (code 38) (name "Net-(R11-Pad1)")
      (node (ref U3) (pin 24))
      (node (ref R11) (pin 1)))
    (net (code 39) (name "Net-(R28-Pad2)")
      (node (ref R28) (pin 2))
      (node (ref U3) (pin 16)))
    (net (code 40) (name "Net-(D3-Pad2)")
      (node (ref R28) (pin 1))
      (node (ref D3) (pin 2)))
    (net (code 41) (name "Net-(SW4-Pad1)")
      (node (ref SW4) (pin 1)))
    (net (code 42) (name "Net-(U3-Pad19)")
      (node (ref U3) (pin 19)))
    (net (code 43) (name "Net-(U3-Pad18)")
      (node (ref U3) (pin 18)))
    (net (code 44) (name "Net-(U3-Pad17)")
      (node (ref U3) (pin 17)))
    (net (code 45) (name "Net-(U3-Pad37)")
      (node (ref U3) (pin 37)))
    (net (code 46) (name "Net-(U3-Pad28)")
      (node (ref U3) (pin 28)))
    (net (code 47) (name "Net-(U3-Pad27)")
      (node (ref U3) (pin 27)))
    (net (code 48) (name "Net-(U3-Pad26)")
      (node (ref U3) (pin 26)))
    (net (code 49) (name "Net-(R27-Pad2)")
      (node (ref U3) (pin 29))
      (node (ref R27) (pin 2)))
    (net (code 50) (name "Net-(R14-Pad2)")
      (node (ref U3) (pin 25))
      (node (ref SW4) (pin 2))
      (node (ref R14) (pin 2)))
    (net (code 51) (name "Net-(C23-Pad1)")
      (node (ref C23) (pin 1))
      (node (ref C25) (pin 1))
      (node (ref C24) (pin 1))
      (node (ref Q1) (pin 2))
      (node (ref Q1) (pin 1))
      (node (ref Q1) (pin 3))
      (node (ref D2) (pin 1))
      (node (ref R20) (pin 1))
      (node (ref L1) (pin 1)))
    (net (code 52) (name "Net-(C20-Pad2)")
      (node (ref C20) (pin 2))
      (node (ref U4) (pin 2)))
    (net (code 53) (name "Net-(Q2-Pad4)")
      (node (ref U4) (pin 5))
      (node (ref Q2) (pin 4)))
    (net (code 54) (name "Net-(C22-Pad1)")
      (node (ref C22) (pin 1))
      (node (ref R19) (pin 1))
      (node (ref U4) (pin 6)))
    (net (code 55) (name "Net-(C34-Pad2)")
      (node (ref R25) (pin 2))
      (node (ref C34) (pin 2))
      (node (ref R24) (pin 2))
      (node (ref U2) (pin 6)))
    (net (code 56) (name "Net-(C34-Pad1)")
      (node (ref C34) (pin 1))
      (node (ref R25) (pin 1))
      (node (ref R26) (pin 2))
      (node (ref U2) (pin 7)))
    (net (code 57) (name "Net-(P4-Pad2)")
      (node (ref P4) (pin 2))
      (node (ref R23) (pin 1))
      (node (ref R21) (pin 1))
      (node (ref R22) (pin 2)))
    (net (code 58) (name "Net-(C33-Pad1)")
      (node (ref R22) (pin 1))
      (node (ref C33) (pin 1))
      (node (ref U2) (pin 5)))
    (net (code 59) (name "Net-(C21-Pad1)")
      (node (ref C21) (pin 1))
      (node (ref Q1) (pin 4))
      (node (ref D2) (pin 2))
      (node (ref R20) (pin 2)))
    (net (code 60) (name "Net-(C21-Pad2)")
      (node (ref C21) (pin 2))
      (node (ref U4) (pin 1)))
    (net (code 61) (name "Net-(C20-Pad1)")
      (node (ref C25) (pin 2))
      (node (ref C20) (pin 1))
      (node (ref C24) (pin 2))
      (node (ref Q2) (pin 7))
      (node (ref Q2) (pin 8))
      (node (ref L2) (pin 1))
      (node (ref C23) (pin 2))
      (node (ref U4) (pin 8))
      (node (ref Q2) (pin 6))
      (node (ref Q2) (pin 5)))))