EESchema Schematic File Version 4
LIBS:mppt_microchip-cache
EELAYER 30 0
EELAYER END
$Descr A4 11693 8268
encoding utf-8
Sheet 4 5
Title ""
Date ""
Rev ""
Comp ""
Comment1 ""
Comment2 ""
Comment3 ""
Comment4 ""
$EndDescr
$Comp
L microchip:MCP14628 U4
U 1 1 5A229222
P 500 4550
F 0 "U4" H 2400 5700 60  0000 C CNN
F 1 "MCP14628" H 2450 6050 60  0000 C CNN
F 2 "Housings_SOIC:SOIC-8_3.9x4.9mm_Pitch1.27mm" H 2400 5700 60  0001 C CNN
F 3 "" H 2400 5700 60  0000 C CNN
	1    500  4550
	1    0    0    -1  
$EndComp
$Comp
L device:R R19
U 1 1 5A22922A
P 2650 3900
F 0 "R19" V 2730 3900 50  0000 C CNN
F 1 "10" V 2650 3900 50  0000 C CNN
F 2 "Resistors_SMD:R_0805" V 2580 3900 50  0001 C CNN
F 3 "" H 2650 3900 50  0000 C CNN
	1    2650 3900
	0    1    1    0   
$EndComp
$Comp
L transistors:IRF8721PBF-1 Q1
U 1 1 5A229231
P 4000 3450
F 0 "Q1" H 4350 3550 50  0000 L CNN
F 1 "SI4154" H 4350 3450 50  0000 L CNN
F 2 "Power_Integrations:SO-8" H 4350 3350 50  0000 L CNN
F 3 "" H 3900 3450 50  0000 L CNN
	1    4000 3450
	0    -1   -1   0   
$EndComp
$Comp
L mppt_microchip-rescue:DIODE-RESCUE-mppt_microchip D2
U 1 1 5A229238
P 3950 2100
F 0 "D2" H 3950 2200 40  0000 C CNN
F 1 "BAT42" H 3950 2000 40  0000 C CNN
F 2 "Diodes_SMD:D_MiniMELF" H 3950 2100 60  0001 C CNN
F 3 "" H 3950 2100 60  0000 C CNN
	1    3950 2100
	-1   0    0    1   
$EndComp
$Comp
L device:R R20
U 1 1 5A22923F
P 3950 1850
F 0 "R20" V 4030 1850 50  0000 C CNN
F 1 "1K" V 3950 1850 50  0000 C CNN
F 2 "Resistors_SMD:R_0805" V 3880 1850 50  0001 C CNN
F 3 "" H 3950 1850 50  0000 C CNN
	1    3950 1850
	0    1    1    0   
$EndComp
$Comp
L mppt_microchip-rescue:INDUCTOR-RESCUE-mppt_microchip L1
U 1 1 5A229246
P 4300 3900
F 0 "L1" V 4250 3900 50  0000 C CNN
F 1 "10μH" V 4400 3900 50  0000 C CNN
F 2 "MPPT_Library:WE-HCF_SMD_High_Current_Inductor" H 4300 3900 50  0001 C CNN
F 3 "" H 4300 3900 50  0000 C CNN
	1    4300 3900
	1    0    0    -1  
$EndComp
$Comp
L transistors:IRF8721PBF-1 Q2
U 1 1 5A22924D
P 5100 3550
F 0 "Q2" H 5450 3650 50  0000 L CNN
F 1 "SI4154" H 5450 3550 50  0000 L CNN
F 2 "Power_Integrations:SO-8" H 5450 3450 50  0000 L CNN
F 3 "" H 5000 3550 50  0000 L CNN
	1    5100 3550
	0    -1   -1   0   
$EndComp
$Comp
L mppt_microchip-rescue:INDUCTOR-RESCUE-mppt_microchip L2
U 1 1 5A229254
P 5350 2650
F 0 "L2" V 5300 2650 50  0000 C CNN
F 1 "10μH" V 5450 2650 50  0000 C CNN
F 2 "MPPT_Library:WE-HCF_SMD_High_Current_Inductor" H 5350 2650 50  0001 C CNN
F 3 "" H 5350 2650 50  0000 C CNN
	1    5350 2650
	0    -1   -1   0   
$EndComp
$Comp
L device:CP1 C29
U 1 1 5A22925B
P 6800 2900
F 0 "C29" H 6825 3000 50  0000 L CNN
F 1 "47μF" H 6825 2800 50  0000 L CNN
F 2 "Capacitors_THT:CP_Radial_D6.3mm_P2.50mm" H 6800 2900 50  0001 C CNN
F 3 "" H 6800 2900 50  0000 C CNN
	1    6800 2900
	1    0    0    -1  
$EndComp
$Comp
L device:CP1 C30
U 1 1 5A229262
P 7150 2900
F 0 "C30" H 7175 3000 50  0000 L CNN
F 1 "47μF" H 7175 2800 50  0000 L CNN
F 2 "Capacitors_THT:CP_Radial_D6.3mm_P2.50mm" H 7150 2900 50  0001 C CNN
F 3 "" H 7150 2900 50  0000 C CNN
	1    7150 2900
	1    0    0    -1  
$EndComp
$Comp
L conn:CONN_01X02 P4
U 1 1 5A22926A
P 7950 2700
F 0 "P4" H 7950 2850 50  0000 C CNN
F 1 "J2-OUT" V 8050 2700 50  0000 C CNN
F 2 "TerminalBlock_Phoenix:TerminalBlock_Phoenix_MKDS1.5-2pol" H 7950 2700 50  0001 C CNN
F 3 "" H 7950 2700 50  0000 C CNN
	1    7950 2700
	1    0    0    -1  
$EndComp
$Comp
L device:R R23
U 1 1 5A229271
P 8000 3300
F 0 "R23" V 8080 3300 50  0000 C CNN
F 1 "0.01" V 8000 3300 50  0000 C CNN
F 2 "Resistors_SMD:R_2816" V 7930 3300 50  0001 C CNN
F 3 "" H 8000 3300 50  0000 C CNN
	1    8000 3300
	1    0    0    -1  
$EndComp
$Comp
L device:R R21
U 1 1 5A229278
P 7650 3300
F 0 "R21" V 7730 3300 50  0000 C CNN
F 1 "0.01" V 7650 3300 50  0000 C CNN
F 2 "Resistors_SMD:R_2816" V 7580 3300 50  0001 C CNN
F 3 "" H 7650 3300 50  0000 C CNN
	1    7650 3300
	1    0    0    -1  
$EndComp
$Comp
L device:R R22
U 1 1 5A22927F
P 7850 4100
F 0 "R22" V 7930 4100 50  0000 C CNN
F 1 "1K" V 7850 4100 50  0000 C CNN
F 2 "Resistors_SMD:R_0805" V 7780 4100 50  0001 C CNN
F 3 "" H 7850 4100 50  0000 C CNN
	1    7850 4100
	0    1    1    0   
$EndComp
$Comp
L device:R R26
U 1 1 5A229286
P 9750 4150
F 0 "R26" V 9830 4150 50  0000 C CNN
F 1 "100" V 9750 4150 50  0000 C CNN
F 2 "Resistors_SMD:R_0805" V 9680 4150 50  0001 C CNN
F 3 "" H 9750 4150 50  0000 C CNN
	1    9750 4150
	0    1    1    0   
$EndComp
$Comp
L device:R R25
U 1 1 5A22928E
P 9100 5000
F 0 "R25" V 9180 5000 50  0000 C CNN
F 1 "180K" V 9100 5000 50  0000 C CNN
F 2 "Resistors_SMD:R_0805" V 9030 5000 50  0001 C CNN
F 3 "" H 9100 5000 50  0000 C CNN
	1    9100 5000
	0    1    1    0   
$EndComp
$Comp
L device:R R24
U 1 1 5A229295
P 8500 4550
F 0 "R24" V 8580 4550 50  0000 C CNN
F 1 "2.7K" V 8500 4550 50  0000 C CNN
F 2 "Resistors_SMD:R_0805" V 8430 4550 50  0001 C CNN
F 3 "" H 8500 4550 50  0000 C CNN
	1    8500 4550
	-1   0    0    1   
$EndComp
$Comp
L power1:PWR_FLAG #FLG053
U 1 1 5A22929D
P 3100 3750
F 0 "#FLG053" H 3100 3845 50  0001 C CNN
F 1 "PWR_FLAG" H 3100 3930 50  0000 C CNN
F 2 "" H 3100 3750 50  0000 C CNN
F 3 "" H 3100 3750 50  0000 C CNN
	1    3100 3750
	0    1    1    0   
$EndComp
$Comp
L KICAD-OPEN-LIBS:MCP6V02 U2
U 2 1 5A2292A3
P 9100 4150
F 0 "U2" H 9250 4350 40  0000 C CNN
F 1 "MCP6V02" H 9300 3950 40  0000 C CNN
F 2 "Housings_SOIC:SOIC-8_3.9x4.9mm_Pitch1.27mm" H 9150 4150 60  0001 C CNN
F 3 "" H 9150 4150 60  0000 C CNN
	2    9100 4150
	1    0    0    -1  
$EndComp
Wire Wire Line
	1850 3500 1750 3500
Wire Wire Line
	1750 3500 1750 3600
Wire Wire Line
	1850 3400 1750 3400
Wire Wire Line
	3000 3300 3100 3300
Wire Wire Line
	3000 3400 3100 3400
Wire Wire Line
	3100 4300 3100 4400
Wire Wire Line
	3100 3400 3100 3750
Wire Wire Line
	3100 3900 2800 3900
Connection ~ 3100 3900
Wire Wire Line
	2500 3900 2400 3900
Wire Wire Line
	1750 3200 1850 3200
Wire Wire Line
	1750 2650 1750 3200
Wire Wire Line
	3700 3450 3800 3450
Wire Wire Line
	3700 3050 3700 3150
Wire Wire Line
	3700 3350 3800 3350
Wire Wire Line
	3800 3250 3700 3250
Wire Wire Line
	3800 3150 3700 3150
Connection ~ 3700 3350
Connection ~ 3700 3250
Connection ~ 3700 3150
Wire Wire Line
	3500 2650 3500 3850
Wire Wire Line
	3500 3850 3600 3850
Wire Wire Line
	4050 3850 4050 3750
Wire Wire Line
	1650 3300 1850 3300
Wire Wire Line
	1650 2350 1650 3300
Wire Wire Line
	2300 2350 1650 2350
Connection ~ 3600 3850
Connection ~ 3600 2100
Wire Wire Line
	3600 1850 3600 2100
Wire Wire Line
	4300 3450 4200 3450
Wire Wire Line
	4300 1850 4300 2100
Wire Wire Line
	4300 3250 4200 3250
Wire Wire Line
	4200 3350 4300 3350
Connection ~ 4300 3350
Wire Wire Line
	2600 2350 3100 2350
Wire Wire Line
	4700 2200 4800 2200
Wire Wire Line
	4800 2200 4800 2350
Wire Wire Line
	4800 2650 4700 2650
Connection ~ 4800 2350
Connection ~ 4300 3250
Wire Wire Line
	4150 2100 4300 2100
Connection ~ 4300 2100
Wire Wire Line
	4300 1850 4100 1850
Wire Wire Line
	3800 1850 3600 1850
Wire Wire Line
	3600 2100 3750 2100
Wire Wire Line
	4400 2200 4300 2200
Connection ~ 4300 2200
Wire Wire Line
	4400 2650 4300 2650
Connection ~ 4300 2650
Connection ~ 4300 3450
Wire Wire Line
	4300 4300 4300 4200
Wire Wire Line
	3000 3200 3100 3200
Wire Wire Line
	3100 3200 3100 2350
Connection ~ 3100 2350
Wire Wire Line
	4700 3050 4800 3050
Connection ~ 4800 2650
Wire Wire Line
	4400 3050 4300 3050
Connection ~ 4300 3050
Wire Wire Line
	3000 3500 3350 3500
Wire Wire Line
	3350 3500 3350 4250
Wire Wire Line
	3350 4250 5150 4250
Wire Wire Line
	5150 4250 5150 3850
Wire Wire Line
	5300 3350 5400 3350
Wire Wire Line
	5400 3350 5400 3450
Wire Wire Line
	5400 3550 5300 3550
Wire Wire Line
	5300 3450 5400 3450
Connection ~ 5400 3450
Connection ~ 5400 3550
Wire Wire Line
	4800 3550 4900 3550
Wire Wire Line
	4800 3250 4900 3250
Wire Wire Line
	4900 3350 4800 3350
Connection ~ 4800 3350
Wire Wire Line
	4900 3450 4800 3450
Connection ~ 4800 3450
Connection ~ 4800 3050
Connection ~ 4800 3250
Wire Wire Line
	4900 3050 4900 2650
Wire Wire Line
	4900 2650 5050 2650
Wire Wire Line
	5650 2650 5750 2650
Wire Wire Line
	5750 2650 5750 2750
Wire Wire Line
	5750 3050 5750 3150
Wire Wire Line
	6100 2650 6100 2750
Wire Wire Line
	6100 3050 6100 3150
Wire Wire Line
	6450 2650 6450 2750
Wire Wire Line
	6450 3050 6450 3150
Connection ~ 5750 2650
Connection ~ 6100 2650
Wire Wire Line
	6800 2650 6800 2750
Wire Wire Line
	6800 3050 6800 3150
Wire Wire Line
	7150 2650 7150 2750
Wire Wire Line
	7150 3050 7150 3150
Connection ~ 6450 2650
Connection ~ 6800 2650
Connection ~ 7150 2650
Wire Wire Line
	7450 2650 7450 2550
Connection ~ 7450 2650
Wire Wire Line
	7750 2750 7650 2750
Wire Wire Line
	7650 2750 7650 2950
Wire Wire Line
	7400 2950 7650 2950
Wire Wire Line
	8000 2950 8000 3150
Connection ~ 7650 2950
Wire Wire Line
	7650 3450 7650 3650
Wire Wire Line
	7650 3650 8000 3650
Wire Wire Line
	8000 3650 8000 3450
Connection ~ 7650 3650
Wire Wire Line
	7400 4100 7700 4100
Wire Wire Line
	8000 4100 8150 4100
Wire Wire Line
	8150 4100 8150 4450
Wire Wire Line
	8150 4850 8150 4750
Wire Wire Line
	9900 4150 10000 4150
Wire Wire Line
	9450 4150 9550 4150
Wire Wire Line
	9550 4150 9550 5000
Connection ~ 9550 4150
Wire Wire Line
	8700 4200 8700 5000
Wire Wire Line
	8500 4200 8700 4200
Wire Wire Line
	8700 5000 8950 5000
Wire Wire Line
	9550 5000 9250 5000
Connection ~ 8700 5000
Wire Wire Line
	8700 5300 8950 5300
Wire Wire Line
	9550 5300 9250 5300
Connection ~ 9550 5000
Wire Wire Line
	8500 4200 8500 4400
Wire Wire Line
	8500 4700 8500 4850
Wire Wire Line
	7400 2950 7400 4100
Connection ~ 8700 4200
Connection ~ 8150 4100
Wire Wire Line
	9150 4400 9150 4450
Connection ~ 3100 3750
$Comp
L device:C C21
U 1 1 5A22932A
P 2450 2650
F 0 "C21" H 2475 2750 50  0000 L CNN
F 1 "100nF" H 2475 2550 50  0000 L CNN
F 2 "Capacitors_SMD:C_0805" H 2488 2500 50  0001 C CNN
F 3 "" H 2450 2650 50  0001 C CNN
	1    2450 2650
	0    1    1    0   
$EndComp
$Comp
L device:C C20
U 1 1 5A229331
P 2450 2350
F 0 "C20" H 2475 2450 50  0000 L CNN
F 1 "1μF" H 2475 2250 50  0000 L CNN
F 2 "Capacitors_SMD:C_0805" H 2488 2200 50  0001 C CNN
F 3 "" H 2450 2350 50  0001 C CNN
	1    2450 2350
	0    1    1    0   
$EndComp
Wire Wire Line
	1750 2650 2300 2650
Wire Wire Line
	2600 2650 3500 2650
$Comp
L device:C C22
U 1 1 5A22933A
P 3100 4150
F 0 "C22" H 3125 4250 50  0000 L CNN
F 1 "1μF" H 3125 4050 50  0000 L CNN
F 2 "Capacitors_SMD:C_0805" H 3138 4000 50  0001 C CNN
F 3 "" H 3100 4150 50  0001 C CNN
	1    3100 4150
	1    0    0    -1  
$EndComp
$Comp
L device:C C23
U 1 1 5A229341
P 4550 2200
F 0 "C23" H 4575 2300 50  0000 L CNN
F 1 "10μF" H 4575 2100 50  0000 L CNN
F 2 "Capacitors_SMD:C_0805" H 4588 2050 50  0001 C CNN
F 3 "" H 4550 2200 50  0001 C CNN
	1    4550 2200
	0    -1   -1   0   
$EndComp
$Comp
L device:C C24
U 1 1 5A229348
P 4550 2650
F 0 "C24" H 4575 2750 50  0000 L CNN
F 1 "10μF" H 4575 2550 50  0000 L CNN
F 2 "Capacitors_SMD:C_0805" H 4588 2500 50  0001 C CNN
F 3 "" H 4550 2650 50  0001 C CNN
	1    4550 2650
	0    -1   -1   0   
$EndComp
$Comp
L device:C C25
U 1 1 5A22934F
P 4550 3050
F 0 "C25" H 4575 3150 50  0000 L CNN
F 1 "10μF" H 4575 2950 50  0000 L CNN
F 2 "Capacitors_SMD:C_0805" H 4588 2900 50  0001 C CNN
F 3 "" H 4550 3050 50  0001 C CNN
	1    4550 3050
	0    -1   -1   0   
$EndComp
$Comp
L device:C C26
U 1 1 5A229356
P 5750 2900
F 0 "C26" H 5775 3000 50  0000 L CNN
F 1 "10μF" H 5775 2800 50  0000 L CNN
F 2 "Capacitors_SMD:C_0805" H 5788 2750 50  0001 C CNN
F 3 "" H 5750 2900 50  0001 C CNN
	1    5750 2900
	1    0    0    -1  
$EndComp
$Comp
L device:C C27
U 1 1 5A22935D
P 6100 2900
F 0 "C27" H 6125 3000 50  0000 L CNN
F 1 "10μF" H 6125 2800 50  0000 L CNN
F 2 "Capacitors_SMD:C_0805" H 6138 2750 50  0001 C CNN
F 3 "" H 6100 2900 50  0001 C CNN
	1    6100 2900
	1    0    0    -1  
$EndComp
$Comp
L device:C C28
U 1 1 5A229364
P 6450 2900
F 0 "C28" H 6475 3000 50  0000 L CNN
F 1 "10μF" H 6475 2800 50  0000 L CNN
F 2 "Capacitors_SMD:C_0805" H 6488 2750 50  0001 C CNN
F 3 "" H 6450 2900 50  0001 C CNN
	1    6450 2900
	1    0    0    -1  
$EndComp
$Comp
L device:C C33
U 1 1 5A22936B
P 8150 4600
F 0 "C33" H 8175 4700 50  0000 L CNN
F 1 "10nF" H 8175 4500 50  0000 L CNN
F 2 "Capacitors_SMD:C_0805" H 8188 4450 50  0001 C CNN
F 3 "" H 8150 4600 50  0001 C CNN
	1    8150 4600
	1    0    0    -1  
$EndComp
$Comp
L device:C C34
U 1 1 5A229372
P 9100 5300
F 0 "C34" H 9125 5400 50  0000 L CNN
F 1 "220pF" H 9125 5200 50  0000 L CNN
F 2 "Capacitors_SMD:C_0805" H 9138 5150 50  0001 C CNN
F 3 "" H 9100 5300 50  0001 C CNN
	1    9100 5300
	0    1    1    0   
$EndComp
$Comp
L power1:GND #PWR054
U 1 1 5A229379
P 1750 3600
F 0 "#PWR054" H 1750 3350 50  0001 C CNN
F 1 "GND" H 1750 3450 50  0000 C CNN
F 2 "" H 1750 3600 50  0001 C CNN
F 3 "" H 1750 3600 50  0001 C CNN
	1    1750 3600
	1    0    0    -1  
$EndComp
$Comp
L power1:GND #PWR055
U 1 1 5A22937F
P 3100 4400
F 0 "#PWR055" H 3100 4150 50  0001 C CNN
F 1 "GND" H 3100 4250 50  0000 C CNN
F 2 "" H 3100 4400 50  0001 C CNN
F 3 "" H 3100 4400 50  0001 C CNN
	1    3100 4400
	1    0    0    -1  
$EndComp
$Comp
L power1:GND #PWR056
U 1 1 5A229385
P 4300 4300
F 0 "#PWR056" H 4300 4050 50  0001 C CNN
F 1 "GND" H 4300 4150 50  0000 C CNN
F 2 "" H 4300 4300 50  0001 C CNN
F 3 "" H 4300 4300 50  0001 C CNN
	1    4300 4300
	1    0    0    -1  
$EndComp
$Comp
L power1:GND #PWR057
U 1 1 5A22938B
P 5400 3650
F 0 "#PWR057" H 5400 3400 50  0001 C CNN
F 1 "GND" H 5400 3500 50  0000 C CNN
F 2 "" H 5400 3650 50  0001 C CNN
F 3 "" H 5400 3650 50  0001 C CNN
	1    5400 3650
	1    0    0    -1  
$EndComp
$Comp
L power1:GND #PWR058
U 1 1 5A229391
P 3100 3300
F 0 "#PWR058" H 3100 3050 50  0001 C CNN
F 1 "GND" H 3100 3150 50  0000 C CNN
F 2 "" H 3100 3300 50  0001 C CNN
F 3 "" H 3100 3300 50  0001 C CNN
	1    3100 3300
	0    -1   -1   0   
$EndComp
$Comp
L power1:GND #PWR059
U 1 1 5A229397
P 5750 3150
F 0 "#PWR059" H 5750 2900 50  0001 C CNN
F 1 "GND" H 5750 3000 50  0000 C CNN
F 2 "" H 5750 3150 50  0001 C CNN
F 3 "" H 5750 3150 50  0001 C CNN
	1    5750 3150
	1    0    0    -1  
$EndComp
$Comp
L power1:GND #PWR060
U 1 1 5A22939D
P 6100 3150
F 0 "#PWR060" H 6100 2900 50  0001 C CNN
F 1 "GND" H 6100 3000 50  0000 C CNN
F 2 "" H 6100 3150 50  0001 C CNN
F 3 "" H 6100 3150 50  0001 C CNN
	1    6100 3150
	1    0    0    -1  
$EndComp
$Comp
L power1:GND #PWR061
U 1 1 5A2293A3
P 6450 3150
F 0 "#PWR061" H 6450 2900 50  0001 C CNN
F 1 "GND" H 6450 3000 50  0000 C CNN
F 2 "" H 6450 3150 50  0001 C CNN
F 3 "" H 6450 3150 50  0001 C CNN
	1    6450 3150
	1    0    0    -1  
$EndComp
$Comp
L power1:GND #PWR062
U 1 1 5A2293A9
P 6800 3150
F 0 "#PWR062" H 6800 2900 50  0001 C CNN
F 1 "GND" H 6800 3000 50  0000 C CNN
F 2 "" H 6800 3150 50  0001 C CNN
F 3 "" H 6800 3150 50  0001 C CNN
	1    6800 3150
	1    0    0    -1  
$EndComp
$Comp
L power1:GND #PWR063
U 1 1 5A2293AF
P 7150 3150
F 0 "#PWR063" H 7150 2900 50  0001 C CNN
F 1 "GND" H 7150 3000 50  0000 C CNN
F 2 "" H 7150 3150 50  0001 C CNN
F 3 "" H 7150 3150 50  0001 C CNN
	1    7150 3150
	1    0    0    -1  
$EndComp
$Comp
L power1:GND #PWR064
U 1 1 5A2293B5
P 7650 3750
F 0 "#PWR064" H 7650 3500 50  0001 C CNN
F 1 "GND" H 7650 3600 50  0000 C CNN
F 2 "" H 7650 3750 50  0001 C CNN
F 3 "" H 7650 3750 50  0001 C CNN
	1    7650 3750
	1    0    0    -1  
$EndComp
$Comp
L power1:GND #PWR065
U 1 1 5A2293BB
P 8150 4850
F 0 "#PWR065" H 8150 4600 50  0001 C CNN
F 1 "GND" H 8150 4700 50  0000 C CNN
F 2 "" H 8150 4850 50  0001 C CNN
F 3 "" H 8150 4850 50  0001 C CNN
	1    8150 4850
	1    0    0    -1  
$EndComp
$Comp
L power1:GND #PWR066
U 1 1 5A2293C1
P 8500 4850
F 0 "#PWR066" H 8500 4600 50  0001 C CNN
F 1 "GND" H 8500 4700 50  0000 C CNN
F 2 "" H 8500 4850 50  0001 C CNN
F 3 "" H 8500 4850 50  0001 C CNN
	1    8500 4850
	1    0    0    -1  
$EndComp
$Comp
L mppt_microchip-rescue:+28V #PWR067
U 1 1 5A2293C7
P 3700 3050
AR Path="/5A2293C7" Ref="#PWR067"  Part="1" 
AR Path="/5A2288BA/5A2293C7" Ref="#PWR067"  Part="1" 
F 0 "#PWR067" H 3700 2900 50  0001 C CNN
F 1 "+28V" H 3700 3200 50  0000 C CNN
F 2 "" H 3950 3100 50  0001 C CNN
F 3 "" H 3950 3100 50  0001 C CNN
	1    3700 3050
	1    0    0    -1  
$EndComp
$Comp
L power1:+1V8 #PWR068
U 1 1 5A2293D3
P 9150 3800
F 0 "#PWR068" H 9150 3650 50  0001 C CNN
F 1 "+1V8" H 9150 3940 50  0000 C CNN
F 2 "" H 9150 3800 50  0001 C CNN
F 3 "" H 9150 3800 50  0001 C CNN
	1    9150 3800
	1    0    0    -1  
$EndComp
Wire Wire Line
	9150 3900 9150 3800
Text HLabel 1750 3400 0    60   Input ~ 0
NCO
Text HLabel 7450 2550 1    60   Input ~ 0
VOUT
Text HLabel 9150 4450 3    60   Input ~ 0
AMP_GND
Text HLabel 10000 4150 2    60   Input ~ 0
PGC/ISENSE_OUT
$Comp
L power1:+5V #PWR069
U 1 1 5AC7A48E
P 2400 3900
F 0 "#PWR069" H 2400 3750 50  0001 C CNN
F 1 "+5V" H 2400 4040 50  0000 C CNN
F 2 "" H 2400 3900 50  0000 C CNN
F 3 "" H 2400 3900 50  0000 C CNN
	1    2400 3900
	0    -1   -1   0   
$EndComp
Wire Wire Line
	3100 3900 3100 4000
Wire Wire Line
	3700 3350 3700 3450
Wire Wire Line
	3700 3250 3700 3350
Wire Wire Line
	3700 3150 3700 3250
Wire Wire Line
	3600 3850 4050 3850
Wire Wire Line
	3600 2100 3600 3850
Wire Wire Line
	4300 3350 4300 3450
Wire Wire Line
	4800 2350 4800 2650
Wire Wire Line
	4300 3250 4300 3350
Wire Wire Line
	4300 2100 4300 2200
Wire Wire Line
	4300 2200 4300 2650
Wire Wire Line
	4300 2650 4300 3050
Wire Wire Line
	4300 3450 4300 3600
Wire Wire Line
	3100 2350 4800 2350
Wire Wire Line
	4800 2650 4800 3050
Wire Wire Line
	4300 3050 4300 3250
Wire Wire Line
	5400 3450 5400 3550
Wire Wire Line
	5400 3550 5400 3650
Wire Wire Line
	4800 3350 4800 3450
Wire Wire Line
	4800 3450 4800 3550
Wire Wire Line
	4800 3050 4900 3050
Wire Wire Line
	4800 3050 4800 3250
Wire Wire Line
	4800 3250 4800 3350
Wire Wire Line
	5750 2650 6100 2650
Wire Wire Line
	6100 2650 6450 2650
Wire Wire Line
	6450 2650 6800 2650
Wire Wire Line
	6800 2650 7150 2650
Wire Wire Line
	7150 2650 7450 2650
Wire Wire Line
	7450 2650 7750 2650
Wire Wire Line
	7650 2950 7650 3150
Wire Wire Line
	7650 2950 8000 2950
Wire Wire Line
	7650 3650 7650 3750
Wire Wire Line
	9550 4150 9600 4150
Wire Wire Line
	8700 5000 8700 5300
Wire Wire Line
	9550 5000 9550 5300
Wire Wire Line
	8700 4200 8850 4200
Wire Wire Line
	8150 4100 8850 4100
Wire Wire Line
	3100 3750 3100 3900
$EndSCHEMATC
