EESchema Schematic File Version 2
LIBS:mppt_microchip-rescue
LIBS:power
LIBS:device
LIBS:transistors
LIBS:conn
LIBS:linear
LIBS:regul
LIBS:74xx
LIBS:cmos4000
LIBS:adc-dac
LIBS:memory
LIBS:xilinx
LIBS:microcontrollers
LIBS:dsp
LIBS:microchip
LIBS:analog_switches
LIBS:motorola
LIBS:texas
LIBS:intel
LIBS:audio
LIBS:interface
LIBS:digital-audio
LIBS:philips
LIBS:display
LIBS:cypress
LIBS:siliconi
LIBS:opto
LIBS:atmel
LIBS:contrib
LIBS:valves
LIBS:40xx
LIBS:74xgxx
LIBS:5050_ws2811
LIBS:a4988-module
LIBS:ac-dc
LIBS:acs712
LIBS:actel
LIBS:adxl345
LIBS:Altera
LIBS:AMS1117
LIBS:analog_devices
LIBS:analog_ICs_PL
LIBS:ant
LIBS:arduinoshield
LIBS:at24c64
LIBS:bc56-12EWA
LIBS:brooktre
LIBS:cis
LIBS:cmos_ieee
LIBS:con-kycon
LIBS:cp2103
LIBS:CP2102
LIBS:dc-dc
LIBS:dht11
LIBS:diode
LIBS:displays_PL
LIBS:elec-unifil
LIBS:ESD_Protection
LIBS:esp8266-module
LIBS:ESP8266
LIBS:fe
LIBS:ftdi
LIBS:Gajda_opto
LIBS:gennum
LIBS:graphic
LIBS:GS6300
LIBS:gy-a4988_module
LIBS:hc11
LIBS:hc541
LIBS:hc-05
LIBS:HC164
LIBS:hlk-rm04
LIBS:ir
LIBS:irf7907
LIBS:isp_6p
LIBS:kicad-library-by-simlun
LIBS:l298n
LIBS:Lattice
LIBS:LM2575
LIBS:logo
LIBS:logo-azura-wrench
LIBS:M25P05
LIBS:max1538
LIBS:maxim
LIBS:mcp1640
LIBS:mcp1640b
LIBS:mcp4921
LIBS:MCP3208
LIBS:microchip1
LIBS:microchip_dspic33dsc
LIBS:microchip_pic10mcu
LIBS:microchip_pic12mcu
LIBS:microchip_pic16mcu
LIBS:microchip_pic18mcu
LIBS:microchip_pic32mcu
LIBS:microcontrollers_PL
LIBS:Mimas-cache
LIBS:Mimas-rescue
LIBS:miniusb
LIBS:motor_drivers
LIBS:mp2109dq
LIBS:MP2307DN
LIBS:mppt-cache
LIBS:msp430
LIBS:na10-psu
LIBS:noname-cache
LIBS:nordicsemi
LIBS:nrf24l01
LIBS:numato_kicad_lib
LIBS:nxp_armmcu
LIBS:OF5032
LIBS:onsemi
LIBS:opamps
LIBS:opamps_PL
LIBS:Oscillators
LIBS:pl2303
LIBS:PL_capacitors
LIBS:PL_connectors
LIBS:PL_diodes
LIBS:PL_inductors
LIBS:PL_LEDs
LIBS:PL_mounting_holes
LIBS:PL_opto
LIBS:PL_switchers
LIBS:PL_switches
LIBS:PL_transistors
LIBS:pogopin
LIBS:Pot
LIBS:powerint
LIBS:powerjack
LIBS:Power_Management
LIBS:pspice
LIBS:pt4115
LIBS:references
LIBS:references_PL
LIBS:regulators_PL
LIBS:relays
LIBS:relays_PL
LIBS:rfcom
LIBS:RJ45-ENCODER
LIBS:rtl8196
LIBS:sensors
LIBS:silabs
LIBS:songle_relay
LIBS:special
LIBS:spiflash_16m
LIBS:st1s10
LIBS:stc12c5a60s2
LIBS:stepper_drivers
LIBS:stm8
LIBS:stm32
LIBS:STM32F100RBT6B
LIBS:stpdn
LIBS:supertex
LIBS:switches
LIBS:switch-omron
LIBS:SymbolsSimilarEN60617+oldDIN617
LIBS:tcs3200d
LIBS:tda5144
LIBS:texas-msp
LIBS:tp4056
LIBS:transf
LIBS:ts812c
LIBS:ttl_ieee
LIBS:usb_a
LIBS:usb-a-pcb
LIBS:usb_ax2
LIBS:video
LIBS:vref_PL
LIBS:w_analog
LIBS:w_connectors
LIBS:w_device
LIBS:w_logic
LIBS:Worldsemi
LIBS:xc3s100etq144
LIBS:xc3s500evq100
LIBS:xc6slx9-tqg144
LIBS:XC9572-TQ100
LIBS:Xicor
LIBS:xilinx_spartan3_virtex4_and_5
LIBS:Zilog
LIBS:рэс-49
LIBS:тпг-1
LIBS:KICAD-OPEN-LIBS
LIBS:4000-ic
LIBS:7400-ic
LIBS:analog-ic
LIBS:avr-mcu
LIBS:bluegiga
LIBS:connector
LIBS:diode-inc-ic
LIBS:freescale-ic
LIBS:ftdi-ic
LIBS:led
LIBS:maxim-ic
LIBS:micrel-ic
LIBS:microchip-ic
LIBS:nxp-ic
LIBS:on-semi-ic
LIBS:regulator
LIBS:rohm
LIBS:sharp-relay
LIBS:sparkfun
LIBS:standard
LIBS:stmicro-mcu
LIBS:ti-ic
LIBS:transistor
LIBS:uln-ic
LIBS:74LVC1G04GW
LIBS:93c56
LIBS:93CXX
LIBS:amesser-ad
LIBS:amesser-cmos4000
LIBS:amesser-conn
LIBS:amesser-discrete
LIBS:amesser-linear
LIBS:amesser-power
LIBS:amesser-usb
LIBS:audio-vlsi
LIBS:bat54_c
LIBS:bav199
LIBS:BLM15HG6015N1D
LIBS:bss138dp
LIBS:CIAA_ACC
LIBS:CIAAK60LIB
LIBS:DDR3_x16
LIBS:edu-ciaa-fsl
LIBS:edu-ciaa-nxp
LIBS:EduCiaaXSchLibrary
LIBS:FMC_HPC
LIBS:fqt13n06l
LIBS:ft232bm
LIBS:ft232rq
LIBS:ft2232h
LIBS:FT2232H
LIBS:g5v2
LIBS:intel_edison
LIBS:IS42S16400F
LIBS:lan_8740
LIBS:led_arbg
LIBS:lm2596
LIBS:lpc54102j512bd64
LIBS:LPC4337JBD144
LIBS:mcp1415
LIBS:mcp1416
LIBS:mcu-nxp
LIBS:mcu-st
LIBS:mic2039eymt
LIBS:MIC2025
LIBS:microusb
LIBS:net-phy
LIBS:nsi50010yt1g
LIBS:pbss5240xf
LIBS:PBSS5240
LIBS:pcie-mini
LIBS:Pic32MZ
LIBS:prtr5v0u2x
LIBS:PRTR5V0U2X
LIBS:PS2805
LIBS:regulators
LIBS:rs485_rs232_can
LIBS:r_small
LIBS:rx63n_lqfp144
LIBS:s25fl032p0xmfi013
LIBS:SCHA5B0200
LIBS:sd-con
LIBS:shield_arduino
LIBS:Si50x
LIBS:SMD_Sealing_Glass_Crystal
LIBS:sw_push
LIBS:sw_push4
LIBS:tblocks
LIBS:TJA1040
LIBS:TPS2051B
LIBS:transf_unip
LIBS:Transil_diode
LIBS:tvs
LIBS:TXB0108
LIBS:txs0206-29
LIBS:XC7Z030_FBG676
LIBS:XilinxArtix7
LIBS:ESP3212
LIBS:fm_radio
LIBS:ESP32-footprints-Shem-Lib
LIBS:mppt_microchip-cache
EELAYER 25 0
EELAYER END
$Descr A4 11693 8268
encoding utf-8
Sheet 1 5
Title "MIMAS SPARTAN 6 FPGA MODULE"
Date "3 dec 2013"
Rev ""
Comp "Numato Lab"
Comment1 "http://www.numato.com"
Comment2 "License : CC BY-SA"
Comment3 ""
Comment4 ""
$EndDescr
$Comp
L CONN_01X02 P1
U 1 1 58A64A45
P 3850 4650
F 0 "P1" H 3850 4800 50  0000 C CNN
F 1 "J1-VPV" V 3950 4650 50  0000 C CNN
F 2 "TerminalBlock_Phoenix:TerminalBlock_Phoenix_MKDS1.5-2pol" H 3850 4650 50  0001 C CNN
F 3 "" H 3850 4650 50  0000 C CNN
	1    3850 4650
	-1   0    0    1   
$EndComp
$Comp
L R R1
U 1 1 58A64DDF
P 4500 4700
F 0 "R1" V 4580 4700 50  0000 C CNN
F 1 "0.01" V 4500 4700 50  0000 C CNN
F 2 "Resistors_SMD:R_2816" V 4430 4700 50  0001 C CNN
F 3 "" H 4500 4700 50  0000 C CNN
	1    4500 4700
	0    1    1    0   
$EndComp
$Comp
L R R2
U 1 1 58A64E40
P 4500 4900
F 0 "R2" V 4580 4900 50  0000 C CNN
F 1 "0.01" V 4500 4900 50  0000 C CNN
F 2 "Resistors_SMD:R_2816" V 4430 4900 50  0001 C CNN
F 3 "" H 4500 4900 50  0000 C CNN
	1    4500 4900
	0    1    1    0   
$EndComp
$Comp
L R R3
U 1 1 58A650ED
P 4900 4550
F 0 "R3" V 4980 4550 50  0000 C CNN
F 1 "2.7K" V 4900 4550 50  0000 C CNN
F 2 "Resistors_SMD:R_0805" V 4830 4550 50  0001 C CNN
F 3 "" H 4900 4550 50  0000 C CNN
	1    4900 4550
	0    1    1    0   
$EndComp
$Comp
L R R5
U 1 1 58A65650
P 5600 4150
F 0 "R5" V 5680 4150 50  0000 C CNN
F 1 "180K" V 5600 4150 50  0000 C CNN
F 2 "Resistors_SMD:R_0805" V 5530 4150 50  0001 C CNN
F 3 "" H 5600 4150 50  0000 C CNN
	1    5600 4150
	0    1    1    0   
$EndComp
$Comp
L R R7
U 1 1 58A65B66
P 6400 4800
F 0 "R7" V 6480 4800 50  0000 C CNN
F 1 "100" V 6400 4800 50  0000 C CNN
F 2 "Resistors_SMD:R_0805" V 6330 4800 50  0001 C CNN
F 3 "" H 6400 4800 50  0000 C CNN
	1    6400 4800
	0    1    1    0   
$EndComp
$Comp
L R R10
U 1 1 58A67D5F
P 10100 2300
F 0 "R10" V 10180 2300 50  0000 C CNN
F 1 "3K" V 10100 2300 50  0000 C CNN
F 2 "Resistors_SMD:R_0805" V 10030 2300 50  0001 C CNN
F 3 "" H 10100 2300 50  0000 C CNN
	1    10100 2300
	-1   0    0    1   
$EndComp
$Comp
L R R13
U 1 1 58A684D4
P 10100 3000
F 0 "R13" V 10180 3000 50  0000 C CNN
F 1 "30K" V 10100 3000 50  0000 C CNN
F 2 "Resistors_SMD:R_0805" V 10030 3000 50  0001 C CNN
F 3 "" H 10100 3000 50  0000 C CNN
	1    10100 3000
	-1   0    0    1   
$EndComp
$Comp
L R R16
U 1 1 58A68882
P 8500 2300
F 0 "R16" V 8580 2300 50  0000 C CNN
F 1 "10K" V 8500 2300 50  0000 C CNN
F 2 "Resistors_SMD:R_0805" V 8430 2300 50  0001 C CNN
F 3 "" H 8500 2300 50  0000 C CNN
	1    8500 2300
	-1   0    0    1   
$EndComp
$Comp
L R R17
U 1 1 58A68895
P 8500 3000
F 0 "R17" V 8580 3000 50  0000 C CNN
F 1 "100K" V 8500 3000 50  0000 C CNN
F 2 "Resistors_SMD:R_0805" V 8430 3000 50  0001 C CNN
F 3 "" H 8500 3000 50  0000 C CNN
	1    8500 3000
	-1   0    0    1   
$EndComp
Text Notes 10200 2710 0    60   ~ 0
0 - 1,9V
Text Notes 8950 2700 2    60   ~ 0
0 - 1,9V
$Comp
L R R8
U 1 1 58ACAABF
P 2200 4800
F 0 "R8" V 2280 4800 50  0000 C CNN
F 1 "6.8K" V 2200 4800 50  0000 C CNN
F 2 "Resistors_SMD:R_0805" V 2130 4800 50  0001 C CNN
F 3 "" H 2200 4800 50  0000 C CNN
	1    2200 4800
	0    -1   -1   0   
$EndComp
$Comp
L R R9
U 1 1 58ACB559
P 2700 4800
F 0 "R9" V 2780 4800 50  0000 C CNN
F 1 "10K" V 2700 4800 50  0000 C CNN
F 2 "Resistors_SMD:R_0805" V 2630 4800 50  0001 C CNN
F 3 "" H 2700 4800 50  0000 C CNN
	1    2700 4800
	0    -1   -1   0   
$EndComp
Text Notes 2350 5150 1    60   ~ 0
1,96V
$Comp
L CONN_01X05 P5
U 1 1 58AD15E0
P 7250 2200
F 0 "P5" H 7250 2500 50  0000 C CNN
F 1 "AD7829_HEADER" V 7350 2200 50  0000 C CNN
F 2 "Pin_Headers:Pin_Header_Straight_1x05_Pitch2.54mm" H 7250 2200 50  0001 C CNN
F 3 "" H 7250 2200 50  0000 C CNN
	1    7250 2200
	1    0    0    -1  
$EndComp
Text Notes 400  1650 0    60   ~ 0
GND
Text Notes 400  1550 0    60   ~ 0
VCC
Text Notes 400  1450 0    60   ~ 0
TX
Text Notes 400  1350 0    60   ~ 0
RX
$Comp
L PWR_FLAG #FLG01
U 1 1 58AF4BBE
P 4150 4300
F 0 "#FLG01" H 4150 4395 50  0001 C CNN
F 1 "PWR_FLAG" H 4150 4480 50  0000 C CNN
F 2 "" H 4150 4300 50  0000 C CNN
F 3 "" H 4150 4300 50  0000 C CNN
	1    4150 4300
	0    -1   -1   0   
$EndComp
$Comp
L PWR_FLAG #FLG02
U 1 1 58B021A1
P 5650 5100
F 0 "#FLG02" H 5650 5195 50  0001 C CNN
F 1 "PWR_FLAG" H 5650 5280 50  0000 C CNN
F 2 "" H 5650 5100 50  0000 C CNN
F 3 "" H 5650 5100 50  0000 C CNN
	1    5650 5100
	0    -1   -1   0   
$EndComp
$Comp
L PWR_FLAG #FLG03
U 1 1 58B02CFF
P 2450 4800
F 0 "#FLG03" H 2450 4895 50  0001 C CNN
F 1 "PWR_FLAG" H 2450 4980 50  0000 C CNN
F 2 "" H 2450 4800 50  0000 C CNN
F 3 "" H 2450 4800 50  0000 C CNN
	1    2450 4800
	1    0    0    -1  
$EndComp
$Comp
L MCP6V02 U2
U 1 1 58A7C6A0
P 5600 4800
F 0 "U2" H 5750 4950 40  0000 C CNN
F 1 "MCP6V02" H 5800 4650 40  0000 C CNN
F 2 "Housings_SOIC:SOIC-8_3.9x4.9mm_Pitch1.27mm" H 5650 4800 60  0001 C CNN
F 3 "" H 5650 4800 60  0000 C CNN
	1    5600 4800
	1    0    0    -1  
$EndComp
Wire Wire Line
	10700 5750 10700 5850
Wire Wire Line
	10700 5850 8000 5850
Wire Wire Line
	9350 5850 9350 5950
Wire Wire Line
	8000 5850 8000 5750
Connection ~ 9350 5850
Wire Wire Line
	10400 5750 10400 5850
Connection ~ 10400 5850
Wire Wire Line
	10100 5750 10100 5850
Connection ~ 10100 5850
Wire Wire Line
	9800 5750 9800 5850
Connection ~ 9800 5850
Wire Wire Line
	9500 5750 9500 5850
Connection ~ 9500 5850
Wire Wire Line
	9200 5750 9200 5850
Connection ~ 9200 5850
Wire Wire Line
	8900 5750 8900 5850
Connection ~ 8900 5850
Wire Wire Line
	8600 5750 8600 5850
Connection ~ 8600 5850
Wire Wire Line
	8300 5850 8300 5750
Connection ~ 8300 5850
Wire Wire Line
	8000 5350 8000 5450
Wire Wire Line
	10700 5350 8000 5350
Wire Wire Line
	10700 5350 10700 5450
Wire Wire Line
	10100 5450 10100 5350
Connection ~ 10100 5350
Wire Wire Line
	9800 5450 9800 5350
Connection ~ 9800 5350
Wire Wire Line
	9500 5450 9500 5350
Connection ~ 9500 5350
Wire Wire Line
	9200 5450 9200 5350
Connection ~ 9200 5350
Wire Wire Line
	8900 5450 8900 5350
Connection ~ 8900 5350
Wire Wire Line
	8600 5450 8600 5350
Connection ~ 8600 5350
Wire Wire Line
	8300 5450 8300 5350
Connection ~ 8300 5350
Wire Wire Line
	10400 5450 10400 5350
Connection ~ 10400 5350
Wire Wire Line
	9350 5350 9350 5250
Connection ~ 9350 5350
Wire Wire Line
	4150 4600 4050 4600
Wire Wire Line
	4150 4300 4150 4600
Wire Wire Line
	4050 4700 4350 4700
Wire Wire Line
	4250 4550 4250 4900
Wire Wire Line
	4250 4900 4350 4900
Connection ~ 4250 4700
Wire Wire Line
	4650 4900 5200 4900
Wire Wire Line
	4750 4700 4750 5000
Wire Wire Line
	4750 4700 4650 4700
Connection ~ 4750 4900
Wire Wire Line
	4250 4550 4750 4550
Wire Wire Line
	5100 3950 5100 4850
Wire Wire Line
	5100 4550 5050 4550
Wire Wire Line
	5950 4800 6250 4800
Wire Wire Line
	6050 3950 6050 4800
Wire Wire Line
	5100 4150 5450 4150
Wire Wire Line
	6050 4150 5750 4150
Wire Wire Line
	5750 3950 6050 3950
Connection ~ 6050 4150
Wire Wire Line
	5450 3950 5100 3950
Connection ~ 5100 4150
Connection ~ 6050 4800
Wire Wire Line
	5650 5450 5650 5550
Wire Wire Line
	5650 5050 5650 5150
Wire Wire Line
	10100 1800 10100 2150
Wire Wire Line
	10100 2000 9800 2000
Connection ~ 10100 2000
Wire Wire Line
	9800 2000 9800 2150
Wire Wire Line
	9800 2450 9800 2650
Wire Wire Line
	10100 2450 10100 2850
Connection ~ 9800 2650
Connection ~ 10100 2650
Wire Wire Line
	10100 3150 10100 3350
Wire Wire Line
	8500 1800 8500 2150
Wire Wire Line
	8500 2000 8200 2000
Connection ~ 8500 2000
Wire Wire Line
	8200 2000 8200 2150
Wire Wire Line
	8200 2650 8200 2450
Wire Wire Line
	8500 2450 8500 2850
Connection ~ 8200 2650
Connection ~ 8500 2650
Wire Wire Line
	8500 3150 8500 3850
Connection ~ 5100 4550
Wire Wire Line
	5100 4850 5350 4850
Wire Wire Line
	5350 4750 5200 4750
Wire Wire Line
	5200 4750 5200 4900
Wire Wire Line
	2450 4800 2450 4900
Wire Wire Line
	1950 4800 2050 4800
Wire Wire Line
	2350 4800 2550 4800
Connection ~ 2450 4800
Wire Wire Line
	2850 4800 2950 4800
Connection ~ 5650 5100
$Comp
L AMS1117 U1
U 1 1 59D6FEE5
P 3650 6900
F 0 "U1" H 3650 6800 50  0000 C CNN
F 1 "AMS1117" H 3650 7000 50  0000 C CNN
F 2 "TO_SOT_Packages_SMD:SOT-223" H 3650 6900 60  0001 C CNN
F 3 "" H 3650 6900 60  0000 C CNN
	1    3650 6900
	-1   0    0    1   
$EndComp
Wire Wire Line
	5200 6900 4450 6900
$Comp
L CP1 C2
U 1 1 59D71622
P 4700 6750
F 0 "C2" H 4725 6850 50  0000 L CNN
F 1 "22μF" H 4725 6650 50  0000 L CNN
F 2 "Capacitors_SMD:CP_Elec_6.3x7.7" H 4700 6750 50  0001 C CNN
F 3 "" H 4700 6750 50  0000 C CNN
	1    4700 6750
	-1   0    0    1   
$EndComp
Connection ~ 4700 6900
$Comp
L CP1 C11
U 1 1 59D72024
P 2600 6750
F 0 "C11" H 2625 6850 50  0000 L CNN
F 1 "22μF" H 2625 6650 50  0000 L CNN
F 2 "Capacitors_SMD:CP_Elec_6.3x7.7" H 2600 6750 50  0001 C CNN
F 3 "" H 2600 6750 50  0000 C CNN
	1    2600 6750
	-1   0    0    1   
$EndComp
$Comp
L AMS1117 U6
U 1 1 59D723FF
P 3650 5950
F 0 "U6" H 3650 5850 50  0000 C CNN
F 1 "AMS1117" H 3650 6050 50  0000 C CNN
F 2 "TO_SOT_Packages_SMD:SOT-223" H 3650 5950 60  0001 C CNN
F 3 "" H 3650 5950 60  0000 C CNN
	1    3650 5950
	-1   0    0    1   
$EndComp
Wire Wire Line
	7350 5950 4450 5950
$Comp
L CP1 C31
U 1 1 59D72407
P 4700 5800
F 0 "C31" H 4725 5900 50  0000 L CNN
F 1 "22μF" H 4725 5700 50  0000 L CNN
F 2 "Capacitors_SMD:CP_Elec_6.3x7.7" H 4700 5800 50  0001 C CNN
F 3 "" H 4700 5800 50  0000 C CNN
	1    4700 5800
	-1   0    0    1   
$EndComp
Connection ~ 4700 5950
Wire Wire Line
	2350 5950 2850 5950
$Comp
L CP1 C32
U 1 1 59D72410
P 2600 5800
F 0 "C32" H 2625 5900 50  0000 L CNN
F 1 "22μF" H 2625 5700 50  0000 L CNN
F 2 "Capacitors_SMD:CP_Elec_6.3x7.7" H 2600 5800 50  0001 C CNN
F 3 "" H 2600 5800 50  0000 C CNN
	1    2600 5800
	-1   0    0    1   
$EndComp
Connection ~ 2600 5950
$Comp
L USB_A-RESCUE-mppt_microchip P3
U 1 1 59D761EB
P 1650 6700
F 0 "P3" H 1850 6500 50  0000 C CNN
F 1 "USB_A" H 1600 6900 50  0000 C CNN
F 2 "Connectors:USB_A" V 1600 6600 50  0001 C CNN
F 3 "" V 1600 6600 50  0000 C CNN
	1    1650 6700
	0    -1   -1   0   
$EndComp
NoConn ~ 1950 6800
NoConn ~ 1950 6700
$Comp
L PWR_FLAG #FLG04
U 1 1 59D96546
P 2600 5950
F 0 "#FLG04" H 2600 6045 50  0001 C CNN
F 1 "PWR_FLAG" H 2600 6130 50  0000 C CNN
F 2 "" H 2600 5950 50  0000 C CNN
F 3 "" H 2600 5950 50  0000 C CNN
	1    2600 5950
	-1   0    0    1   
$EndComp
$Comp
L PWR_FLAG #FLG05
U 1 1 59D96744
P 2600 6950
F 0 "#FLG05" H 2600 7045 50  0001 C CNN
F 1 "PWR_FLAG" H 2600 7130 50  0000 C CNN
F 2 "" H 2600 6950 50  0000 C CNN
F 3 "" H 2600 6950 50  0000 C CNN
	1    2600 6950
	-1   0    0    1   
$EndComp
$Comp
L C C1
U 1 1 5A1847D6
P 10700 5600
F 0 "C1" H 10725 5700 50  0000 L CNN
F 1 "10μF" H 10725 5500 50  0000 L CNN
F 2 "Capacitors_SMD:C_0805" H 10738 5450 50  0001 C CNN
F 3 "" H 10700 5600 50  0001 C CNN
	1    10700 5600
	-1   0    0    1   
$EndComp
$Comp
L C C3
U 1 1 5A18489D
P 10400 5600
F 0 "C3" H 10425 5700 50  0000 L CNN
F 1 "10μF" H 10425 5500 50  0000 L CNN
F 2 "Capacitors_SMD:C_0805" H 10438 5450 50  0001 C CNN
F 3 "" H 10400 5600 50  0001 C CNN
	1    10400 5600
	-1   0    0    1   
$EndComp
$Comp
L C C5
U 1 1 5A18495E
P 10100 5600
F 0 "C5" H 10125 5700 50  0000 L CNN
F 1 "10μF" H 10125 5500 50  0000 L CNN
F 2 "Capacitors_SMD:C_0805" H 10138 5450 50  0001 C CNN
F 3 "" H 10100 5600 50  0001 C CNN
	1    10100 5600
	-1   0    0    1   
$EndComp
$Comp
L C C6
U 1 1 5A184A21
P 9800 5600
F 0 "C6" H 9825 5700 50  0000 L CNN
F 1 "10μF" H 9825 5500 50  0000 L CNN
F 2 "Capacitors_SMD:C_0805" H 9838 5450 50  0001 C CNN
F 3 "" H 9800 5600 50  0001 C CNN
	1    9800 5600
	-1   0    0    1   
$EndComp
$Comp
L C C7
U 1 1 5A184AE6
P 9500 5600
F 0 "C7" H 9525 5700 50  0000 L CNN
F 1 "10μF" H 9525 5500 50  0000 L CNN
F 2 "Capacitors_SMD:C_0805" H 9538 5450 50  0001 C CNN
F 3 "" H 9500 5600 50  0001 C CNN
	1    9500 5600
	-1   0    0    1   
$EndComp
$Comp
L C C8
U 1 1 5A184BAD
P 9200 5600
F 0 "C8" H 9225 5700 50  0000 L CNN
F 1 "10μF" H 9225 5500 50  0000 L CNN
F 2 "Capacitors_SMD:C_0805" H 9238 5450 50  0001 C CNN
F 3 "" H 9200 5600 50  0001 C CNN
	1    9200 5600
	-1   0    0    1   
$EndComp
$Comp
L C C9
U 1 1 5A184C76
P 8900 5600
F 0 "C9" H 8925 5700 50  0000 L CNN
F 1 "10μF" H 8925 5500 50  0000 L CNN
F 2 "Capacitors_SMD:C_0805" H 8938 5450 50  0001 C CNN
F 3 "" H 8900 5600 50  0001 C CNN
	1    8900 5600
	-1   0    0    1   
$EndComp
$Comp
L C C12
U 1 1 5A184D41
P 8600 5600
F 0 "C12" H 8625 5700 50  0000 L CNN
F 1 "10μF" H 8625 5500 50  0000 L CNN
F 2 "Capacitors_SMD:C_0805" H 8638 5450 50  0001 C CNN
F 3 "" H 8600 5600 50  0001 C CNN
	1    8600 5600
	-1   0    0    1   
$EndComp
$Comp
L C C13
U 1 1 5A184E0E
P 8300 5600
F 0 "C13" H 8325 5700 50  0000 L CNN
F 1 "10μF" H 8325 5500 50  0000 L CNN
F 2 "Capacitors_SMD:C_0805" H 8338 5450 50  0001 C CNN
F 3 "" H 8300 5600 50  0001 C CNN
	1    8300 5600
	-1   0    0    1   
$EndComp
$Comp
L C C14
U 1 1 5A187206
P 8000 5600
F 0 "C14" H 8025 5700 50  0000 L CNN
F 1 "10μF" H 8025 5500 50  0000 L CNN
F 2 "Capacitors_SMD:C_0805" H 8038 5450 50  0001 C CNN
F 3 "" H 8000 5600 50  0001 C CNN
	1    8000 5600
	-1   0    0    1   
$EndComp
$Comp
L C C10
U 1 1 5A1888BA
P 5600 3950
F 0 "C10" H 5625 4050 50  0000 L CNN
F 1 "220pF" H 5625 3850 50  0000 L CNN
F 2 "Capacitors_SMD:C_0805" H 5638 3800 50  0001 C CNN
F 3 "" H 5600 3950 50  0001 C CNN
	1    5600 3950
	0    -1   -1   0   
$EndComp
$Comp
L C C4
U 1 1 5A18902C
P 5650 5300
F 0 "C4" H 5675 5400 50  0000 L CNN
F 1 "1μF" H 5675 5200 50  0000 L CNN
F 2 "Capacitors_SMD:C_0805" H 5688 5150 50  0001 C CNN
F 3 "" H 5650 5300 50  0001 C CNN
	1    5650 5300
	-1   0    0    1   
$EndComp
$Comp
L C C15
U 1 1 5A18A165
P 9800 2300
F 0 "C15" H 9825 2400 50  0000 L CNN
F 1 "1nF" H 9825 2200 50  0000 L CNN
F 2 "Capacitors_SMD:C_0805" H 9838 2150 50  0001 C CNN
F 3 "" H 9800 2300 50  0001 C CNN
	1    9800 2300
	-1   0    0    1   
$EndComp
$Comp
L C C19
U 1 1 5A18E9A6
P 8200 2300
F 0 "C19" H 8225 2400 50  0000 L CNN
F 1 "1nF" H 8225 2200 50  0000 L CNN
F 2 "Capacitors_SMD:C_0805" H 8238 2150 50  0001 C CNN
F 3 "" H 8200 2300 50  0001 C CNN
	1    8200 2300
	-1   0    0    1   
$EndComp
$Comp
L GND #PWR06
U 1 1 5A18600E
P 4750 5000
F 0 "#PWR06" H 4750 4750 50  0001 C CNN
F 1 "GND" H 4750 4850 50  0000 C CNN
F 2 "" H 4750 5000 50  0001 C CNN
F 3 "" H 4750 5000 50  0001 C CNN
	1    4750 5000
	1    0    0    -1  
$EndComp
$Comp
L GND #PWR07
U 1 1 5A186614
P 5650 5550
F 0 "#PWR07" H 5650 5300 50  0001 C CNN
F 1 "GND" H 5650 5400 50  0000 C CNN
F 2 "" H 5650 5550 50  0001 C CNN
F 3 "" H 5650 5550 50  0001 C CNN
	1    5650 5550
	1    0    0    -1  
$EndComp
$Comp
L GND #PWR08
U 1 1 5A1869C4
P 9350 5250
F 0 "#PWR08" H 9350 5000 50  0001 C CNN
F 1 "GND" H 9350 5100 50  0000 C CNN
F 2 "" H 9350 5250 50  0001 C CNN
F 3 "" H 9350 5250 50  0001 C CNN
	1    9350 5250
	-1   0    0    1   
$EndComp
$Comp
L GND #PWR09
U 1 1 5A1876A9
P 950 1700
F 0 "#PWR09" H 950 1450 50  0001 C CNN
F 1 "GND" H 950 1550 50  0000 C CNN
F 2 "" H 950 1700 50  0001 C CNN
F 3 "" H 950 1700 50  0001 C CNN
	1    950  1700
	1    0    0    -1  
$EndComp
$Comp
L GND #PWR010
U 1 1 5A1884DC
P 2950 4800
F 0 "#PWR010" H 2950 4550 50  0001 C CNN
F 1 "GND" H 2950 4650 50  0000 C CNN
F 2 "" H 2950 4800 50  0001 C CNN
F 3 "" H 2950 4800 50  0001 C CNN
	1    2950 4800
	0    -1   -1   0   
$EndComp
$Comp
L GND #PWR011
U 1 1 5A18899E
P 6950 1950
F 0 "#PWR011" H 6950 1700 50  0001 C CNN
F 1 "GND" H 6950 1800 50  0000 C CNN
F 2 "" H 6950 1950 50  0001 C CNN
F 3 "" H 6950 1950 50  0001 C CNN
	1    6950 1950
	0    1    1    0   
$EndComp
Wire Wire Line
	7050 2000 6950 2000
Wire Wire Line
	6950 2000 6950 1950
$Comp
L GND #PWR012
U 1 1 5A18D097
P 4700 6600
F 0 "#PWR012" H 4700 6350 50  0001 C CNN
F 1 "GND" H 4700 6450 50  0000 C CNN
F 2 "" H 4700 6600 50  0001 C CNN
F 3 "" H 4700 6600 50  0001 C CNN
	1    4700 6600
	-1   0    0    1   
$EndComp
$Comp
L GND #PWR013
U 1 1 5A18D153
P 3650 6400
F 0 "#PWR013" H 3650 6150 50  0001 C CNN
F 1 "GND" H 3650 6250 50  0000 C CNN
F 2 "" H 3650 6400 50  0001 C CNN
F 3 "" H 3650 6400 50  0001 C CNN
	1    3650 6400
	-1   0    0    1   
$EndComp
$Comp
L GND #PWR014
U 1 1 5A18D518
P 4700 5650
F 0 "#PWR014" H 4700 5400 50  0001 C CNN
F 1 "GND" H 4700 5500 50  0000 C CNN
F 2 "" H 4700 5650 50  0001 C CNN
F 3 "" H 4700 5650 50  0001 C CNN
	1    4700 5650
	-1   0    0    1   
$EndComp
$Comp
L GND #PWR015
U 1 1 5A18D690
P 2600 5650
F 0 "#PWR015" H 2600 5400 50  0001 C CNN
F 1 "GND" H 2600 5500 50  0000 C CNN
F 2 "" H 2600 5650 50  0001 C CNN
F 3 "" H 2600 5650 50  0001 C CNN
	1    2600 5650
	-1   0    0    1   
$EndComp
$Comp
L GND #PWR016
U 1 1 5A18D7A2
P 1950 6600
F 0 "#PWR016" H 1950 6350 50  0001 C CNN
F 1 "GND" H 1950 6450 50  0000 C CNN
F 2 "" H 1950 6600 50  0001 C CNN
F 3 "" H 1950 6600 50  0001 C CNN
	1    1950 6600
	0    -1   -1   0   
$EndComp
$Comp
L GND #PWR017
U 1 1 5A18E25E
P 8500 1800
F 0 "#PWR017" H 8500 1550 50  0001 C CNN
F 1 "GND" H 8500 1650 50  0000 C CNN
F 2 "" H 8500 1800 50  0001 C CNN
F 3 "" H 8500 1800 50  0001 C CNN
	1    8500 1800
	-1   0    0    1   
$EndComp
$Comp
L GND #PWR018
U 1 1 5A18E902
P 10100 1800
F 0 "#PWR018" H 10100 1550 50  0001 C CNN
F 1 "GND" H 10100 1650 50  0000 C CNN
F 2 "" H 10100 1800 50  0001 C CNN
F 3 "" H 10100 1800 50  0001 C CNN
	1    10100 1800
	-1   0    0    1   
$EndComp
$Comp
L GND #PWR019
U 1 1 5A18F7F1
P 2600 6600
F 0 "#PWR019" H 2600 6350 50  0001 C CNN
F 1 "GND" H 2600 6450 50  0000 C CNN
F 2 "" H 2600 6600 50  0001 C CNN
F 3 "" H 2600 6600 50  0001 C CNN
	1    2600 6600
	-1   0    0    1   
$EndComp
$Comp
L +28V #PWR020
U 1 1 5A190A26
P 4150 4300
F 0 "#PWR020" H 4150 4150 50  0001 C CNN
F 1 "+28V" H 4150 4450 50  0000 C CNN
F 2 "" H 4400 4350 50  0001 C CNN
F 3 "" H 4400 4350 50  0001 C CNN
	1    4150 4300
	1    0    0    -1  
$EndComp
$Comp
L +28V #PWR021
U 1 1 5A1914C1
P 9350 5950
F 0 "#PWR021" H 9350 5800 50  0001 C CNN
F 1 "+28V" H 9350 6100 50  0000 C CNN
F 2 "" H 9600 6000 50  0001 C CNN
F 3 "" H 9600 6000 50  0001 C CNN
	1    9350 5950
	-1   0    0    1   
$EndComp
$Comp
L +28V #PWR022
U 1 1 5A191C4C
P 10100 3350
F 0 "#PWR022" H 10100 3200 50  0001 C CNN
F 1 "+28V" H 10100 3500 50  0000 C CNN
F 2 "" H 10350 3400 50  0001 C CNN
F 3 "" H 10350 3400 50  0001 C CNN
	1    10100 3350
	-1   0    0    1   
$EndComp
$Comp
L +3.3V #PWR023
U 1 1 5A195099
P 1950 4800
F 0 "#PWR023" H 1950 4650 50  0001 C CNN
F 1 "+3.3V" H 1950 4940 50  0000 C CNN
F 2 "" H 1950 4800 50  0001 C CNN
F 3 "" H 1950 4800 50  0001 C CNN
	1    1950 4800
	0    -1   -1   0   
$EndComp
$Comp
L GND #PWR024
U 1 1 5A18932F
P 1550 6400
F 0 "#PWR024" H 1550 6150 50  0001 C CNN
F 1 "GND" H 1550 6250 50  0000 C CNN
F 2 "" H 1550 6400 50  0001 C CNN
F 3 "" H 1550 6400 50  0001 C CNN
	1    1550 6400
	-1   0    0    1   
$EndComp
$Comp
L +2V5 #PWR025
U 1 1 5A1896DF
P 2350 5950
F 0 "#PWR025" H 2350 5800 50  0001 C CNN
F 1 "+2V5" H 2350 6090 50  0000 C CNN
F 2 "" H 2350 5950 50  0001 C CNN
F 3 "" H 2350 5950 50  0001 C CNN
	1    2350 5950
	0    -1   -1   0   
$EndComp
$Comp
L +1V8 #PWR026
U 1 1 5A18E048
P 2450 4900
F 0 "#PWR026" H 2450 4750 50  0001 C CNN
F 1 "+1V8" H 2450 5040 50  0000 C CNN
F 2 "" H 2450 4900 50  0001 C CNN
F 3 "" H 2450 4900 50  0001 C CNN
	1    2450 4900
	-1   0    0    1   
$EndComp
$Comp
L +1V8 #PWR027
U 1 1 5A18F3C4
P 5650 4500
F 0 "#PWR027" H 5650 4350 50  0001 C CNN
F 1 "+1V8" H 5650 4640 50  0000 C CNN
F 2 "" H 5650 4500 50  0001 C CNN
F 3 "" H 5650 4500 50  0001 C CNN
	1    5650 4500
	1    0    0    -1  
$EndComp
Wire Wire Line
	5650 4550 5650 4500
$Comp
L GND #PWR028
U 1 1 5A1905DD
P 3650 5450
F 0 "#PWR028" H 3650 5200 50  0001 C CNN
F 1 "GND" H 3650 5300 50  0000 C CNN
F 2 "" H 3650 5450 50  0001 C CNN
F 3 "" H 3650 5450 50  0001 C CNN
	1    3650 5450
	-1   0    0    1   
$EndComp
$Sheet
S 5450 1000 1150 2550
U 5A1CADDF
F0 "ADC" 60
F1 "ADC.sch" 60
F2 "DB7" I L 5450 3400 60 
F3 "DB6" I L 5450 3250 60 
F4 "DB5" I L 5450 3100 60 
F5 "DB4" I L 5450 2950 60 
F6 "DB3" I L 5450 2800 60 
F7 "DB2" I L 5450 2650 60 
F8 "DB1" I L 5450 2500 60 
F9 "DB0" I L 5450 2350 60 
F10 "CS" I L 5450 2200 60 
F11 "RD" I L 5450 2050 60 
F12 "CONVST" I L 5450 1900 60 
F13 "EOC" I L 5450 1750 60 
F14 "A0" I L 5450 1300 60 
F15 "A1" I L 5450 1450 60 
F16 "A2" I L 5450 1600 60 
F17 "AD_IN1" I R 6600 2400 60 
F18 "AD_IN2" I R 6600 2300 60 
F19 "AD_IN3" I R 6600 2200 60 
F20 "AD_IN4" I R 6600 2100 60 
F21 "VSENSE_IN" I R 6600 2600 60 
F22 "VSENSE_OUT" I R 6600 2750 60 
F23 "ISENSE_IN" I R 6600 2900 60 
F24 "PCG/ISENSE_OUT" I R 6600 3050 60 
$EndSheet
$Sheet
S 4000 1000 1050 2650
U 5A1C676A
F0 "FPGA" 60
F1 "FPGA.sch" 60
F2 "DB7" I R 5050 3400 60 
F3 "DB6" I R 5050 3250 60 
F4 "DB5" I R 5050 3100 60 
F5 "DB4" I R 5050 2950 60 
F6 "DB3" I R 5050 2800 60 
F7 "DB2" I R 5050 2650 60 
F8 "DB1" I R 5050 2500 60 
F9 "DB0" I R 5050 2350 60 
F10 "CS" I R 5050 2200 60 
F11 "RD" I R 5050 2050 60 
F12 "CONVST" I R 5050 1900 60 
F13 "EOC" I R 5050 1750 60 
F14 "A0" I R 5050 1300 60 
F15 "A1" I R 5050 1450 60 
F16 "A2" I R 5050 1600 60 
F17 "NCO" I R 5050 3550 60 
$EndSheet
Wire Wire Line
	6600 2400 7050 2400
Wire Wire Line
	7050 2300 6600 2300
Wire Wire Line
	6600 2200 7050 2200
Wire Wire Line
	7050 2100 6600 2100
Wire Wire Line
	1350 1700 1200 1700
$Comp
L +3.3V #PWR029
U 1 1 5A193B05
P 1200 1700
F 0 "#PWR029" H 1200 1550 50  0001 C CNN
F 1 "+3.3V" H 1200 1840 50  0000 C CNN
F 2 "" H 1200 1700 50  0001 C CNN
F 3 "" H 1200 1700 50  0001 C CNN
	1    1200 1700
	0    -1   -1   0   
$EndComp
$Comp
L SPDT SW1
U 1 1 59D86048
P 2000 1600
F 0 "SW1" H 2220 1700 40  0000 C CNN
F 1 "SPDT" H 2280 1530 40  0000 C CNN
F 2 "Buttons_Switches_ThroughHole:SW_Micro_SPST" H 2380 1600 60  0001 C CNN
F 3 "" H 2380 1600 60  0000 C CNN
	1    2000 1600
	-1   0    0    1   
$EndComp
Wire Wire Line
	2000 1600 2250 1600
Wire Wire Line
	5050 1300 5450 1300
Wire Wire Line
	5450 1450 5050 1450
Wire Wire Line
	5050 1600 5450 1600
Wire Wire Line
	5450 1750 5050 1750
Wire Wire Line
	5050 1900 5450 1900
Wire Wire Line
	5450 2050 5050 2050
Wire Wire Line
	5050 2200 5450 2200
Wire Wire Line
	5450 2350 5050 2350
Wire Wire Line
	5050 2500 5450 2500
Wire Wire Line
	5450 2650 5050 2650
Wire Wire Line
	5050 2800 5450 2800
Wire Wire Line
	5450 2950 5050 2950
Wire Wire Line
	5050 3100 5450 3100
Wire Wire Line
	5450 3250 5050 3250
Wire Wire Line
	5050 3400 5450 3400
$Sheet
S 7450 4050 1000 750 
U 5A2288BA
F0 "Buck Converter" 60
F1 "Buck Converter.sch" 60
F2 "NCO" I L 7450 4200 60 
F3 "VOUT" I L 7450 4350 60 
F4 "AMP_GND" I L 7450 4500 60 
F5 "PGC/ISENSE_OUT" I L 7450 4650 60 
$EndSheet
Wire Wire Line
	5050 3550 5300 3550
Wire Wire Line
	5300 3550 5300 3650
Wire Wire Line
	5300 3650 6450 3650
Wire Wire Line
	6450 3650 6450 4200
Wire Wire Line
	6450 4200 7450 4200
Wire Wire Line
	5650 5100 7250 5100
Wire Wire Line
	7350 4350 7450 4350
Connection ~ 5200 6900
Wire Wire Line
	5200 6900 5200 5950
Wire Wire Line
	7350 3850 7350 5950
Connection ~ 5200 5950
Connection ~ 7350 4350
Text Notes 3000 7450 0    60   ~ 0
Reguladores de Tensão\n5V para alimentar o circuito do FPGA\n2.5V para tensão de referência no ADC
Text Notes 1300 4500 0    60   ~ 0
Divisor de Tensão para fornecer 2V para o AMPOP
Text Notes 5900 5350 0    60   ~ 0
VPV - Entradas de Energia Solar do Circuito\nAMPOP para Sensor de Corrente
Text Notes 8300 1450 0    60   ~ 0
Sensores de Tensão de Saída e Entrada
Text Notes 1150 800  0    60   ~ 0
Alimentação e Programação do ESP via FTDI\nChaveamento para alimentação pelo circuito ou pelo FTDI
Text Notes 6650 1750 0    60   ~ 0
Header para entradas\nnão-usadas do ADC
$Sheet
S 2250 950  950  2300
U 5A1C78E5
F0 "ESP" 60
F1 "ESP.sch" 60
F2 "TXD" I L 2250 1300 60 
F3 "RXD" I L 2250 1400 60 
F4 "VCC" I L 2250 1600 60 
F5 "SCL" I L 2250 2050 60 
F6 "SDA" I L 2250 1950 60 
F7 "ADC1_CH3" I R 3200 1600 60 
F8 "ADC1_CH6" I R 3200 1850 60 
F9 "ADC1_CH7" I R 3200 1950 60 
F10 "ADC1_CH0" I R 3200 1500 60 
$EndSheet
$Comp
L CONN_01X04 P8
U 1 1 5AC735B2
P 700 2100
F 0 "P8" H 700 2350 50  0000 C CNN
F 1 "oled_i2c" V 800 2100 50  0000 C CNN
F 2 "radiofm_library:oled-096-i2c-4pin_semsuporte" H 700 2100 50  0001 C CNN
F 3 "" H 700 2100 50  0000 C CNN
	1    700  2100
	-1   0    0    1   
$EndComp
$Comp
L GND #PWR030
U 1 1 5AC739E3
P 950 2250
F 0 "#PWR030" H 950 2000 50  0001 C CNN
F 1 "GND" H 950 2100 50  0000 C CNN
F 2 "" H 950 2250 50  0000 C CNN
F 3 "" H 950 2250 50  0000 C CNN
	1    950  2250
	0    -1   -1   0   
$EndComp
$Comp
L +3.3V #PWR031
U 1 1 5AC73F6D
P 1100 2150
F 0 "#PWR031" H 1100 2000 50  0001 C CNN
F 1 "+3.3V" H 1100 2290 50  0000 C CNN
F 2 "" H 1100 2150 50  0000 C CNN
F 3 "" H 1100 2150 50  0000 C CNN
	1    1100 2150
	0    1    1    0   
$EndComp
Wire Wire Line
	900  2250 950  2250
Wire Wire Line
	900  2150 1100 2150
$Comp
L CONN_01X04 P2
U 1 1 5AC76CCD
P 750 1450
F 0 "P2" H 750 1700 50  0000 C CNN
F 1 "FTDI_HEADER" V 850 1450 50  0000 C CNN
F 2 "Pin_Headers:Pin_Header_Straight_1x04_Pitch2.54mm" H 750 1450 50  0001 C CNN
F 3 "" H 750 1450 50  0000 C CNN
	1    750  1450
	-1   0    0    1   
$EndComp
Wire Wire Line
	9700 2650 10100 2650
Wire Wire Line
	8100 2650 8500 2650
Text GLabel 9700 2650 0    60   Input ~ 0
VSENSE_OUT
Text GLabel 8100 2650 0    60   Input ~ 0
VSENSE_IN
Wire Wire Line
	8500 3850 7350 3850
Text GLabel 6700 2600 2    60   Input ~ 0
VSENSE_IN
Text GLabel 6700 2750 2    60   Input ~ 0
VSENSE_OUT
Wire Wire Line
	6600 2600 6700 2600
Wire Wire Line
	6600 2750 6700 2750
Text GLabel 3250 1500 2    60   Input ~ 0
VSENSE_IN
Wire Wire Line
	3200 1500 3250 1500
Text GLabel 3250 1850 2    60   Input ~ 0
VSENSE_OUT
Wire Wire Line
	3200 1850 3250 1850
Wire Wire Line
	950  1600 950  1700
Wire Wire Line
	950  1500 1350 1500
Wire Wire Line
	950  1400 2250 1400
Wire Wire Line
	950  1300 2250 1300
$Comp
L +5V #PWR032
U 1 1 5AC7630A
P 2800 6900
F 0 "#PWR032" H 2800 6750 50  0001 C CNN
F 1 "+5V" H 2800 7040 50  0000 C CNN
F 2 "" H 2800 6900 50  0000 C CNN
F 3 "" H 2800 6900 50  0000 C CNN
	1    2800 6900
	1    0    0    -1  
$EndComp
Wire Wire Line
	1950 6900 2850 6900
Connection ~ 2800 6900
Connection ~ 2600 6900
Wire Wire Line
	2600 6950 2600 6900
Text GLabel 6650 4800 2    60   Input ~ 0
ISENSE_IN
Wire Wire Line
	6550 4800 6650 4800
Wire Wire Line
	7250 5100 7250 4500
Wire Wire Line
	7250 4500 7450 4500
Text GLabel 7150 4650 0    60   Input ~ 0
ISENSE_OUT
Wire Wire Line
	7150 4650 7450 4650
Text GLabel 6700 2900 2    60   Input ~ 0
ISENSE_IN
Text GLabel 6700 3050 2    60   Input ~ 0
ISENSE_OUT
Wire Wire Line
	6600 2900 6700 2900
Wire Wire Line
	6600 3050 6700 3050
Text GLabel 3250 1600 2    60   Input ~ 0
ISENSE_IN
Text GLabel 3250 1950 2    60   Input ~ 0
ISENSE_OUT
Wire Wire Line
	3200 1950 3250 1950
Wire Wire Line
	3200 1600 3250 1600
$Comp
L CONN_01X06 P9
U 1 1 5AC86D62
P 700 2800
F 0 "P9" H 700 3150 50  0000 C CNN
F 1 "BME280" V 800 2800 50  0000 C CNN
F 2 "Pin_Headers:Pin_Header_Straight_1x06_Pitch2.54mm" H 700 2800 50  0001 C CNN
F 3 "" H 700 2800 50  0000 C CNN
	1    700  2800
	-1   0    0    1   
$EndComp
$Comp
L +3.3V #PWR033
U 1 1 5AC8768A
P 1000 3150
F 0 "#PWR033" H 1000 3000 50  0001 C CNN
F 1 "+3.3V" H 1000 3290 50  0000 C CNN
F 2 "" H 1000 3150 50  0000 C CNN
F 3 "" H 1000 3150 50  0000 C CNN
	1    1000 3150
	0    1    1    0   
$EndComp
$Comp
L GND #PWR034
U 1 1 5AC879DB
P 1000 2950
F 0 "#PWR034" H 1000 2700 50  0001 C CNN
F 1 "GND" H 1000 2800 50  0000 C CNN
F 2 "" H 1000 2950 50  0000 C CNN
F 3 "" H 1000 2950 50  0000 C CNN
	1    1000 2950
	0    -1   -1   0   
$EndComp
$Comp
L +3.3V #PWR035
U 1 1 5AC87B75
P 1450 2600
F 0 "#PWR035" H 1450 2450 50  0001 C CNN
F 1 "+3.3V" H 1450 2740 50  0000 C CNN
F 2 "" H 1450 2600 50  0000 C CNN
F 3 "" H 1450 2600 50  0000 C CNN
	1    1450 2600
	0    1    1    0   
$EndComp
Wire Wire Line
	900  3050 950  3050
Wire Wire Line
	950  3050 950  3150
Wire Wire Line
	950  3150 1000 3150
Wire Wire Line
	900  2950 1000 2950
Wire Wire Line
	1300 2550 1400 2550
Wire Wire Line
	1400 2550 1400 2650
Wire Wire Line
	1400 2650 1300 2650
Wire Wire Line
	1450 2600 1400 2600
Connection ~ 1400 2600
Wire Wire Line
	2250 1950 900  1950
Wire Wire Line
	2250 2050 900  2050
Wire Wire Line
	900  2750 1700 2750
Wire Wire Line
	900  2850 1800 2850
$Comp
L R R29
U 1 1 5AE76D21
P 1150 2550
F 0 "R29" V 1050 2550 50  0000 C CNN
F 1 "10K" V 1150 2550 50  0000 C CNN
F 2 "Resistors_SMD:R_0805" V 1080 2550 50  0001 C CNN
F 3 "" H 1150 2550 50  0000 C CNN
	1    1150 2550
	0    1    1    0   
$EndComp
$Comp
L R R31
U 1 1 5AE76ECA
P 1150 2650
F 0 "R31" V 1230 2650 50  0000 C CNN
F 1 "10K" V 1150 2650 50  0000 C CNN
F 2 "Resistors_SMD:R_0805" V 1080 2650 50  0001 C CNN
F 3 "" H 1150 2650 50  0000 C CNN
	1    1150 2650
	0    1    1    0   
$EndComp
Wire Wire Line
	1000 2550 900  2550
Wire Wire Line
	900  2650 1000 2650
Wire Wire Line
	1700 2750 1700 1950
Connection ~ 1700 1950
Wire Wire Line
	1800 2850 1800 2050
Connection ~ 1800 2050
$EndSCHEMATC
