"Id";"Designator";"Package";"Quantity";"Designation";"Supplier and ref";
1;"P8";"oled-096-i2c-4pin";1;"oled_i2c";;;
2;"C28,C1,C3,C5,C6,C7,C8,C9,C12,C13,C14,C23,C24,C25,C26,C27";"C_0805";16;"10μF";;;
3;"C2,C11,C31,C32";"CP_Elec_6.3x7.7";4;"22μF";;;
4;"C4,C20,C22";"C_0805";3;"1μF";;;
5;"C10,C34";"C_0805";2;"220pF";;;
6;"C15,C19";"C_0805";2;"1nF";;;
7;"C16,C17,C18,C21,C35";"C_0805";5;"100nF";;;
8;"C29,C30";"CP_Radial_D6.3mm_P2.50mm";2;"47μF";;;
9;"C33";"C_0805";1;"10nF";;;
10;"D1,D3";"LED_0805";2;"LED";;;
11;"D2";"D_MiniMELF";1;"BAT42";;;
12;"L1,L2";"WE-HCF_SMD_High_Current_Inductor";2;"10μH";;;
13;"P1";"TerminalBlock_Phoenix_MKDS1.5-2pol";1;"J1-VPV";;;
14;"P2";"Pin_Header_Straight_1x04_Pitch2.54mm";1;"FTDI_HEADER";;;
15;"P3";"USB_A";1;"USB_A";;;
16;"P4";"TerminalBlock_Phoenix_MKDS1.5-2pol";1;"J2-OUT";;;
17;"P5";"Pin_Header_Straight_1x05_Pitch2.54mm";1;"AD7829_HEADER";;;
18;"P6,P7";"Pin_Header_Straight_2x20_Pitch2.54mm";2;"CONN_20X2";;;
19;"P9";"Pin_Header_Straight_1x06_Pitch2.54mm";1;"BME280";;;
20;"Q1,Q2";"SO-8";2;"SI4154";;;
21;"R1,R2,R21,R23";"R_2816";4;"0.01";;;
22;"R3,R24";"R_0805";2;"2.7K";;;
23;"R4,R6,R11,R12,R14,R18";"R_0805";6;"10k";;;
24;"R5,R25";"R_0805";2;"180K";;;
25;"R7,R26";"R_0805";2;"100";;;
26;"R8";"R_0805";1;"6.8K";;;
27;"R9,R16,R27,R30";"R_0805";4;"10K";;;
28;"R10";"R_0805";1;"3K";;;
29;"R13";"R_0805";1;"30K";;;
30;"R15,R28";"R_0805";2;"330";;;
31;"R17";"R_0805";1;"100K";;;
32;"R19";"R_0805";1;"10";;;
33;"R20,R22";"R_0805";2;"1K";;;
34;"SW1,SW4";"SW_Micro_SPST";2;"SPDT";;;
35;"SW2,SW3,SW5";"SW_PUSH_6mm";3;"SW_PUSH";;;
36;"U1,U6";"SOT-223";2;"AMS1117";;;
37;"U2";"SOIC-8_3.9x4.9mm_Pitch1.27mm";1;"MCP6V02";;;
38;"U4";"SOIC-8_3.9x4.9mm_Pitch1.27mm";1;"MCP14628";;;
39;"U5";"TSSOP-28_4.4x9.7mm_Pitch0.65mm";1;"AD7829-1";;;
40;"U3";"ESP-32S";1;"ESP-32S";;;
